<?xml version="1.0" encoding="utf-8"?>
<!-- Generator: Adobe Illustrator 27.4.1, SVG Export Plug-In . SVG Version: 6.00 Build 0)  -->
<svg version="1.1" id="Layer_1" xmlns="http://www.w3.org/2000/svg" xmlns:xlink="http://www.w3.org/1999/xlink" x="0px" y="0px"
	 viewBox="0 0 300 296" style="enable-background:new 0 0 300 296;" xml:space="preserve">
<style type="text/css">
	.st0{fill:#FFFFFF;}
</style>
<g transform="translate(0.000000,296.000000) scale(0.100000,-0.100000)">
	<path class="st0" d="M1297,2946.3c-148.6-22.3-271.4-56.2-396.4-110.3C803.7,2793.6,724,2750.2,640,2694
		c-72.2-48.8-82.9-58.3-181-150.5c-223-209.9-365.2-460.1-435.2-769.7c-20.5-93.3-24.8-138.9-23.7-301.1
		c0-195.1,8.6-258.7,57.1-418.8C214.5,526,674.4,121,1234.6,18.2c134.6-24.4,397.5-24.4,531,1.1c214.4,40.3,338.2,89.1,546.1,213.1
		c164.8,98.6,372.7,308.5,473.9,478.1c59.2,99.7,133.6,267.2,159.4,359.4c74.3,269.3,73.2,562.9-3.2,826.9
		c-87.2,295.8-281.1,571.4-540.7,763.3c-43.1,31.8-82.9,58.3-87.2,58.3c-4.3,0-16.2,6.4-24.8,14.8c-9.7,8.5-48.5,31.8-87.2,51.9
		C1931.5,2928.3,1588.9,2989.8,1297,2946.3z M1733.3,2882.7c53.9-8.5,133.6-25.4,177.7-37.1c114.2-30.7,343.6-146.3,453.5-226.9
		c181-134.6,347.9-335,439.5-526.9c92.6-194,129.3-344.5,137.9-560.8c8.6-257.6-34.5-459-147.6-683.8
		c-79.7-159-172.3-279.9-313.4-412.4c-59.2-56.2-105.6-101.8-100.2-101.8c4.3,0,17.2,8.5,29.1,19.1c11.8,9.5,18.3,12.7,14,5.3
		c-3.2-7.4-22.6-23.3-42-37.1c-22.6-15.9-29.1-18-19.4-5.3c22.6,28.6,5.4,21.2-63.6-24.4C1940.1,51,1460.8-11.5,1039.6,127.4
		c-490.1,161.1-852,564-960.8,1067.6c-33.4,153.7-33.4,412.4,0,566.1c123.9,574.6,588.1,1019.9,1169.8,1120.6
		C1363.8,2901.8,1612.6,2902.8,1733.3,2882.7z M1969.2,2849.8c28-9.5,48.5-19.1,46.3-21.2c-2.2-2.1-30.2,5.3-62.5,15.9
		c-32.3,11.7-52.8,21.2-46.3,21.2C1913.2,2866.8,1941.2,2859.4,1969.2,2849.8z M2546.5,2488.3l80.8-82.7l-82.9,79.5
		c-77.6,73.2-89.4,84.8-80.8,84.8C2464.6,2569.9,2502.3,2532.8,2546.5,2488.3z M33.5,1428.2c-2.2-28.6-3.2-5.3-3.2,49.8
		c0,55.1,1.1,78.5,3.2,50.9C35.7,1500.2,35.7,1455.7,33.5,1428.2z M2621.9,541.9c0-1.1-42-43.5-93.7-92.2l-94.8-90.1l91.6,93.3
		C2610.1,538.7,2621.9,550.4,2621.9,541.9z M467.6,454.9c37.7-38.2,66.8-68.9,63.6-68.9c-2.2,0-36.6,30.7-74.3,68.9
		s-66.8,68.9-63.6,68.9C395.5,523.8,429.9,493.1,467.6,454.9z M905,154.9c-5.4-4.2-135.7,59.4-135.7,66.8c0,3.2,31.2-10.6,70-28.6
		C876.9,174,907.1,157,905,154.9z M1531.8,28.8c-16.2-2.1-45.2-2.1-64.6,0s-6.5,4.2,29.1,4.2S1548,30.9,1531.8,28.8z"/>
	<path class="st0" d="M1889.5,2793.6c0-13.8,10.8-22.3,36.6-26.5c20.5-4.2,48.5-15.9,63.6-27.6c28-22.3,61.4-28.6,61.4-11.7
		c0,5.3-19.4,26.5-43.1,47.7c-32.3,28.6-52.8,38.2-80.8,38.2C1897,2813.8,1889.5,2809.5,1889.5,2793.6z M1976.7,2775.6
		c18.3-8.5,30.2-19.1,26.9-22.3c-3.2-3.2-11.8-1.1-19.4,4.2c-7.5,6.4-28,15.9-46.3,22.3c-19.4,6.4-24.8,11.7-12.9,11.7
		C1935.8,2792.6,1959.5,2785.1,1976.7,2775.6z"/>
	<path class="st0" d="M1396.1,2786.2c-29.1-20.1-31.2-46.6-3.2-46.6c11.8,0,24.8-4.2,28-10.6c4.3-6.4-5.4-10.6-20.5-10.6
		c-33.4,0-35.5-11.7-8.6-35c12.9-11.7,38.8-18,75.4-18c44.2,0,58.2,4.2,71.1,23.3c11.8,15.9,12.9,27.6,5.4,42.4
		c-12.9,23.3-50.6,25.4-60.3,3.2c-8.6-24.4,5.4-32.9,31.2-17c17.2,10.6,20.5,10.6,17.2,0c-6.5-19.1-58.2-33.9-91.6-26.5
		c-25.9,7.4-25.9,8.5-8.6,27.6c17.2,19.1,16.2,20.1-12.9,36c-29.1,14.8-26.9,14.8,48.5,12.7c82.9-3.2,104.5,5.3,65.7,26.5
		c-18.3,8.5-29.1,8.5-48.5-2.1c-20.5-10.6-29.1-10.6-38.8-1.1C1429.5,2806.3,1425.2,2806.3,1396.1,2786.2z"/>
	<path class="st0" d="M1264.7,2771.4c-18.3-18-21.5-29.7-15.1-56.2c10.8-54.1,24.8-73.2,50.6-68.9c19.4,2.1,23.7,10.6,23.7,40.3
		c0,29.7-4.3,37.1-21.5,37.1c-11.8,0-21.5-7.4-21.5-15.9s8.6-14.8,19.4-14.8c9.7,1.1,18.3-3.2,18.3-8.5s-10.8-8.5-23.7-6.4
		c-19.4,2.1-24.8,10.6-24.8,35c0,26.5,4.3,31.8,30.2,35c34.5,4.2,37.7,18,7.5,33.9C1290.6,2790.4,1281.9,2788.3,1264.7,2771.4z"/>
	<path class="st0" d="M1632,2783c-8.6-5.3-11.8-17-8.6-25.4c3.2-9.5,1.1-18-5.4-20.1c-16.2-5.3-1.1-29.7,19.4-29.7
		c8.6,0,15.1,5.3,15.1,11.7c0,5.3,5.4,7.4,10.8,4.2c6.5-3.2,10.8-13.8,10.8-23.3c0-12.7-7.5-14.8-37.7-9.5
		c-20.5,4.2-37.7,3.2-37.7-2.1c0-17,25.9-33.9,50.6-33.9c19.4,0,26.9,7.4,32.3,31.8c6.5,35,29.1,41.3,63.6,15.9
		c19.4-14.8,19.4-14.8-8.6-15.9c-17.2,0-30.2-3.2-30.2-6.4c0-15.9,23.7-46.6,37.7-46.6c18.3,0,22.6,6.4,31.2,48.8
		c6.5,29.7,4.3,33.9-24.8,46.6c-18.3,7.4-43.1,10.6-53.9,7.4c-12.9-3.2-29.1,3.2-40.9,17c-18.3,21.2-18.3,21.2,2.2,12.7
		c11.8-4.2,36.6-9.5,53.9-11.7c18.3-1.1,43.1-6.4,57.1-9.5c12.9-4.2,23.7-3.2,23.7,3.2c0,20.1-30.2,33.9-61.4,27.6
		c-19.4-4.2-35.5-1.1-39.9,5.3C1681.6,2794.7,1652.5,2795.7,1632,2783z"/>
	<path class="st0" d="M1141.9,2743.8c-3.2-9.5-6.5-26.5-6.5-38.2c0-15.9,6.5-20.1,29.1-17c40.9,4.2,43.1-19.1,2.2-39.2
		c-21.5-11.7-46.3-15.9-67.9-11.7c-39.9,7.4-54.9-1.1-37.7-22.3c15.1-17,74.3-18,110.9-1.1c58.2,25.4,51.7,115.6-6.5,97.5
		c-10.8-3.2-19.4-1.1-19.4,5.3s11.8,11.7,26.9,11.7c30.2,0,36.6,15.9,9.7,25.4C1157,2763.9,1149.5,2761.8,1141.9,2743.8z"/>
	<path class="st0" d="M1847.4,2720.5c-9.7-17-3.2-23.3,47.4-43.5c96.9-39.2,110.9-79.5,19.4-55.1c-49.5,12.7-84,31.8-74.3,40.3
		c2.2,2.1,14-1.1,26.9-8.5c22.6-14.8,44.2-5.3,26.9,11.7c-19.4,19.1-62.5,17-66.8-3.2c-5.4-28.6,26.9-58.3,72.2-67.8
		c71.1-13.8,105.6,0,93.7,37.1c-6.5,20.1-38.8,39.2-107.7,65.7c-45.2,17-25.9,25.4,22.6,10.6c60.3-20.1,61.4-20.1,80.8-33.9
		c26.9-19.1,36.6-2.1,14,23.3c-12.9,13.8-26.9,19.1-43.1,14.8c-14-3.2-29.1,1.1-36.6,10.6
		C1903.5,2745.9,1860.4,2743.8,1847.4,2720.5z"/>
	<path class="st0" d="M1038.5,2708.8c-16.2-31.8-2.2-55.1,28-47.7c16.2,4.2,25.9,2.1,25.9-6.4c0-6.4,5.4-8.5,10.8-5.3
		c18.3,10.6-11.8,39.2-34.5,33.9c-10.8-3.2-19.4-1.1-19.4,4.2s9.7,9.5,20.5,9.5c28,0,37.7,17,16.2,25.4
		C1059,2733.2,1050.4,2730,1038.5,2708.8z"/>
	<path class="st0" d="M888.8,2659c-35.5-14.8-68.9-66.8-54.9-88c5.4-10.6,14-11.7,28-3.2c14,7.4,23.7,6.4,34.5-5.3
		c8.6-7.4,11.8-18,8.6-22.3c-4.3-3.2-11.8,0-17.2,8.5c-8.6,12.7-12.9,12.7-23.7,2.1c-11.8-11.7-8.6-18,12.9-33.9
		c32.3-24.4,58.2-9.5,48.5,28.6c-6.5,28.6-2.2,29.7,30.2,8.5c12.9-8.5,29.1-11.7,36.6-7.4c18.3,10.6,29.1,62.5,15.1,70
		c-6.5,4.2-11.8,0-11.8-8.5c0-26.5-30.2-35-87.2-24.4c-29.1,5.3-52.8,13.8-52.8,19.1c0,14.8,61.4,41.3,93.7,40.3
		c28-1.1,28-1.1,5.4-7.4c-25.9-7.4-33.4-25.4-15.1-31.8c16.2-5.3,45.2,28.6,38.8,44.5C969.6,2669.6,926.5,2674.9,888.8,2659z"/>
	<path class="st0" d="M1447.8,2628.2c0-9.5-9.7-15.9-26.9-15.9c-35.5,0-35.5-29.7,0-38.2c15.1-3.2,37.7-4.2,51.7-1.1
		c67.9,17,98,26.5,86.2,27.6c-7.5,1.1-14,10.6-14,22.3c0,13.8-7.5,21.2-21.5,21.2c-14,0-21.5-6.4-20.5-18c0-11.7,3.2-13.8,6.5-5.3
		c2.2,6.4,9.7,9.5,15.1,6.4c16.2-9.5-23.7-35-54.9-35c-23.7,0-24.8,1.1-7.5,10.6c22.6,12.7,24.8,41.3,2.2,41.3
		C1455.4,2644.1,1447.8,2636.7,1447.8,2628.2z"/>
	<path class="st0" d="M2066.1,2632.5c-4.3-7.4,4.3-21.2,18.3-32.9l25.9-20.1l-35.5,6.4c-34.5,7.4-35.5,6.4-28-23.3
		c10.8-44.5,21.5-51.9,60.3-37.1c24.8,8.5,37.7,9.5,48.5,1.1c21.5-19.1,16.2-32.9-7.5-18c-25.9,15.9-39.9,4.2-21.5-18
		c17.2-21.2,49.5-20.1,58.2,1.1c10.8,27.6-23.7,57.2-65.7,57.2c-19.4,0-35.5,5.3-35.5,10.6c0,6.4,7.5,10.6,16.2,10.6
		c19.4,0,21.5,22.3,3.2,40.3c-9.7,9.5-8.6,12.7,6.5,12.7c30.2,0,92.6-41.3,92.6-61.5c-1.1-15.9-2.2-15.9-11.8,1.1
		c-11.8,19.1-42,25.4-42,7.4c0-14.8,42-33.9,60.3-27.6c23.7,9.5,17.2,37.1-16.2,71c-24.8,23.3-42,30.7-75.4,30.7
		C2093,2644.1,2070.4,2638.8,2066.1,2632.5z"/>
	<path class="st0" d="M704.6,2531.8c-16.2-40.3-12.9-54.1,6.5-27.6c17.2,24.4,62.5,31.8,74.3,11.7c4.3-5.3-1.1-20.1-10.8-30.7
		c-22.6-24.4-12.9-42.4,22.6-42.4c38.8,0,42,24.4,8.6,73.2c-22.6,33.9-35.5,43.5-60.3,43.5C722.9,2559.3,712.1,2553,704.6,2531.8z"
		/>
	<path class="st0" d="M1340.1,2548.7c-279-38.2-580.6-220.5-736.8-443.1c-51.7-73.2-25.9-60.4,34.5,19.1
		c313.4,402.9,881.1,533.3,1341,306.4c48.5-24.4,100.2-51.9,115.3-62.5c22.6-14.8,58.2-19.1,99.1-11.7
		c10.8,1.1,94.8,107.1,94.8,117.7c0,5.3-7.5,17-17.2,25.4c-15.1,15.9-15.1,17,0,17c9.7,0,17.2-4.2,17.2-8.5c0-5.3,16.2-18,36.6-28.6
		c39.9-21.2,56-54.1,37.7-76.3c-8.6-9.5-17.2-10.6-32.3-2.1c-26.9,13.8-39.9,5.3-37.7-24.4c2.2-39.2,38.8-36,79.7,7.4
		c28,28.6,34.5,42.4,28,60.4c-8.6,29.7-23.7,40.3-54.9,40.3c-16.2,0-24.8,7.4-26.9,24.4c-4.3,29.7-51.7,38.2-73.2,12.7
		c-12.9-15.9-12.9-19.1,3.2-27.6c25.9-14.8,23.7-26.5-16.2-74.2c-38.8-47.7-60.3-50.9-102.3-15.9c-26.9,23.3-29.1,28.6-16.2,48.8
		c10.8,18,10.8,22.3-3.2,27.6c-18.3,7.4-48.5-12.7-48.5-32.9c0-7.4,10.8-26.5,23.7-43.5l23.7-29.7l-47.4,29.7
		c-155.1,93.3-329.6,144.2-522.4,149.5C1468.3,2556.2,1378.9,2554,1340.1,2548.7z"/>
	<path class="st0" d="M1287.3,2501c-226.2-49.8-413.6-153.7-562.3-310.6c-400.7-420.9-380.2-1071.8,45.2-1471.5
		c478.3-447.4,1248.4-357.3,1613.6,187.6c189.6,282,226.2,644.6,99.1,958.4c-120.6,296.8-393.2,535.4-706.6,620.2
		C1664.3,2515.9,1392.9,2524.3,1287.3,2501z M1615.9,2495.7c244.5-30.7,450.2-128.3,619.4-295.8c133.6-132.5,223-286.2,274.7-472.8
		c32.3-115.6,29.1-403.9-4.3-518.4c-223-761.2-1177.3-1011.4-1741.7-456.9C632.4,880.1,537.6,1042.3,487,1223.5
		c-35.5,130.4-35.5,378.5,0,508.9C624.9,2231.7,1108.5,2558.3,1615.9,2495.7z"/>
	<path class="st0" d="M1235.6,2442.7c-365.2-94.4-650.6-393.3-730.3-766.5c-20.5-93.3-20.5-303.2,0-396.5
		C571,975.5,766,725.3,1043.9,587.5c144.3-71,245.6-96.5,420.1-102.8c113.1-4.2,159.4-1.1,243.4,15.9
		c465.3,94.4,806.8,508.9,806.8,978.5c0,167.5-59.2,372.1-153,525.8c-46.3,77.4-188.5,225.8-271.4,284.1
		c-91.6,64.7-202.5,116.6-312.4,148.4c-108.8,30.7-124.9,31.8-124.9,12.7c0-22.3,37.7-60.4,60.3-60.4c46.3,0,66.8-12.7,64.6-38.2
		c-1.1-20.1-5.4-23.3-22.6-18c-11.8,4.2-31.2,7.4-44.2,8.5c-11.8,0-22.6,6.4-22.6,13.8c0,8.5,8.6,12.7,20.5,9.5
		c10.8-3.2,19.4-2.1,19.4,3.2c0,9.5-54.9,21.2-66.8,14.8c-14-8.5,30.2-73.2,64.6-94.4c21.5-13.8,31.2-27.6,28-38.2
		c-3.2-10.6,6.5-26.5,23.7-40.3l29.1-22.3h-31.2c-59.2,0-62.5-18-4.3-24.4c102.3-11.7,266.1-119.8,353.3-233.2
		c177.7-232.2,210-521.6,87.2-780.3c-31.2-66.8-33.4-88-7.5-67.8c20.5,15.9,81.9,32.9,143.3,38.2c47.4,5.3,51.7,4.2,32.3-9.5
		c-10.8-8.5-35.5-14.8-53.9-14.8c-53.9,0-147.6-30.7-137.9-45.6c4.3-7.4,0-7.4-10.8,2.1c-9.7,7.4-18.3,27.6-18.3,42.4
		c0,43.5-50.6,133.6-92.6,165.4c-46.3,35-61.4,26.5-22.6-13.8c32.3-32.9,61.4-96.5,61.4-131.5c-1.1-21.2-3.2-19.1-16.2,10.6
		c-8.6,19.1-22.6,37.1-32.3,40.3c-8.6,3.2-16.2,13.8-16.2,22.3c0,22.3-49.5,66.8-76.5,66.8c-18.3,0-21.5-5.3-18.3-24.4
		c4.3-21.2,1.1-25.4-25.9-25.4c-35.5,0-43.1-5.3-35.5-26.5c8.6-20.1,51.7-40.3,89.4-41.3c28,0,28-1.1,5.4-11.7
		c-20.5-9.5-46.3-57.2-46.3-84.8c0-5.3,12.9,0,28,11.7c16.2,12.7,42,22.3,58.2,22.3c34.5,0,86.2-43.5,86.2-71
		c0-25.4-145.4-162.2-171.3-162.2c-5.4,0-11.8,28.6-16.2,63.6s-8.6,63.6-9.7,63.6s-17.2-4.2-35.5-9.5c-32.3-9.5-35.5-7.4-53.9,31.8
		c-18.3,41.3-18.3,42.4,7.5,68.9l24.8,26.5l-63.6,57.2c-56,49.8-66.8,55.1-77.6,40.3c-7.5-9.5-15.1-21.2-17.2-27.6
		c-2.2-6.4-23.7-4.2-57.1,7.4c-52.8,17-53.9,18-49.5,54.1l4.3,37.1h-92.6h-91.6l5.4-31.8c6.5-28.6,3.2-32.9-44.2-55.1
		c-48.5-23.3-50.6-23.3-65.7-4.2c-7.5,10.6-16.2,25.4-18.3,31.8c-2.2,6.4-33.4-14.8-68.9-46.6l-64.6-58.3l25.9-21.2l25.9-21.2
		l-24.8-45.6c-23.7-43.5-26.9-45.6-64.6-40.3l-38.8,6.4l-8.6-66.8c-4.3-36-7.5-70-6.5-74.2c2.2-5.3-2.2-6.4-8.6-2.1
		c-6.5,3.2-8.6,10.6-6.5,14.8c3.2,4.2-28,35-67.9,67.8c-88.3,71-100.2,100.7-52.8,139.9c38.8,32.9,79.7,33.9,113.1,3.2l24.8-22.3
		v25.4c0,32.9-28,73.2-51.7,74.2c-9.7,1.1,3.2,5.3,29.1,10.6c50.6,9.5,76.5,25.4,76.5,47.7c0,15.9-37.7,29.7-53.9,20.1
		c-7.5-4.2-9.7,2.1-4.3,20.1c5.4,24.4,3.2,27.6-19.4,27.6c-25.9,0-73.2-39.2-73.2-59.4c0-6.4-11.8-22.3-25.9-35
		c-14-13.8-29.1-36-33.4-50.9c-3.2-14.8-8.6-24.4-11.8-21.2c-12.9,12.7,30.2,126.2,61.4,161.1c42,46.6,23.7,48.8-28,4.2
		c-45.2-39.2-66.8-76.3-86.2-151.6c-11.8-43.5-11.8-56.2-1.1-67.8c10.8-11.7,14-4.2,15.1,36c2.2,44.5,35.5,142.1,49.5,142.1
		c3.2,0-1.1-19.1-9.7-42.4s-15.1-72.1-15.1-108.1c-1.1-90.1,1.1-103.9,12.9-103.9c6.5,0,8.6-2.1,6.5-4.2
		c-10.8-10.6-224,24.4-253.1,40.3l-31.2,18l32.3-6.4c18.3-4.2,61.4-11.7,96.9-17c35.5-5.3,80.8-12.7,101.3-15.9
		c33.4-5.3,35.5-4.2,23.7,10.6c-7.5,8.5-10.8,21.2-6.5,27.6c4.3,6.4,3.2,9.5-2.2,8.5c-4.3-2.1-20.5,5.3-35.5,15.9
		c-14,9.5-21.5,18-16.2,18c31.2,1.1-51.7,31.8-102.3,38.2c-58.2,6.4-126,31.8-115.3,43.5c3.2,2.1,15.1,0,25.9-5.3
		c10.8-5.3,45.2-12.7,77.6-15.9c31.2-4.2,73.2-15.9,93.7-27.6s36.6-20.1,36.6-18c0,2.1-16.2,38.2-36.6,81.6
		c-95.9,206.7-94.8,450.6,4.3,646.7c94.8,189.8,286.5,348.8,439.5,366.8c62.5,7.4,57.1,23.3-8.6,24.4l-37.7,1.1l30.2,15.9
		c18.3,9.5,29.1,23.3,26.9,33.9c-2.2,11.7,16.2,36,43.1,59.4c24.8,22.3,42,44.5,38.8,49.8c-8.6,13.8-25.9,11.7-22.6-2.1
		c1.1-6.4-5.4-14.8-14-17c-14-4.2-14-3.2,0,6.4c19.4,13.8,15.1,14.8-29.1,2.1c-30.2-8.5-33.4-7.4-37.7,14.8
		c-5.4,25.4,12.9,37.1,63.6,37.1c12.9,0,33.4,12.7,45.2,27.6C1370.3,2470.3,1357.3,2474.5,1235.6,2442.7z M1317.5,2427.9
		c-8.6-7.4-47.4-22.3-88.3-32.9c-288.7-74.2-553.7-317-656-600c-53.9-152.7-74.3-326.5-52.8-456.9c4.3-28.6,5.4-50.9,1.1-50.9
		c-22.6,0-29.1,249.1-9.7,356.2c67.9,378.5,358.7,691.2,732.5,786.6C1328.3,2452.3,1343.3,2451.2,1317.5,2427.9z M1819.4,2408.8
		c423.3-135.7,709.8-556.6,679.7-993.4c-10.8-156.9-23.7-142.1-19.4,23.3c3.2,133.6,1.1,162.2-23.7,255.5
		c-87.2,332.9-325.3,583.1-658.1,691.2c-67.9,21.2-124.9,45.6-128.2,54.1C1662.2,2456.5,1684.8,2452.3,1819.4,2408.8z
		 M1876.5,2336.7c2.2-6.4,11.8-10.6,21.5-10.6c33.4,0,46.3-15.9,36.6-41.3l-8.6-23.3l-25.9,22.3l-26.9,22.3l26.9-7.4
		c33.4-8.5,16.2,11.7-18.3,22.3c-18.3,5.3-24.8,2.1-24.8-10.6c0-12.7-4.3-14.8-19.4-6.4c-10.8,6.4-29.1,9.5-40.9,7.4
		c-10.8-2.1-14-1.1-6.5,1.1c7.5,3.2,10.8,9.5,6.5,14.8c-3.2,6.4-3.2,17,0,25.4c4.3,11.7,12.9,12.7,40.9,4.2
		C1857.1,2351.5,1875.5,2342,1876.5,2336.7z M1202.2,2342c0-5.3-14-19.1-33.4-29.7c-25.9-15.9-32.3-17-26.9-4.2
		c3.2,8.5-2.2,18-14,23.3c-18.3,7.4-18.3,8.5,2.2,17C1158.1,2359,1200.1,2355.8,1202.2,2342z M1096.7,2310.2
		c-19.4-13.8-19.4-14.8,6.5-9.5l26.9,6.4l-26.9-22.3c-31.2-25.4-45.2-28.6-36.6-7.4c3.2,8.5,0,18-7.5,23.3
		c-9.7,5.3-7.5,9.5,7.5,15.9C1103.1,2330.3,1120.4,2327.2,1096.7,2310.2z M1274.4,2316.6c11.8-7.4,4.3-14.8-28-31.8
		c-23.7-11.7-46.3-19.1-49.5-15.9s-33.4-2.1-67.9-10.6s-64.6-14.8-65.7-12.7c-7.5,7.4,104.5,48.8,133.6,49.8
		c16.2,0,39.9,5.3,51.7,10.6c16.2,7.4,12.9,8.5-16.2,4.2c-29.1-4.2-32.3-3.2-16.2,4.2C1244.2,2327.2,1256.1,2328.2,1274.4,2316.6z
		 M1744,2316.6c-17.2-7.4-15.1-9.5,15.1-14.8c20.5-4.2,45.2-7.4,57.1-7.4c25.9,0,100.2-30.7,92.6-38.2
		c-9.7-8.5-158.3,24.4-175.6,38.2c-19.4,15.9-10.8,31.8,14,30.7C1762.4,2325,1762.4,2322.9,1744,2316.6z M1015.9,2276.3
		c-14-15.9-12.9-15.9,8.6-5.3c31.2,17,36.6,15.9,28-3.2c-3.2-9.5-19.4-23.3-36.6-32.9c-26.9-12.7-31.2-13.8-31.2,0
		c0,8.5-6.5,17-12.9,20.1c-8.6,2.1,0,11.7,18.3,21.2C1031,2298.5,1033.1,2298.5,1015.9,2276.3z M1971.3,2272c4.3-7.4,9.7-8.5,14-1.1
		c4.3,7.4,16.2,6.4,33.4-3.2c21.5-12.7,23.7-14.8,6.5-15.9c-12.9,0-17.2-5.3-12.9-15.9c3.2-8.5,2.2-15.9-3.2-15.9
		c-14,0-65.7,42.4-65.7,54.1C1943.3,2287.9,1961.6,2285.8,1971.3,2272z M1220.6,2242.3c11.8-7.4,8.6-12.7-12.9-27.6
		c-16.2-9.5-34.5-15.9-42-12.7c-7.5,2.1-21.5-1.1-30.2-8.5c-25.9-21.2-65.7-30.7-59.2-13.8c3.2,7.4-4.3,20.1-16.2,27.6
		c-18.3,10.6-28,10.6-53.9-3.2c-18.3-9.5-38.8-25.4-46.3-37.1c-6.5-11.7-17.2-21.2-22.6-21.2c-5.4,0-21.5-10.6-35.5-23.3
		c-14-12.7-24.8-18-24.8-12.7c1.1,17,25.9,41.3,57.1,54.1c16.2,7.4,29.1,18,29.1,24.4c0,15.9,75.4,45.6,128.2,49.8
		c26.9,2.1,50.6,6.4,53.9,8.5C1153.8,2255.1,1204.4,2251.9,1220.6,2242.3z M1838.8,2240.2c-6.5-6.4-9.7-19.1-6.5-26.5
		c6.5-18,1.1-18-34.5-2.1c-43.1,19.1-31.2,37.1,26.9,39.2C1844.2,2251.9,1847.4,2248.7,1838.8,2240.2z M1972.4,2228.6
		c75.4-43.5,207.9-153.7,207.9-172.8c0-4.2-7.5-2.1-15.1,5.3c-10.8,8.5-22.6,8.5-34.5,2.1s-14-11.7-5.4-17
		c6.5-4.2,11.8-2.1,11.8,5.3c0,7.4,8.6,5.3,21.5-6.4c15.1-13.8,21.5-14.8,21.5-5.3s9.7,5.3,26.9-10.6c15.1-13.8,26.9-29.7,26.9-35
		c0-6.4-10.8-1.1-23.7,10.6c-23.7,21.2-49.5,21.2-63.6,1.1c-3.2-5.3-16.2,2.1-28,17c-11.8,14.8-24.8,23.3-29.1,19.1
		c-4.3-3.2-4.3,1.1-1.1,10.6c4.3,10.6,10.8,18,14,17c21.5-2.1,34.5,3.2,29.1,12.7c-6.5,10.6-38.8,2.1-49.5-13.8
		c-4.3-6.4-19.4,2.1-35.5,17c-34.5,33.9-37.7,56.2-5.4,38.2c16.2-8.5,20.5-8.5,16.2,0c-12.9,20.1,6.5,12.7,33.4-11.7
		c14-12.7,24.8-17,24.8-10.6c0,7.4-18.3,24.4-39.9,39.2c-22.6,14.8-57.1,39.2-77.6,53c-28,20.1-39.9,23.3-56,14.8
		c-11.8-5.3-20.5-17-20.5-25.4c0-20.1-4.3-20.1-43.1,0c-37.7,19.1-43.1,42.4-7.5,33.9c23.7-6.4,23.7-6.4,2.2,10.6
		c-20.5,15.9-20.5,15.9,10.8,10.6c18.3-2.1,42-7.4,53.9-11.7c21.5-8.5,21.5-7.4,1.1,8.5C1908.8,2259.3,1922.8,2256.1,1972.4,2228.6z
		 M964.2,2210.5c-14-25.4-54.9-49.8-54.9-32.9c0,5.3-8.6,10.6-18.3,10.6c-16.2,1.1-15.1,4.2,6.5,22.3c17.2,13.8,29.1,17,33.4,9.5
		c5.4-7.4,11.8-6.4,21.5,5.3C970.7,2247.6,978.2,2238.1,964.2,2210.5z M2060.7,2218c11.8-10.6,14-10.6,7.5,0
		c-10.8,19.1,5.4,14.8,36.6-8.5c21.5-17,23.7-21.2,8.6-21.2c-10.8,0-19.4-4.2-19.4-10.6c0-17-19.4-12.7-43.1,10.6
		C2017.6,2221.1,2027.3,2248.7,2060.7,2218z M1055.7,2186.2c4.3-6.4-4.3-22.3-21.5-37.1c-26.9-22.3-30.2-23.3-47.4-7.4
		c-16.2,15.9-15.1,19.1,7.5,37.1C1023.4,2202.1,1045,2204.2,1055.7,2186.2z M2009,2178.7c23.7-18,23.7-20.1,6.5-38.2
		c-17.2-17-20.5-17-45.2-1.1c-14,9.5-28,12.7-31.2,7.4c-7.5-11.7,42-44.5,60.3-40.3c7.5,2.1,10.8,2.1,6.5,0
		c-9.7-5.3,119.6-125.1,134.6-125.1c6.5,0,11.8-8.5,14-18c3.2-23.3,44.2-75.3,49.5-64.7c3.2,5.3,3.2,2.1,2.2-5.3
		c-5.4-18,33.4-78.5,44.2-67.8c5.4,4.2,5.4,2.1,2.2-4.2c-9.7-17,18.3-81.6,30.2-71c4.3,5.3,5.4,3.2,1.1-4.2s1.1-43.5,10.8-79.5
		c10.8-40.3,19.4-114.5,20.5-188.7c2.2-166.4,3.2-171.7,17.2-163.3c9.7,5.3,10.8-1.1,5.4-21.2c-4.3-19.1-3.2-26.5,4.3-22.3
		c5.4,3.2,10.8,19.1,10.8,35c1.1,24.4,2.2,25.4,11.8,10.6c16.2-27.6,0-72.1-31.2-83.8c-34.5-12.7-42-5.3-26.9,32.9
		c7.5,21.2,8.6,42.4,2.2,61.5l-9.7,28.6l4.3-28.6c2.2-17,0-29.7-3.2-29.7c-4.3,0-15.1-24.4-24.8-54.1c-17.2-49.8-17.2-53,0-45.6
		c9.7,4.2,52.8,19.1,93.7,31.8c42,13.8,84,29.7,94.8,36c11.8,7.4,18.3,7.4,18.3,0c0-5.3-4.3-10.6-10.8-10.6c-5.4,0-7.5-6.4-4.3-14.8
		s0-26.5-7.5-40.3c-7.5-13.8-15.1-27.6-16.2-31.8c-1.1-5.3-2.2-9.5-4.3-10.6c-1.1-2.1-3.2-12.7-4.3-24.4s-8.6-30.7-16.2-42.4
		c-11.8-20.1-12.9-19.1-8.6,7.4c2.2,17-1.1,30.7-8.6,33.9c-20.5,7.4-149.7-10.6-175.6-24.4c-30.2-15.9-30.2-1.1-2.2,28.6
		c12.9,12.7,19.4,23.3,16.2,23.3s-3.2,6.4,1.1,12.7c5.4,7.4,9.7,20.1,10.8,29.7c0,8.5,9.7,44.5,21.5,79.5
		c23.7,78.5,28,278.8,5.4,365.8c-7.5,31.8-35.5,102.8-61.4,156.9c-74.3,152.7-227.3,297.9-369.5,353c-60.3,23.3-45.2,25.4,25.9,4.2
		c57.1-15.9,72.2-13.8,62.5,11.7c-5.4,14.8-3.2,15.9,16.2,5.3c14-7.4,23.7-8.5,23.7-2.1c0,5.3-6.5,12.7-12.9,14.8
		c-8.6,4.2-7.5,6.4,3.2,6.4C1975.6,2198.9,1995,2190.4,2009,2178.7z M1166.7,2160.7c-202.5-67.8-382.4-272.5-441.6-500.4
		c-28-108.1-28-268.2,1.1-378.5c11.8-45.6,19.4-84.8,16.2-88c-3.2-3.2,3.2-11.7,14-20.1c9.7-8.5-1.1-5.3-24.8,5.3
		c-23.7,11.7-77.6,30.7-120.6,43.5s-80.8,27.6-84,32.9c-8.6,13.8-16.2,15.9,105.6-25.4c78.6-26.5,104.5-30.7,104.5-20.1
		c0,8.5-5.4,11.7-12.9,7.4c-6.5-4.2-9.7-3.2-5.4,2.1c3.2,5.3-3.2,47.7-15.1,94.4c-16.2,65.7-20.5,113.4-18.3,208.8
		c2.2,68.9,6.5,125.1,9.7,125.1s11.8,24.4,19.4,54.1c8.6,29.7,30.2,85.9,50.6,124c19.4,38.2,32.3,74.2,30.2,78.5
		c-3.2,5.3-1.1,7.4,3.2,6.4c9.7-3.2,122.8,123,118.5,130.4c-1.1,2.1,0,3.2,2.2,2.1c9.7-6.4,65.7,42.4,59.2,50.9
		c-4.3,6.4-14,4.2-24.8-5.3c-18.3-15.9-65.7-12.7-65.7,5.3c0,9.5,43.1,41.3,57.1,41.3c4.3,0,5.4-6.4,1.1-12.7
		c-6.5-10.6-4.3-10.6,7.5,0c19.4,18,32.3,15.9,23.7-5.3c-5.4-12.7-3.2-14.8,7.5-8.5c9.7,5.3,11.8,4.2,6.5-3.2
		c-4.3-7.4-4.3-12.7-1.1-12.7c10.8,0,80.8,49.8,76.5,54.1c-2.2,2.1,6.5,5.3,20.5,5.3c12.9,1.1,37.7,8.5,54.9,17s37.7,12.7,46.3,9.5
		C1197.9,2175.6,1189.3,2169.2,1166.7,2160.7z M884.5,2160.7c3.2-9.5-3.2-25.4-18.3-39.2c-15.1-14.8-25.9-19.1-29.1-11.7
		c-2.2,7.4-15.1,10.6-28,7.4c-20.5-4.2-19.4-1.1,11.8,27.6C859.7,2181.9,874.8,2185.1,884.5,2160.7z M2185.7,2134.2
		c17.2-19.1,18.3-22.3,4.3-17c-9.7,3.2-22.6,1.1-28-4.2c-6.5-6.4-19.4,0-35.5,17c-21.5,22.3-23.7,29.7-10.8,37.1
		C2134,2177.7,2156.6,2167.1,2185.7,2134.2z M823.1,2093.9c0-14.8-52.8-72.1-53.9-57.2c0,6.4-9.7,9.5-23.7,6.4l-24.8-6.4l25.9,28.6
		c16.2,17,29.1,23.3,33.4,17c4.3-7.4,11.8-6.4,21.5,5.3C816.6,2105.6,823.1,2107.7,823.1,2093.9z M876.9,2100.3
		c0-1.1-26.9-30.7-59.2-65.7c-61.4-64.7-84-67.8-26.9-4.2c18.3,20.1,39.9,44.5,48.5,55.1C853.2,2100.3,876.9,2110.9,876.9,2100.3z
		 M2215.8,2084.4c3.2,9.5,12.9,6.4,33.4-11.7c33.4-30.7,36.6-48.8,5.4-31.8c-17.2,8.5-24.8,8.5-31.2-1.1
		c-5.4-8.5-12.9-5.3-25.9,11.7c-21.5,31.8-23.7,66.8-2.2,38.2C2206.1,2075.9,2211.5,2073.8,2215.8,2084.4z M898.5,2049.4
		c0-5.3-9.7-19.1-21.5-30.7c-20.5-20.1-23.7-21.2-39.9-4.2c-17.2,15.9-16.2,19.1,5.4,37.1C866.2,2069.5,898.5,2068.5,898.5,2049.4z
		 M755.2,1991.1c-1.1-21.2-3.2-33.9-5.4-26.5c-2.2,6.4-9.7,8.5-16.2,4.2c-15.1-9.5-61.4-11.7-61.4-3.2c0,4.2,12.9,18,29.1,32.9
		c15.1,13.8,24.8,19.1,20.5,12.7c-4.3-7.4-3.2-13.8,2.2-13.8c6.5,0,12.9,7.4,17.2,15.9C750.9,2039.9,756.3,2031.4,755.2,1991.1z
		 M2277.2,2008.1c0,10.6,3.2,10.6,17.2,0c8.6-8.5,20.5-21.2,25.9-30.7c6.5-13.8,2.2-17-22.6-18c-18.3-1.1-32.3,5.3-36.6,15.9
		c-5.4,12.7-8.6,13.8-15.1,2.1c-5.4-8.5-8.6-2.1-7.5,18c1.1,29.7,2.2,30.7,20.5,15.9C2271.8,1998.5,2277.2,1997.5,2277.2,2008.1z
		 M805.9,1984.7c-5.4-9.5-2.2-9.5,9.7,1.1c16.2,11.7,18.3,11.7,18.3-2.1c0-20.1-42-71-43.1-50.9c0,7.4-6.5,11.7-16.2,7.4
		c-20.5-7.4-20.5,4.2,1.1,33.9C792.9,1998.5,819.9,2008.1,805.9,1984.7z M2187.8,1979.4c15.1-18,15.1-18,9.7,2.1
		c-5.4,17-1.1,14.8,20.5-8.5c15.1-15.9,26.9-24.4,26.9-17s8.6,5.3,21.5-6.4c11.8-10.6,21.5-26.5,21.5-36
		c-1.1-13.8-4.3-12.7-19.4,4.2c-21.5,24.4-56,33.9-56,14.8s-39.9,19.1-46.3,44.5C2159.8,2002.8,2167.4,2002.8,2187.8,1979.4z
		 M688.4,1895.7c-12.9-20.1-21.5-24.4-31.2-15.9c-9.7,7.4-17.2,7.4-28-2.1c-7.5-6.4-4.3,3.2,6.5,22.3c18.3,31.8,45.2,49.8,31.2,21.2
		c-3.2-7.4,2.2-2.1,12.9,11.7c16.2,22.3,19.4,23.3,22.6,7.4C704.6,1930.7,698.1,1910.5,688.4,1895.7z M734.8,1926.4
		c-9.7-10.6-28-42.4-42-72.1c-15.1-30.7-26.9-45.6-29.1-36c-2.2,9.5,8.6,36,23.7,57.2c16.2,22.3,28,46.6,28,54.1s6.5,14.8,14,18
		C749.8,1955,752,1946.6,734.8,1926.4z M2331.1,1924.3c1.1,9.5,7.5,6.4,21.5-10.6c24.8-28.6,29.1-51.9,6.5-33.9
		c-11.8,9.5-16.2,9.5-20.5-1.1c-8.6-19.1-39.9,20.1-39.9,48.8c1.1,22.3,1.1,22.3,16.2,2.1
		C2326.8,1914.8,2331.1,1912.6,2331.1,1924.3z M780,1910.5c0-5.3-7.5-24.4-17.2-42.4c-11.8-23.3-19.4-28.6-25.9-19.1
		c-4.3,7.4-14,9.5-20.5,6.4c-18.3-11.7-14,9.5,8.6,38.2C745.5,1919,780,1929.6,780,1910.5z M2249.2,1907.3
		c-5.4,19.1-3.2,18,16.2-4.2c26.9-29.7,28-39.2,4.3-47.7c-21.5-8.5-46.3,18-46.3,50.9c0,21.2,0,21.2,16.2,0
		C2255.7,1886.1,2255.7,1886.1,2249.2,1907.3z M2331.1,1833.1c0-9.5-4.3-13.8-10.8-10.6c-7.5,4.2-7.5-3.2,0-21.2
		c14-37.1,14-37.1-11.8-33.9c-25.9,4.2-42,25.4-42,55.1c1.1,20.1,1.1,20.1,15.1,2.1c15.1-19.1,15.1-19.1,22.6,2.1
		c3.2,11.7,1.1,30.7-4.3,42.4c-18.3,33.9-14,38.2,9.7,8.5C2321.4,1862.8,2331.1,1842.7,2331.1,1833.1z M641.1,1799.2
		c-6.5-11.7-11.8-13.8-11.8-5.3c0,10.6-5.4,10.6-21.5,2.1c-24.8-12.7-25.9-10.6-8.6,26.5c7.5,17,15.1,22.3,20.5,14.8
		c4.3-7.4,10.8-3.2,16.2,12.7l9.7,25.4l3.2-28.6C650.7,1831,647.5,1809.8,641.1,1799.2z M2370.9,1841.6c8.6-10.6,12.9-12.7,8.6-5.3
		c-3.2,6.4-4.3,12.7-1.1,12.7c8.6,0,31.2-45.6,34.5-68.9c1.1-11.7,9.7-39.2,19.4-60.4c9.7-22.3,12.9-40.3,7.5-40.3
		c-5.4,0-12.9,8.5-16.2,18c-6.5,14.8-9.7,15.9-16.2,4.2c-10.8-17-18.3-6.4-26.9,41.3c-7.5,35-6.5,36,9.7,15.9
		c17.2-21.2,17.2-21.2,14,0c-6.5,37.1-18.3,48.8-34.5,35c-9.7-9.5-11.8-22.3-5.4-45.6c12.9-43.5,11.8-45.6-7.5-18
		c-10.8,15.9-14,35-9.7,58.3c5.4,26.5,4.3,30.7-5.4,18c-10.8-13.8-11.8-12.7-6.5,3.2c3.2,10.6,6.5,26.5,6.5,35
		C2341.9,1864.9,2352.6,1863.9,2370.9,1841.6z M724,1788.6c-4.3-24.4-51.7-26.5-51.7-3.2c0,10.6,8.6,25.4,18.3,32.9
		c15.1,12.7,17.2,12.7,10.8-1.1c-4.3-8.5-2.2-7.4,5.4,3.2c11.8,15.9,15.1,15.9,17.2,2.1C726.1,1814,726.1,1798.1,724,1788.6z
		 M609.8,1758.9c6.5,14.8,7.5,8.5,4.3-24.4c-2.2-24.4-1.1-42.4,3.2-39.2c5.4,2.1,4.3-20.1-2.2-50.9c-15.1-84.8-16.2-282-2.2-343.5
		c7.5-30.7,9.7-56.2,5.4-56.2c-11.8,0-33.4,96.5-34.5,159v58.3l-7.5-47.7c-4.3-35-9.7-43.5-16.2-32.9c-8.6,12.7-11.8,11.7-18.3-5.3
		c-5.4-13.8-8.6-7.4-8.6,24.4c-1.1,24.4,4.3,47.7,9.7,50.9c6.5,3.2,10.8-4.2,10.8-18c1.1-38.2,32.3,54.1,32.3,94.4
		c0,19.1,5.4,55.1,12.9,80.6c15.1,57.2,4.3,111.3-18.3,92.2c-17.2-13.8-10.8-36,6.5-26.5c10.8,7.4,12.9-20.1,3.2-55.1
		c-4.3-13.8-10.8-22.3-15.1-19.1c-15.1,9.5-31.2-22.3-24.8-48.8l7.5-25.4l7.5,26.5c6.5,22.3,7.5,19.1,8.6-15.9
		c0-33.9-5.4-46.6-26.9-61.5l-26.9-20.1l7.5,41.3c5.4,22.3,7.5,55.1,6.5,74.2c-2.2,43.5,15.1,91.2,31.2,81.6c8.6-5.3,8.6-1.1,0,14.8
		c-9.7,17-7.5,32.9,6.5,67.8s19.4,40.3,23.7,24.4C600.1,1737.7,600.1,1737.7,609.8,1758.9z M693.8,1713.3
		c0-33.9-10.8-49.8-31.2-49.8c-8.6,0-16.2-12.7-18.3-28.6c-3.2-35,14-40.3,20.5-5.3c3.2,14.8,5.4,9.5,6.5-14.8
		c1.1-26.5-5.4-43.5-18.3-53c-15.1-11.7-18.3-22.3-12.9-46.6c5.4-21.2,8.6-24.4,9.7-10.6c1.1,11.7,5.4,27.6,10.8,36
		c5.4,8.5,7.5-5.3,3.2-37.1c-3.2-28.6-10.8-56.2-18.3-62.5s-9.7-22.3-4.3-42.4c7.5-31.8,7.5-31.8,8.6-3.2
		c2.2,45.6,17.2,42.4,19.4-5.3c2.2-23.3,7.5-47.7,14-54.1c5.4-5.3,10.8-14.8,10.8-21.2c0-5.3-9.7,0-22.6,12.7
		c-11.8,12.7-25.9,21.2-31.2,18c-10.8-6.4,10.8-79.5,23.7-79.5c5.4,0,4.3,9.5-2.2,22.3c-6.5,11.7-9.7,26.5-7.5,33.9
		s16.2-9.5,29.1-37.1c29.1-58.3,24.8-68.9-18.3-48.8c-24.8,11.7-31.2,23.3-38.8,72.1c-4.3,31.8-6.5,72.1-3.2,88
		c4.3,20.1,2.2,27.6-5.4,22.3c-8.6-5.3-9.7,8.5-5.4,44.5c3.2,28.6,7.5,73.2,10.8,99.7c11.8,118.7,15.1,138.9,32.3,164.3
		C676.6,1758.9,693.8,1752.6,693.8,1713.3z M2320.3,1721.8c5.4,0,7.5,7.4,4.3,15.9c-11.8,28.6,5.4,17,22.6-15.9
		c21.5-40.3,22.6-81.6,2.2-64.7c-8.6,6.4-18.3,8.5-21.5,5.3c-9.7-9.5-29.1,44.5-28,73.2c1.1,18,2.2,19.1,6.5,5.3
		C2308.5,1730.3,2314.9,1721.8,2320.3,1721.8z M2395.7,1639.1c0-29.7-3.2-35-10.8-23.3c-14,21.2-14,77.4,0,68.9
		C2391.4,1681.5,2395.7,1660.3,2395.7,1639.1z M2428,1659.3c7.5,10.6,11.8,7.4,19.4-11.7c20.5-55.1,24.8-86.9,11.8-78.5
		c-9.7,5.3-10.8,2.1-4.3-12.7c14-31.8,17.2-205.7,3.2-180.2c-8.6,14.8-12.9,17-20.5,5.3c-15.1-23.3-23.7,17-11.8,50.9l10.8,29.7
		l2.2-26.5l2.2-26.5l7.5,26.5c6.5,19.1,3.2,32.9-10.8,47.7c-9.7,11.7-20.5,36-22.6,53c-2.2,18-4.3-20.1-5.4-84.8
		c0-127.2-10.8-206.7-26.9-206.7c-6.5,0-7.5,7.4-4.3,17c10.8,28.6,29.1,217.3,21.5,229c-3.2,5.3-3.2,51.9,2.2,101.8
		c4.3,50.9,9.7,82.7,12.9,72.1C2418.3,1648.7,2421.6,1647.6,2428,1659.3z M2352.6,1621.1c7.5,19.1,9.7,19.1,20.5-8.5
		c15.1-38.2,15.1-71,0-71c-8.6,0-8.6-4.2,1.1-15.9c6.5-8.5,12.9-36,12.9-60.4c-1.1-25.4-1.1-66.8-1.1-92.2
		c0-40.3-2.2-45.6-16.2-33.9c-8.6,7.4-21.5,10.6-28,6.4c-6.5-4.2-10.8,5.3-10.8,23.3c0,15.9-2.2,39.2-4.3,50.9s-1.1,15.9,1.1,8.5
		c5.4-13.8,46.3-14.8,46.3-1.1c0,4.2-9.7,12.7-21.5,19.1c-26.9,13.8-28,59.4-4.3,86.9c17.2,17,17.2,19.1,0,25.4
		c-11.8,4.2-17.2,19.1-16.2,50.9c1.1,29.7,3.2,35,7.5,17C2344,1602,2345.1,1601,2352.6,1621.1z M582.9,1298.8
		c6.5-45.6,5.4-47.7-22.6-37.1c-17.2,6.4-22.6,50.9-10.8,83.8C560.3,1372,576.4,1349.7,582.9,1298.8z M2436.6,1334.9
		c-5.4-26.5,7.5-37.1,16.2-12.7c2.2,6.4,3.2-1.1,1.1-19.1c-4.3-28.6-19.4-46.6-38.8-47.7c-11.8,0-10.8,19.1,3.2,66.8
		C2430.2,1365.6,2444.2,1376.2,2436.6,1334.9z M1038.5,1228.8c0-18-51.7-54.1-62.5-43.5c-4.3,4.2,6.5,20.1,22.6,33.9
		C1034.2,1249,1038.5,1250,1038.5,1228.8z M2005.8,1216.1c19.4-19.1,23.7-29.7,15.1-32.9c-15.1-4.2-66.8,37.1-66.8,53
		C1954.1,1253.2,1976.7,1244.7,2005.8,1216.1z M652.9,1196c50.6-15.9,94.8-37.1,116.3-57.2c37.7-35,37.7-51.9,0-31.8
		c-21.5,11.7-121.7,30.7-179.9,35c-12.9,1.1-26.9,6.4-31.2,10.6c-5.4,4.2,0,5.3,11.8,1.1c17.2-6.4,15.1-1.1-7.5,20.1
		c-34.5,31.8-40.9,66.8-10.8,55.1C561.3,1224.6,606.6,1209.8,652.9,1196z M1563.1,1203.4c-6.5-29.7-4.3-31.8,60.3-57.2l66.8-24.4
		l16.2,23.3l17.2,24.4l47.4-40.3l48.5-41.3l-22.6-24.4l-22.6-25.4l25.9-55.1c23.7-51.9,28-55.1,57.1-48.8
		c35.5,6.4,37.7,3.2,47.4-67.8l6.5-44.5l-38.8,6.4c-35.5,5.3-38.8,4.2-32.3-14.8c7.5-24.4-14-38.2-42-28.6
		c-11.8,4.2-16.2,22.3-16.2,61.5c0,142.1-135.7,271.4-285.4,271.4c-100.2,0-210-65.7-254.2-151.6c-12.9-23.3-25.9-72.1-29.1-107.1
		c-3.2-36-9.7-67.8-16.2-72.1c-16.2-10.6-36.6,1.1-43.1,24.4c-4.3,14.8-15.1,20.1-45.2,20.1c-32.3,0-37.7,3.2-34.5,19.1
		c3.2,9.5,8.6,36,12.9,58.3c5.4,35,9.7,39.2,30.2,32.9c12.9-3.2,26.9-7.4,32.3-8.5c4.3,0,23.7,26.5,42,60.4l34.5,62.5l-24.8,18
		l-24.8,18l48.5,39.2l48.5,39.2l17.2-26.5l17.2-25.4l64.6,28.6c59.2,26.5,64.6,30.7,61.4,58.3l-4.3,28.6h70h70L1563.1,1203.4z
		 M2117.8,1179c24.8-48.8,35.5-158,17.2-191.9c-8.6-17-6.5-19.1,25.9-13.8c19.4,4.2,67.9,11.7,107.7,17c39.9,6.4,80.8,13.8,91.6,18
		c12.9,4.2,16.2,3.2,8.6-4.2c-17.2-18-80.8-33.9-156.2-40.3c-38.8-4.2-79.7-9.5-91.6-11.7c-17.2-4.2-18.3-3.2-5.4,5.3
		c12.9,9.5,12.9,11.7,1.1,11.7c-11.8,0-10.8,5.3,4.3,21.2c10.8,11.7,15.1,21.2,9.7,21.2s-10.8,29.7-10.8,66.8
		c-1.1,36-9.7,83.8-18.3,106C2079,1237.3,2087.7,1234.1,2117.8,1179z M1092.4,1175.8c-14-17-86.2-22.3-86.2-6.4
		c0,11.7,24.8,19.1,68.9,21.2C1101,1191.7,1104.2,1189.6,1092.4,1175.8z M1973.5,1185.4c12.9-4.2,23.7-10.6,23.7-15.9
		c0-15.9-72.2-10.6-86.2,6.4c-10.8,13.8-9.7,15.9,11.8,15.9C1936.9,1191.7,1959.5,1188.6,1973.5,1185.4z M984.7,1154.6
		c0-8.5-14-22.3-32.3-31.8c-39.9-20.1-42-4.2-4.3,25.4C982.5,1174.8,984.7,1174.8,984.7,1154.6z M2040.3,1159.9
		c11.8-6.4,26.9-21.2,33.4-33.9l11.8-22.3l-34.5,20.1C1999.3,1152.5,1990.7,1186.4,2040.3,1159.9z M610.9,1075.1
		c10.8-23.3,24.8-42.4,31.2-42.4c6.5,0,4.3,8.5-5.4,19.1c-10.8,10.6-18.3,23.3-18.3,26.5c0,8.5,47.4,2.1,64.6-8.5
		c5.4-3.2,10.8-2.1,10.8,4.2s7.5,8.5,16.2,5.3c9.7-4.2,15.1-17,14-29.7c-2.2-11.7,2.2-22.3,7.5-22.3c6.5,0,9.7,9.5,7.5,21.2
		c-2.2,20.1-1.1,19.1,14-2.1c9.7-13.8,22.6-24.4,29.1-24.4c6.5,0,3.2,10.6-8.6,22.3c-20.5,23.3-20.5,23.3,1.1,11.7
		c11.8-5.3,33.4-23.3,47.4-38.2l25.9-27.6h-32.3c-18.3,0-38.8,7.4-46.3,15.9c-10.8,12.7-17.2,13.8-29.1,4.2
		c-11.8-9.5-18.3-8.5-30.2,7.4c-19.4,25.4-20.5,40.3-2.2,29.7c6.5-4.2,9.7-4.2,5.4,0c-3.2,4.2-8.6,7.4-10.8,5.3
		c-1.1-1.1-15.1,3.2-30.2,11.7l-26.9,13.8l22.6-25.4c40.9-46.6,39.9-50.9-7.5-38.2c-33.4,7.4-47.4,18-57.1,41.3
		c-7.5,15.9-16.2,26.5-20.5,22.3c-4.3-3.2-7.5-1.1-7.5,5.3c0,5.3-3.2,19.1-6.5,27.6C554.9,1148.3,592.6,1115.4,610.9,1075.1z
		 M1025.6,1104.8c20.5-20.1,15.1-31.8-7.5-19.1c-31.2,15.9-48.5,13.8-92.6-15.9c-21.5-14.8-37.7-21.2-35.5-13.8
		c7.5,21.2,73.2,61.5,99.1,61.5C1001.9,1117.5,1018,1112.2,1025.6,1104.8z M2068.3,1095.3c20.5-11.7,36.6-28.6,36.6-38.2
		c0-11.7-9.7-8.5-34.5,12.7c-33.4,27.6-51.7,29.7-99.1,10.6c-17.2-7.4-18.3-6.4-7.5,13.8C1979.9,1123.9,2020.9,1123.9,2068.3,1095.3
		z M1618,1071.9c84-38.2,153-147.4,153-242.8c0-49.8-18.3-32.9-24.8,22.3c-16.2,134.6-118.5,226.9-249.9,226.9
		c-76.5,0-136.8-26.5-186.3-81.6c-33.4-37.1-66.8-124-66.8-172.8c0-13.8-5.4-24.4-11.8-24.4c-15.1,0-4.3,94.4,16.2,143.1
		C1305.6,1079.4,1473.7,1137.7,1618,1071.9z M2293.4,1064.5c-10.8-11.7-22.6-18-26.9-15.9c-10.8,6.4-23.7-25.4-15.1-38.2
		c3.2-5.3,2.2-9.5-3.2-8.5c-4.3,1.1-16.2,0-24.8-4.2c-8.6-3.2-28-7.4-43.1-9.5c-23.7-4.2-28-1.1-26.9,21.2
		c0,14.8,7.5,29.7,16.2,31.8c14,5.3,14,3.2,0-13.8c-9.7-12.7-1.1-9.5,22.6,8.5c22.6,15.9,47.4,26.5,60.3,24.4
		c12.9-3.2,25.9,2.1,29.1,10.6s11.8,14.8,18.3,14.8C2307.4,1085.7,2305.2,1077.2,2293.4,1064.5z M2336.5,1075.1
		c-9.7-14.8,8.6-13.8,24.8,2.1c18.3,18,38.8-4.2,30.2-31.8c-4.3-12.7-22.6-24.4-49.5-31.8c-39.9-9.5-58.2-2.1-32.3,13.8
		c6.5,3.2,10.8,11.7,10.8,18c0,7.4-6.5,6.4-16.2-2.1c-8.6-7.4-16.2-20.1-16.2-27.6c0-8.5-4.3-14.8-10.8-14.8
		c-18.3,0-11.8,13.8,23.7,49.8C2335.4,1085.7,2349.4,1095.3,2336.5,1075.1z M1585.7,1047.6c80.8-32.9,141.1-117.7,142.2-198.2
		c0-38.2-2.2-40.3-28-37.1c-23.7,2.1-31.2,11.7-42,48.8c-18.3,61.5-42,93.3-81.9,114.5c-62.5,31.8-162.6,15.9-203.6-32.9
		c-7.5-9.5-22.6-41.3-32.3-72.1c-14-43.5-23.7-56.2-44.2-59.4l-25.9-4.2l26.9-8.5l26.9-8.5l-26.9,2.1c-21.5,2.1-28,8.5-30.2,36
		c-8.6,84.8,49.5,179.2,132.5,216.3C1452.1,1068.8,1531.8,1069.8,1585.7,1047.6z M796.2,947.9c99.1-8.5,149.7-25.4,177.7-58.3
		c14-17,6.5-18-102.3-13.8c-135.7,4.2-187.4,22.3-224,81.6l-21.5,35l35.5-18C682,963.8,739.1,953.2,796.2,947.9z M1573.9,958.5
		c35.5-21.2,59.2-57.2,72.2-109.2c11.8-48.8-24.8-31.8-43.1,19.1c-19.4,56.2-49.5,79.5-105.6,79.5c-53.9,0-89.4-22.3-109.9-70
		c-21.5-50.9-19.4-57.2,20.5-58.3c19.4-1.1,25.9-3.2,15.1-6.4c-10.8-3.2-31.2-2.1-46.3,1.1c-32.3,8.5-34.5,39.2-6.5,90.1
		C1408,974.4,1504.9,999.9,1573.9,958.5z M2344,945.8c-34.5-54.1-100.2-73.2-232.7-70l-108.8,3.2l50.6,29.7
		c39.9,23.3,71.1,31.8,145.4,39.2c51.7,5.3,106.6,13.8,121.7,20.1C2363.4,985,2366.6,981.8,2344,945.8z M1543.7,921.4
		c29.1-14.8,64.6-74.2,51.7-85.9c-3.2-4.2-36.6-7.4-74.3-9.5c-37.7-1.1-45.2,0-16.2,2.1c50.6,4.2,63.6,18,37.7,43.5
		c-22.6,22.3-71.1,14.8-90.5-13.8c-19.4-29.7-58.2-36-58.2-9.5c0,27.6,20.5,56.2,51.7,72.1C1483.4,940.5,1506,941.5,1543.7,921.4z
		 M744.5,872.6c16.2-7.4,86.2-12.7,154-13.8c116.3-1.1,123.9-2.1,123.9-22.3c-1.1-23.3,38.8-49.8,80.8-55.1l26.9-3.2l-29.1,15.9
		c-36.6,20.1-38.8,29.7-4.3,15.9c14-5.3,29.1-6.4,34.5-2.1c4.3,4.2,4.3,1.1,0-5.3c-4.3-8.5-2.2-13.8,5.4-13.8
		c7.5,0,4.3-7.4-7.5-15.9c-20.5-14.8-20.5-14.8,0-15.9c38.8,0,10.8-10.6-53.9-20.1c-44.2-6.4-51.7-9.5-25.9-9.5
		c53.9-2.1,336.1,68.9,301.6,75.3c-15.1,2.1-10.8,3.2,9.7,1.1c20.5-2.1,82.9,1.1,140,6.4c61.4,5.3,118.5,5.3,141.1,0
		c34.5-9.5,33.4-9.5-16.2-6.4c-29.1,2.1-45.2,1.1-34.5-1.1c9.7-2.1,18.3-9.5,18.3-15.9s10.8-8.5,26.9-4.2
		c15.1,4.2,79.7-6.4,153-24.4c155.1-38.2,241.3-47.7,304.8-33.9l48.5,10.6l-64.6-3.2c-35.5-2.1-91.6,0-123.9,4.2l-59.2,7.4l53.9,3.2
		c30.2,1.1,59.2,2.1,65.7,1.1c14-1.1,29.1,37.1,25.9,65.7c-1.1,18,17.2,23.3,47.4,11.7c17.2-6.4,12.9-25.4-5.4-25.4
		c-6.5,0-7.5,5.3-4.3,10.6c3.2,6.4,2.2,10.6-4.3,10.6c-5.4,0-14-4.2-17.2-10.6c-3.2-5.3-1.1-10.6,6.5-10.6s5.4-8.5-6.5-21.2
		c-10.8-11.7-16.2-24.4-12.9-28.6c4.3-3.2,7.5-1.1,7.5,5.3c0,18,96.9,70,108.8,58.3c16.2-15.9-20.5-54.1-58.2-59.4
		c-18.3-2.1-7.5-3.2,24.8-1.1c40.9,2.1,52.8,0,37.7-6.4c-11.8-5.3-17.2-9.5-11.8-9.5c11.8-1.1-53.9-53-121.7-95.4
		c-45.2-28.6-58.2-31.8-101.3-26.5c-30.2,4.2-51.7,13.8-56,23.3c-3.2,9.5-3.2,13.8,1.1,9.5c8.6-8.5,35.5,23.3,36.6,43.5
		c0,6.4-5.4,12.7-11.8,12.7c-6.5,0-8.6-7.4-5.4-17c3.2-8.5,2.2-12.7-4.3-9.5c-6.5,3.2-10.8,13.8-10.8,22.3c0,8.5-5.4,12.7-10.8,9.5
		c-6.5-3.2-10.8-23.3-10.8-44.5c0-33.9-2.2-37.1-23.7-30.7c-14,4.2-47.4,11.7-74.3,19.1c-48.5,11.7-49.5,11.7-30.2,30.7
		c21.5,21.2,28,62.5,8.6,62.5c-6.5,0-8.6-8.5-5.4-18c7.5-24.4-8.6-50.9-25.9-40.3c-8.6,5.3-9.7,10.6-1.1,19.1
		c21.5,21.2,14,49.8-14,49.8c-18.3,0-24.8-5.3-23.7-18c2.2-9.5,8.6-20.1,15.1-22.3c7.5-2.1,9.7-8.5,6.5-14.8
		c-4.3-6.4,0-14.8,7.5-21.2c9.7-5.3-5.4-6.4-38.8-1.1c-84,12.7-273.6,9.5-342.5-5.3c-91.6-21.2-66.8-27.6,29.1-8.5
		c117.4,24.4,219.7,21.2,356.5-10.6c65.7-15.9,143.3-33.9,174.5-40.3c62.5-13.8,92.6-31.8,34.5-21.2c-20.5,4.2-92.6,21.2-160.5,38.2
		c-75.4,19.1-163.7,33.9-226.2,36c-92.6,5.3-118.5,1.1-274.7-37.1c-157.3-38.2-167-42.4-113.1-42.4c36.6-1.1,70-7.4,84-18
		c14-9.5,28-13.8,31.2-10.6c3.2,3.2-2.2,8.5-11.8,12.7c-23.7,8.5-21.5,25.4,3.2,25.4c21.5,0,51.7-28.6,40.9-39.2
		c-4.3-3.2-1.1-13.8,6.5-22.3c10.8-13.8,6.5-15.9-37.7-9.5c-61.4,8.5-205.7,61.5-193.9,72.1c4.3,4.2,19.4,9.5,34.5,12.7
		c15.1,2.1,4.3,3.2-23.7,0c-46.3-3.2-57.1,1.1-134.6,53c-46.3,30.7-82.9,60.4-80.8,65.7c2.2,5.3-5.4,12.7-16.2,17
		c-18.3,7.4-18.3,8.5,0,8.5c9.7,1.1,18.3,6.4,18.3,12.7s7.5,9.5,16.2,5.3c21.5-7.4,20.5-3.2-5.4,20.1c-21.5,19.1-22.6,19.1-15.1-1.1
		c5.4-15.9,4.3-18-6.5-7.4c-18.3,17-2.2,37.1,23.7,28.6c15.1-4.2,19.4-3.2,14,6.4c-4.3,6.4,8.6,4.2,28-6.4
		c33.4-15.9,35.5-15.9,21.5-1.1c-12.9,15.9-11.8,18,3.2,18c9.7,0,17.2-4.2,17.2-8.5c0-5.3,7.5-9.5,16.2-9.5s16.2,4.2,16.2,8.5
		c0,5.3,7.5,5.3,18.3,2.1c12.9-5.3,15.1-3.2,8.6,7.4c-6.5,9.5-30.2,11.7-95.9,7.4c-88.3-5.3-178.8,9.5-203.6,33.9
		C697.1,887.5,705.7,887.5,744.5,872.6z M2293.4,874.8c-3.2-5.3-21.5-14.8-40.9-21.2c-64.6-21.2-294.1-21.2-281.1,0
		c5.4,8.5,39.9,10.6,110.9,7.4c65.7-3.2,121.7-1.1,151.9,7.4C2297.7,885.4,2300.9,886.4,2293.4,874.8z M1531.8,855.7
		c2.2-9.5-8.6-13.8-35.5-13.8c-35.5,0-38.8,2.1-26.9,15.9C1485.5,876.9,1524.3,874.8,1531.8,855.7z M762.8,834.5
		c4.3-4.2,18.3-8.5,31.2-8.5c18.3,0,23.7-6.4,24.8-28.6c1.1-38.2-5.4-37.1-49.5,7.4c-20.5,20.1-31.2,37.1-25.9,37.1
		C749.8,841.9,758.5,838.7,762.8,834.5z M2234.1,804.8c-39.9-40.3-64.6-47.7-59.2-18c2.2,9.5,4.3,24.4,4.3,31.8
		c1.1,6.4,8.6,12.7,19.4,12.7c15.1,0,15.1-2.1-2.2-21.2c-28-30.7-3.2-25.4,26.9,5.3c14,14.8,30.2,26.5,36.6,26.5
		C2265.4,841.9,2254.6,824.9,2234.1,804.8z M2020.9,803.7c-2.2-10.6-4.3-25.4-4.3-31.8c-1.1-6.4-24.8-10.6-59.2-10.6
		c-31.2,1.1-57.1-2.1-57.1-6.4c0-5.3-10.8-8.5-23.7-7.4c-23.7,0-23.7,1.1-3.2,9.5c11.8,5.3,17.2,9.5,10.8,9.5
		c-5.4,1.1-3.2,6.4,5.4,12.7c11.8,8.5,9.7,9.5-10.8,3.2c-15.1-4.2-28-11.7-30.2-15.9c-2.2-5.3-11.8-9.5-21.5-9.5
		c-12.9,0-9.7,6.4,11.8,19.1c16.2,10.6,26.9,22.3,23.7,25.4c-3.2,3.2,5.4,6.4,20.5,6.4s26.9-3.2,25.9-7.4
		c-3.2-29.7,4.3-32.9,33.4-9.5c16.2,13.8,29.1,26.5,26.9,29.7c-1.1,3.2,10.8,5.3,25.9,4.2C2017.6,823.9,2023,818.6,2020.9,803.7z
		 M1765.6,783.6c58.2-18,35.5-19.1-32.3-1.1c-29.1,8.5-44.2,14.8-32.3,14.8S1741.9,792.1,1765.6,783.6z M1464,640.5
		c-16.2-17-16.2-23.3-5.4-37.1c7.5-8.5,19.4-15.9,25.9-14.8c7.5,0,6.5,2.1-1.1,6.4c-18.3,6.4-18.3,40.3,0,55.1
		c10.8,8.5,18.3,7.4,26.9-1.1c17.2-17,16.2-47.7,0-54.1c-8.6-3.2-6.5-6.4,5.4-6.4c9.7-1.1,18.3,5.3,18.3,12.7
		c0,6.4,5.4,4.2,11.8-6.4c16.2-27.6-7.5-56.2-31.2-37.1c-14,11.7-15.1,10.6-11.8-1.1c9.7-27.6,31.2-24.4,60.3,8.5
		c16.2,18,37.7,32.9,47.4,32.9c23.7,0,46.3-27.6,37.7-47.7c-7.5-19.1-64.6-22.3-57.1-2.1c2.2,6.4,12.9,11.7,22.6,11.7
		c9.7-1.1,17.2,2.1,17.2,7.4c0,5.3-10.8,9.5-24.8,9.5c-17.2,0-28-9.5-36.6-30.7c-10.8-29.7-15.1-31.8-65.7-30.7
		c-34.5,0-60.3,5.3-67.9,14.8c-17.2,20.1-4.3,31.8,16.2,15.9c18.3-14.8,38.8-7.4,37.7,12.7c0,9.5-2.2,9.5-5.4,0
		c-8.6-21.2-36.6-3.2-36.6,23.3c0,13.8-11.8,33.9-26.9,45.6c-30.2,23.3-21.5,31.8,31.2,32.9C1482.3,661.7,1483.4,661.7,1464,640.5z
		 M1614.8,645.8c60.3-13.8,98-40.3,86.2-59.4c-3.2-4.2-20.5,0-38.8,8.5c-19.4,9.5-45.2,13.8-63.6,9.5c-25.9-4.2-35.5,0-53.9,25.4
		C1517.8,667,1522.2,668,1614.8,645.8z M1405.8,629.9c33.4-18,23.7-26.5-30.2-27.6c-28-1.1-52.8-7.4-54.9-13.8
		c-6.5-19.1-23.7-12.7-23.7,9.5C1297,634.1,1360.6,653.2,1405.8,629.9z M1425.2,584.3c8.6-11.7,5.4-13.8-19.4-9.5
		c-17.2,2.1-34.5-1.1-38.8-8.5c-5.4-9.5-1.1-10.6,15.1-5.3c16.2,5.3,22.6,2.1,22.6-9.5c0-21.2-42-22.3-49.5-1.1
		C1339,590.6,1396.1,618.2,1425.2,584.3z M1764.5,574.7l-20.5-23.3l26.9,18c26.9,19.1,154,26.5,134.6,8.5
		c-15.1-12.7-145.4-54.1-173.4-54.1c-19.4,0-21.5,4.2-17.2,29.7c6.5,31.8,19.4,44.5,49.5,44.5C1785,598.1,1785,598.1,1764.5,574.7z
		 M1352,528.1c6.5-8.5,4.3-14.8-7.5-19.1c-25.9-9.5-45.2-6.4-20.5,4.2c11.8,5.3,15.1,9.5,8.6,9.5c-7.5,1.1-14,12.7-14,25.4
		c0,35,15.1,46.6,19.4,15.9C1340.1,551.4,1346.6,534.4,1352,528.1z M1676.2,533.4c-9.7-14.8-8.6-20.1,6.5-23.3
		c14-4.2,11.8-5.3-5.4-6.4c-28-1.1-43.1,17-25.9,33.9c6.5,6.4,11.8,21.2,11.8,33.9c1.1,20.1,1.1,20.1,12.9,1.1
		C1684.8,557.8,1684.8,547.2,1676.2,533.4z M1437.1,494.2c-17.2-6.4-64.6,7.4-64.6,18c0,5.3,8.6,11.7,19.4,14.8
		C1412.3,531.3,1456.4,500.5,1437.1,494.2z M1619.1,506.9c-12.9-15.9-63.6-20.1-63.6-6.4c0,18,23.7,30.7,49.5,25.4
		C1625.6,522.8,1628.8,518.5,1619.1,506.9z"/>
	<path class="st0" d="M2422.6,1234.1c-11.8-5.3-49.5-17-82.9-27.6c-34.5-9.5-71.1-24.4-80.8-32.9c-18.3-14.8-18.3-14.8,2.2-7.4
		c11.8,4.2,59.2,20.1,105.6,36c46.3,15.9,87.2,31.8,90.5,36C2466.8,1246.9,2448.5,1244.7,2422.6,1234.1z"/>
	<path class="st0" d="M2411.9,1594.6c-4.3-6.4,0-20.1,9.7-30.7c9.7-10.6,14-22.3,9.7-25.4c-3.2-4.2-1.1-7.4,5.4-7.4
		c14,0,9.7,49.8-5.4,64.7C2422.6,1604.1,2417.3,1603.1,2411.9,1594.6z"/>
	<path class="st0" d="M914.6,785.7l32.3-23.3l-48.5-6.4l-48.5-6.4l57.1-1.1c54.9-2.1,56-1.1,45.2,22.3l-11.8,23.3l21.5-24.4
		c22.6-26.5,38.8-9.5,18.3,21.2c-8.6,13.8-15.1,14.8-31.2,6.4c-14-7.4-23.7-7.4-32.3,1.1c-6.5,6.4-17.2,11.7-22.6,11.7
		C887.7,810.1,896.3,798.4,914.6,785.7z"/>
	<path class="st0" d="M1461.8,773c-2.2-8.5-1.1-21.2,3.2-28.6c5.4-7.4,9.7-17,9.7-21.2c0-5.3,3.2-8.5,8.6-8.5c4.3,0,11.8,0,17.2,0
		s9.7,14.8,8.6,33.9c-2.2,23.3-7.5,33.9-21.5,36C1476.9,785.7,1465.1,780.4,1461.8,773z"/>
	<path class="st0" d="M1081.6,767.7c0-8.5-15.1-11.7-43.1-8.5c-23.7,2.1-43.1,0-43.1-4.2c0-5.3,24.8-8.5,53.9-8.5
		c50.6,0,67.9,11.7,43.1,26.5C1087,776.2,1081.6,774,1081.6,767.7z"/>
	<path class="st0" d="M1391.8,771.9c-4.3-3.2-4.3-13.8-1.1-23.3c4.3-15.9,3.2-15.9-10.8,0c-16.2,20.1-31.2,14.8-21.5-8.5
		c6.5-17,42-20.1,51.7-4.2C1417.7,748.6,1401.5,781.5,1391.8,771.9z"/>
	<path class="st0" d="M1534,757.1c0-11.7,5.4-21.2,10.8-21.2c6.5,0,10.8,6.4,10.8,13.8c0,9.5,2.2,9.5,9.7-1.1
		c6.5-10.6,10.8-9.5,15.1,7.4c4.3,18,1.1,22.3-20.5,22.3C1541.5,778.3,1534,771.9,1534,757.1z"/>
	<path class="st0" d="M1623.4,770.9c-16.2-3.2-24.8-12.7-24.8-25.4c0-30.7,45.2-22.3,49.5,9.5c2.2,12.7,3.2,22.3,1.1,22.3
		C1648.2,776.2,1636.3,773,1623.4,770.9z"/>
	<path class="st0" d="M1292.7,748.6c-8.6-13.8,8.6-32.9,25.9-30.7c16.2,2.1,21.5,9.5,21.5,28.6
		C1340.1,759.2,1300.3,761.3,1292.7,748.6z"/>
	<path class="st0" d="M903.9,725.3c30.2-5.3,68.9-14.8,86.2-20.1c26.9-8.5,28-9.5,8.6-10.6c-17.2-1.1-24.8-7.4-24.8-23.3
		c0-33.9,45.2-22.3,50.6,12.7c4.3,35-9.7,41.3-104.5,46.6l-70,4.2L903.9,725.3z"/>
	<path class="st0" d="M1225.9,720c4.3-13.8,2.2-13.8-15.1-5.3c-28,14.8-32.3,13.8-32.3-10.6c0-11.7,5.4-21.2,10.8-21.2
		c6.5,0,10.8,4.2,10.8,9.5c0,5.3,9.7,7.4,21.5,4.2c16.2-4.2,21.5,0,21.5,17c0,11.7-5.4,22.3-11.8,22.3
		C1224.9,735.9,1221.6,728.5,1225.9,720z"/>
	<path class="st0" d="M1792.5,704.1c0-23.3,16.2-28.6,24.8-7.4c3.2,6.4,6.5,3.2,6.5-8.5c1.1-18,3.2-18,11.8-5.3
		c18.3,27.6,11.8,42.4-16.2,42.4C1800.1,725.3,1792.5,720,1792.5,704.1z"/>
	<path class="st0" d="M1111.8,709.4c-4.3-4.2,0-19.1,8.6-31.8c18.3-27.6,6.5-41.3-23.7-29.7c-12.9,4.2-16.2,3.2-10.8-5.3
		c9.7-17,33.4-15.9,47.4,1.1C1145.2,658.5,1124.7,722.1,1111.8,709.4z"/>
	<path class="st0" d="M1053.6,688.2c-8.6-22.3,3.2-36,26.9-29.7c14,3.2,18.3,11.7,15.1,25.4C1089.1,707.3,1062.2,710.4,1053.6,688.2
		z"/>
	<path class="st0" d="M1951.9,696.7c-10.8-2.1-19.4-11.7-19.4-20.1c0-21.2,31.2-30.7,46.3-14.8c10.8,10.6,8.6,12.7-5.4,7.4
		c-10.8-4.2-19.4-2.1-19.4,3.2c0,6.4,7.5,10.6,16.2,10.6c8.6,0,16.2,5.3,16.2,10.6C1986.4,704.1,1983.2,705.1,1951.9,696.7z"/>
	<path class="st0" d="M1173.2,635.2c-23.7-7.4-33.4-13.8-21.5-13.8s38.8,6.4,59.2,13.8C1259.3,653.2,1229.2,654.2,1173.2,635.2z"/>
	<path class="st0" d="M898.5,1833.1c0-12.7,14-15.9,62.5-15.9c54.9,0,88.3-11.7,88.3-31.8c0-10.6-91.6,2.1-99.1,14.8
		c-5.4,7.4-8.6,7.4-8.6-3.2c0-8.5-7.5-11.7-21.5-8.5c-16.2,4.2-21.5,0-21.5-14.8c0-18,8.6-20.1,63.6-20.1c35.5,0,71.1,3.2,80.8,6.4
		c18.3,7.4,23.7,46.6,6.5,46.6c-5.4,0-10.8,9.5-10.8,21.2c0,19.1-7.5,21.2-70,21.2C913.6,1849,898.5,1845.9,898.5,1833.1z"/>
	<path class="st0" d="M1175.3,1841.6c-4.3-3.2-7.5-12.7-7.5-21.2c0-10.6,42-13.8,210-13.8c202.5,0,210,1.1,210,21.2
		s-7.5,21.2-202.5,21.2C1273.3,1849,1178.5,1845.9,1175.3,1841.6z"/>
	<path class="st0" d="M1838.8,1827.8c-105.6-24.4-176.7-128.3-175.6-258.7c1.1-98.6,58.2-202.5,118.5-215.2
		c17.2-3.2,33.4-11.7,36.6-20.1c8.6-22.3,200.3-21.2,200.3,1.1c0,8.5-5.4,15.9-11.8,15.9c-5.4,0-7.5-4.2-4.3-10.6
		c4.3-6.4-24.8-10.6-79.7-10.6c-47.4,0-89.4,5.3-92.6,10.6c-4.3,6.4,22.6,10.6,74.3,10.6c44.2,0,87.2,3.2,96.9,6.4
		c22.6,8.5,22.6,45.6,0,54.1c-8.6,3.2-14,11.7-10.8,19.1c3.2,9.5-23.7,24.4-81.9,44.5c-77.6,26.5-107.7,46.6-91.6,62.5
		c2.2,3.2,45.2-10.6,94.8-29.7c71.1-28.6,91.6-41.3,96.9-61.5c7.5-26.5,7.5-26.5,8.6,3.2c1.1,15.9-3.2,28.6-9.7,28.6
		c-5.4,0-10.8,5.3-10.8,10.6c0,6.4,7.5,10.6,16.2,10.6c23.7,0,19.4,26.5-7.5,45.6l-24.8,17h24.8c30.2,1.1,32.3,38.2,2.2,54.1
		c-11.8,6.4-21.5,18-21.5,26.5c0,7.4-8.6,17-18.3,19.1c-10.8,3.2-1.1,5.3,21.5,6.4l39.9,1.1v58.3c0,50.9-2.2,58.3-21.5,58.3
		c-16.2,0-21.5,7.4-21.5,26.5c0,25.4-3.2,26.5-56,25.4C1899.2,1836.3,1857.1,1833.1,1838.8,1827.8z M1951.9,1767.4
		c2.2-18-2.2-24.4-16.2-24.4c-10.8-1.1-31.2-7.4-45.2-14.8l-24.8-13.8l24.8-6.4c14-4.2,42-7.4,61.4-7.4c32.3,0,34.5,2.1,34.5,37.1
		c0,25.4,5.4,37.1,16.2,37.1c11.8,0,16.2-12.7,16.2-47.7v-47.7h-52.8c-28,0-66.8,5.3-86.2,11.7c-26.9,9.5-38.8,8.5-57.1-3.2
		c-21.5-14.8-23.7-25.4-26.9-138.9c-2.2-74.2,1.1-125.1,7.5-129.3c17.2-10.6,11.8-27.6-7.5-24.4c-20.5,3.2-57.1,41.3-75.4,77.4
		c-20.5,38.2-24.8,95.4-14,153.7c21.5,109.2,91.6,171.7,188.5,167.5C1941.2,1790.7,1948.7,1787.5,1951.9,1767.4z M1926.1,1633.8
		c47.4-19.1,87.2-40.3,90.5-47.7c2.2-7.4,0-12.7-5.4-12.7c-23.7,0-190.7,70-195,82.7C1809.7,1675.2,1833.4,1670.9,1926.1,1633.8z
		 M1921.8,1567c86.2-33.9,120.6-57.2,84-57.2c-31.2,0-191.7,67.8-191.7,80.6C1814.1,1609.4,1810.8,1610.5,1921.8,1567z
		 M1920.7,1434.5c56-21.2,87.2-38.2,87.2-48.8c0-8.5-6.5-13.8-12.9-10.6c-7.5,2.1-51.7,18-96.9,35c-46.3,17-84,36-84,43.5
		C1814.1,1472.7,1822.7,1471.6,1920.7,1434.5z"/>
	<path class="st0" d="M1196.9,1787.5c-21.5-2.1-29.1-8.5-26.9-21.2c3.2-15.9,23.7-17,188.5-13.8c189.6,3.2,251-6.4,251-38.2
		c0-15.9-18.3-18-23.7-3.2c-2.2,5.3-77.6,10.6-181,10.6c-248.8,1.1-237,2.1-237-15.9c0-13.8,32.3-15.9,226.2-15.9h226.2v25.4
		c0,19.1-7.5,27.6-23.7,30.7c-23.7,4.2-23.7,4.2-2.2,6.4c12.9,0,25.9,9.5,28,20.1c4.3,17-9.7,18-195,18
		C1317.5,1790.7,1213,1789.7,1196.9,1787.5z"/>
	<path class="st0" d="M930.8,1735.6c0-7.4-7.5-13.8-16.2-13.8c-8.6,0-16.2-8.5-16.2-18c0-15.9,9.7-19.1,56-18
		c37.7,1.1,43.1,0,17.2-3.2c-22.6-2.1-40.9-8.5-40.9-14.8c0-5.3-7.5-9.5-16.2-9.5c-8.6,0-16.2-7.4-16.2-15.9
		c0-11.7,12.9-15.9,57.1-15.9c76.5,0,104.5,9.5,104.5,32.9c0,11.7-7.5,20.1-16.2,20.1c-8.6,0-16.2,5.3-16.2,10.6
		c0,6.4,7.5,10.6,16.2,10.6c8.6,0,16.2,9.5,16.2,21.2c0,13.8-6.5,21.2-18.3,20.1c-11.8,0-14-3.2-5.4-6.4c6.5-2.1,12.9-8.5,12.9-13.8
		c0-11.7-101.3,1.1-109.9,14.8C934,1745.1,930.8,1744.1,930.8,1735.6z M1049.3,1659.3c0-8.5-96.9-3.2-106.6,5.3
		c-2.2,2.1,20.5,4.2,50.6,4.2C1024.5,1668.8,1049.3,1664.6,1049.3,1659.3z"/>
	<path class="st0" d="M1200.1,1659.3c-15.1-4.2-28-15.9-30.2-25.4c-3.2-17,14-18,199.3-18c224,0,251,4.2,251,32.9
		c0,19.1-10.8,20.1-196,19.1C1315.3,1666.7,1215.2,1663.5,1200.1,1659.3z M1488.8,1650.8c-45.2-2.1-122.8-2.1-172.3,0
		c-49.5,1.1-11.8,3.2,82.9,3.2S1534,1651.8,1488.8,1650.8z"/>
	<path class="st0" d="M920,1605.2c0-5.3-6.5-10.6-12.9-10.6c-10.8,0-14-30.7-14-116.6s3.2-116.6,14-116.6c6.5,0,12.9-4.2,12.9-10.6
		s29.1-10.6,64.6-10.6h64.6v110.3c0,78.5-4.3,112.4-12.9,115.6c-10.8,4.2-10.8,6.4,0,6.4c6.5,1.1,12.9,10.6,12.9,22.3
		c0,19.1-7.5,21.2-64.6,21.2C949.1,1615.8,920,1611.6,920,1605.2z M1038.5,1596.7c0-4.2-18.3-6.4-39.9-4.2
		c-70,6.4-75.4,10.6-16.2,11.7C1012.7,1604.1,1038.5,1601,1038.5,1596.7z M993.3,1487.5c2.2-49.8-1.1-73.2-11.8-82.7
		c-30.2-24.4-47.4-3.2-49.5,63.6c-2.2,67.8,10.8,97.5,40.9,92.2C985.7,1557.5,991.1,1541.6,993.3,1487.5z M1038.5,1451.5v-100.7
		l-56,2.1l-57.1,2.1l51.7,3.2l50.6,4.2v95.4c0,51.9,2.2,94.4,5.4,94.4S1038.5,1506.6,1038.5,1451.5z"/>
	<path class="st0" d="M1221.6,1593.5c0-5.3-10.8-9.5-23.7-7.4c-16.2,2.1-25.9-3.2-28-14.8c-3.2-17,5.4-19.1,72.2-19.1
		c44.2,0,76.5-4.2,76.5-10.6c0-5.3-21.5-10.6-48.5-10.6c-35.5,0-48.5-4.2-48.5-15.9s12.9-15.9,48.5-15.9h48.5v-68.9v-68.9h62.5h61.4
		l-3.2,79.5l-4.3,79.5h87.2c50.6,0,87.2-4.2,87.2-10.6c0-6.4-30.2-10.6-70-10.6h-70V1425v-74.2H1408c-43.1,0-58.2-3.2-49.5-11.7
		c5.4-5.3,34.5-9.5,63.6-7.4l52.8,3.2l3.2,72.1l3.2,71h67.9c75.4,0,81.9,3.2,74.3,32.9c-5.4,18-16.2,20.1-95.9,20.1
		c-52.8,0-90.5,4.2-90.5,10.6c0,6.4,32.3,10.6,75.4,10.6c59.2,0,75.4,3.2,75.4,15.9c0,12.7-30.2,15.9-179.9,19.1l-181,3.2l192.8,2.1
		c187.4,2.1,191.7,2.1,186.3-19.1c-3.2-11.7-1.1-21.2,4.3-21.2c5.4,0,9.7,11.7,9.7,26.5v26.5h-199.3
		C1287.3,1605.2,1221.6,1601,1221.6,1593.5z M1405.8,1551.1c9.7-15.9-1.1-138.9-12.9-152.7c-19.4-20.1-39.9,21.2-44.2,91.2
		c-3.2,66.8-3.2,68.9,22.6,71C1386.4,1561.7,1401.5,1557.5,1405.8,1551.1z"/>
	<path class="st0" d="M1060.1,1419.7c0-35,4.3-47.7,16.2-47.7c8.6,0,16.2-7.4,16.2-15.9c0-12.7,14-15.9,62.5-15.9h61.4l-3.2,47.7
		c-3.2,31.8-9.7,47.7-19.4,47.7c-8.6,0-15.1,7.4-15.1,15.9c0,12.7-14,15.9-59.2,15.9h-59.2V1419.7z M1200.1,1387.9
		c0-37.1,0-37.1-48.5-37.1c-26.9,0-48.5,5.3-48.5,10.6c0,6.4,17.2,10.6,37.7,10.6c33.4,0,37.7,3.2,37.7,26.5
		c0,14.8,5.4,26.5,10.8,26.5C1195.8,1425,1200.1,1408,1200.1,1387.9z"/>
	<path class="st0" d="M1490.9,1409.1c0-35,4.3-47.7,16.2-47.7c8.6,0,16.2-7.4,16.2-15.9c0-12.7,14-15.9,59.2-15.9h59.2v47.7
		c0,40.3-3.2,47.7-21.5,47.7c-14,0-19.4,5.3-15.1,15.9c5.4,12.7-4.3,15.9-53.9,15.9h-60.3V1409.1z M1630.9,1377.3
		c0-37.1,0-37.1-48.5-37.1c-26.9,0-48.5,5.3-48.5,10.6c0,6.4,17.2,10.6,37.7,10.6c35.5,0,37.7,2.1,31.2,26.5
		c-5.4,20.1-2.2,26.5,10.8,26.5S1630.9,1403.8,1630.9,1377.3z"/>
	<path class="st0" d="M2040.3,1398.5c0-35,4.3-47.7,16.2-47.7c8.6,0,16.2-7.4,16.2-15.9c0-11.7,12.9-15.9,53.9-15.9h53.9v47.7
		c0,35-4.3,47.7-16.2,47.7c-8.6,0-16.2-4.2-16.2-10.6c0-5.3,5.4-10.6,10.8-10.6c6.5,0,10.8-13.8,10.8-31.8
		c0-29.7-2.2-31.8-43.1-31.8c-23.7,0-43.1,5.3-43.1,10.6c0,6.4,11.8,10.6,26.9,10.6c24.8,0,26.9,4.2,26.9,47.7v47.7h-48.5h-48.5
		V1398.5z"/>
	<path class="st0" d="M618.4,2453.3c0-36,23.7-51.9,48.5-31.8c23.7,19.1,39.9,3.2,25.9-24.4c-20.5-38.2-52.8-51.9-52.8-23.3
		c0,27.6-43.1,17-75.4-18c-17.2-18-35.5-29.7-39.9-25.4c-4.3,4.2,0,12.7,10.8,18c24.8,13.8,23.7,30.7-2.2,30.7
		c-18.3,0-33.4-19.1-33.4-42.4c0-12.7,73.2-84.8,85.1-84.8c18.3,0,45.2,33.9,42,51.9c-2.2,9.5-12.9,17-24.8,17
		c-16.2,0-20.5-6.4-18.3-24.4c1.1-15.9-2.2-23.3-10.8-21.2c-24.8,8.5-20.5,30.7,14,63.6c30.2,29.7,36.6,31.8,39.9,17
		c5.4-28.6,50.6-23.3,76.5,8.5c28,35,28,48.8,0,74.2c-18.3,15.9-24.8,17-44.2,5.3c-11.8-7.4-23.7-10.6-26.9-7.4
		c-3.2,2.1,4.3,11.7,17.2,19.1c30.2,18,29.1,29.7-4.3,29.7C622.7,2485.1,618.4,2479.8,618.4,2453.3z"/>
	<path class="st0" d="M2437.7,2382.3c-1.1-5.3-1.1-11.7,0-15.9c0-5.3-6.5-8.5-15.1-8.5s-16.2-9.5-16.2-21.2
		c0-14.8,6.5-21.2,19.4-19.1c10.8,2.1,18.3-3.2,18.3-12.7c0-24.4-31.2-19.1-43.1,8.5c-11.8,27.6-22.6,29.7-31.2,7.4
		c-15.1-41.3,34.5-73.2,67.9-43.5c25.9,23.3,30.2,21.2,48.5-11.7c12.9-26.5,12.9-31.8-2.2-45.6c-15.1-13.8-16.2-12.7-9.7,2.1
		c6.5,18-16.2,45.6-28,32.9c-12.9-11.7-8.6-54.1,6.5-59.4c20.5-7.4,72.2,26.5,72.2,46.6c0,10.6-14,31.8-30.2,48.8
		c-17.2,15.9-33.4,41.3-37.7,56.2c-6.5,25.4-5.4,25.4,8.6,5.3c8.6-11.7,28-33.9,43.1-50.9c15.1-15.9,26.9-33.9,26.9-39.2
		c0-6.4,6.5-10.6,15.1-10.6c25.9,0,6.5,53-21.5,59.4c-17.2,4.2-25.9,13.8-25.9,29.7C2503.4,2368.5,2441,2405.6,2437.7,2382.3z"/>
	<path class="st0" d="M754.2,2357.9c-74.3-13.8-109.9-85.9-46.3-93.3c32.3-4.2,51.7,22.3,30.2,43.5c-9.7,9.5-14,6.4-18.3-11.7
		c-7.5-25.4-25.9-31.8-25.9-8.5c0,22.3,29.1,41.3,72.2,47.7c21.5,3.2,40.9,12.7,44.2,20.1C814.5,2369.6,815.5,2369.6,754.2,2357.9z"
		/>
	<path class="st0" d="M2226.6,2262.5c159.4-147.4,252.1-295.8,315.6-503.6c26.9-86.9,30.2-111.3,30.2-275.6
		c0-155.8-3.2-191.9-24.8-270.3c-52.8-194-153-360.5-299.4-499.3C1962.7,442.2,1572.8,347.9,1191.5,456
		C816.6,563.1,530.1,865.2,439.6,1250c-30.2,126.2-28,350.9,5.4,474.9c25.9,97.5,73.2,221.6,108.8,280.9
		c19.4,31.8,20.5,38.2,5.4,65.7c-8.6,15.9-40.9,44.5-72.2,62.5c-52.8,29.7-59.2,30.7-80.8,15.9c-30.2-19.1-32.3-4.2-4.3,21.2
		c11.8,10.6,23.7,29.7,26.9,43.5c6.5,26.5,40.9,43.5,60.3,31.8c7.5-4.2,8.6-20.1,5.4-39.2c-7.5-29.7-5.4-30.7,22.6-27.6
		c46.3,5.3,44.2,32.9-5.4,71c-35.5,28.6-46.3,31.8-70,22.3c-22.6-8.5-28-17-28-47.7c0-20.1-3.2-36-7.5-36c-5.4,1.1-17.2,1.1-26.9,0
		c-25.9-1.1-24.8-45.6,1.1-68.9c18.3-17,20.5-15.9,34.5,5.3l15.1,22.3l50.6-29.7c58.2-35,64.6-59.4,29.1-103.9
		c-22.6-27.6-52.8-37.1-52.8-15.9c0,5.3-4.3,7.4-10.8,4.2c-17.2-10.6-12.9-44.5,6.5-51.9c9.7-4.2,29.1,1.1,43.1,9.5
		c32.3,20.1,32.3,19.1,0-44.5c-15.1-28.6-39.9-94.4-54.9-146.3c-39.9-129.3-49.5-359.4-22.6-494c85.1-411.3,392.1-735.7,801.4-844.9
		c93.7-24.4,123.9-27.6,282.2-27.6c146.5,1.1,191.7,4.2,260.7,23.3c321,86.9,577.3,290.5,718.5,570.4
		c84,168.6,113.1,297.9,112,491.9c-1.1,167.5-30.2,296.8-96.9,438.9c-22.6,46.6-40.9,88-40.9,91.2s-6.5,12.7-12.9,21.2
		c-7.5,8.5-35.5,45.6-62.5,81.6c-51.7,67.8-214.4,225.8-233.7,225.8C2139.4,2347.3,2176,2309.1,2226.6,2262.5z"/>
	<path class="st0" d="M2563.7,2190.4c-2.2-4.2-1.1-14.8,5.4-23.3c16.2-26.5,10.8-36-10.8-17c-24.8,22.3-48.5,12.7-40.9-14.8
		c4.3-14.8-1.1-18-26.9-17c-47.4,2.1-59.2-22.3-35.5-74.2c10.8-22.3,21.5-43.5,22.6-44.5c1.1-2.1,17.2-1.1,35.5,3.2
		c22.6,4.2,33.4,13.8,33.4,26.5c0,19.1,1.1,19.1,32.3,2.1c30.2-17,32.3-17,54.9,4.2c18.3,19.1,20.5,26.5,10.8,45.6
		c-7.5,11.7-8.6,22.3-3.2,22.3c5.4,0,16.2-12.7,23.7-28.6l12.9-29.7l9.7,25.4c11.8,29.7-2.2,43.5-40.9,43.5
		c-30.2,0-39.9-14.8-24.8-41.3c19.4-37.1-11.8-39.2-45.2-2.1c-35.5,39.2-37.7,54.1-9.7,54.1s36.6,15.9,22.6,42.4
		c-8.6,15.9-8.6,21.2,1.1,21.2c6.5,0,14-9.5,17.2-21.2c3.2-11.7,9.7-21.2,14-21.2c11.8,0,22.6,31.8,15.1,43.5
		C2630.5,2201,2571.3,2202.1,2563.7,2190.4z M2507.7,2069.5c21.5-41.3,21.5-46.6,1.1-55.1c-8.6-3.2-15.1,0-12.9,7.4
		c1.1,7.4-3.2,11.7-10.8,10.6c-18.3-3.2-25.9,25.4-8.6,32.9c8.6,3.2,12.9,12.7,9.7,22.3c-3.2,8.5-10.8,12.7-16.2,9.5
		s-6.5-10.6-3.2-17c4.3-7.4,2.2-8.5-5.4-4.2c-9.7,6.4-9.7,11.7,0,23.3C2476.5,2117.2,2487.3,2111.9,2507.7,2069.5z"/>
	<path class="st0" d="M309.3,2077c-32.3-22.3-49.5-79.5-36.6-115.6c14-33.9,25.9-35,48.5-3.2c17.2,23.3,17.2,23.3,10.8-11.7
		c-6.5-33.9-5.4-35,24.8-27.6c16.2,4.2,33.4,9.5,38.8,11.7c10.8,6.4,9.7,43.5-3.2,50.9c-16.2,9.5-12.9,43.5,5.4,58.3
		c19.4,15.9,21.5-1.1,3.2-19.1c-16.2-15.9-4.3-27.6,18.3-20.1c21.5,8.5,20.5,48.8-2.2,57.2c-26.9,10.6-58.2-33.9-49.5-72.1
		c3.2-19.1,1.1-30.7-6.5-30.7c-6.5,0-11.8,7.4-11.8,15.9c0,19.1-38.8,21.2-46.3,3.2c-2.2-7.4-8.6-10.6-12.9-6.4
		c-10.8,9.5,34.5,100.7,53.9,108.1c21.5,7.4,20.5-4.2-2.2-20.1c-10.8-7.4-14-18-8.6-26.5c6.5-10.6,11.8-9.5,23.7,5.3
		C391.2,2082.3,358.8,2110.9,309.3,2077z"/>
	<path class="st0" d="M2690.8,1991.1c-6.5-3.2-9.7-18-7.5-33.9l5.4-28.6l-21.5,25.4l-21.5,25.4l-11.8-22.3
		c-18.3-33.9-14-73.2,12.9-101.8c25.9-28.6,82.9-48.8,82.9-28.6c0,6.4-5.4,11.7-10.8,11.7c-20.5,0-64.6,50.9-64.6,74.2
		c0,18,4.3,20.1,26.9,14.8c23.7-5.3,26.9-3.2,26.9,23.3c0,24.4,2.2,27.6,10.8,14.8c5.4-8.5,10.8-30.7,10.8-48.8
		c0-43.5,21.5-71,54.9-65.7c19.4,2.1,25.9,9.5,25.9,28.6c0,13.8-6.5,27.6-15.1,30.7c-10.8,3.2-12.9-1.1-8.6-18
		c3.2-11.7,1.1-24.4-3.2-27.6c-15.1-9.5-32.3,30.7-24.8,57.2c4.3,15.9-2.2,31.8-18.3,48.8
		C2714.5,1998.5,2711.3,1999.6,2690.8,1991.1z"/>
	<path class="st0" d="M151,1877.7c-34.5-44.5-46.3-96.5-26.9-119.8c12.9-14.8,15.1-14.8,28,2.1c7.5,10.6,14,28.6,14,40.3
		c0,12.7,9.7,38.2,21.5,57.2s21.5,39.2,21.5,44.5C209.1,1924.3,176.8,1910.5,151,1877.7z"/>
	<path class="st0" d="M226.4,1871.3c-12.9-13.8-17.2-28.6-11.8-43.5c4.3-14.8,1.1-29.7-10.8-42.4c-21.5-23.3-11.8-74.2,15.1-74.2
		c11.8,0,22.6,14.8,30.2,45.6c14,49.8,50.6,101.8,62.5,90.1c11.8-11.7-19.4-128.3-35.5-133.6c-11.8-3.2-11.8-1.1-1.1,17
		c15.1,23.3,8.6,40.3-10.8,28.6c-6.5-3.2-11.8-18-11.8-32.9c0-20.1,5.4-25.4,25.9-25.4c37.7,0,54.9,27.6,54.9,93.3
		c0,44.5-4.3,60.4-19.4,70c-24.8,14.8-43.1-7.4-70-80.6c-9.7-28.6-22.6-50.9-26.9-50.9c-5.4,0-6.5,8.5-2.2,19.1
		c4.3,9.5,10.8,29.7,12.9,44.5s9.7,37.1,16.2,49.8C260.8,1879.8,250,1896.7,226.4,1871.3z"/>
	<path class="st0" d="M2761.9,1819.3c0-6.4,5.4-14.8,10.8-18c15.1-9.5,14-50.9-2.2-66.8c-19.4-19.1-29.1-15.9-42,15.9l-10.8,28.6
		l-22.6-22.3c-14-13.8-19.4-29.7-15.1-40.3c5.4-14.8,15.1-17,58.2-10.6c28,4.2,57.1,12.7,64.6,18c21.5,18,15.1,56.2-14,82.7
		C2773.8,1820.4,2761.9,1825.7,2761.9,1819.3z"/>
	<path class="st0" d="M162.8,1533.1l-50.6-50.9l57.1-55.1l57.1-55.1l52.8,53l52.8,53l-52.8,53c-29.1,29.7-56,53-59.2,53
		C216.7,1584,190.8,1560.7,162.8,1533.1z M230.7,1545.8c0-8.5,4.3-13.8,9.7-10.6c11.8,7.4,46.3-29.7,36.6-39.2
		c-3.2-4.2,1.1-7.4,10.8-7.4c10.8,0,18.3-5.3,18.3-11.7c0-6.4-7.5-9.5-15.1-6.4c-10.8,4.2-14,1.1-9.7-9.5c3.2-7.4,0-14.8-6.5-14.8
		c-19.4,0-32.3,45.6-18.3,63.6c9.7,12.7,8.6,13.8-4.3,4.2c-18.3-12.7-32.3-12.7-50.6-1.1c-19.4,11.7-17.2,31.8,1.1,25.4
		c10.8-4.2,14-1.1,9.7,9.5c-3.2,7.4,0,14.8,6.5,14.8S230.7,1555.4,230.7,1545.8z M198.3,1478c0-10.6-7.5-24.4-16.2-31.8
		c-18.3-14.8-18.3-13.8-18.3,31.8c0,45.6,0,46.6,18.3,31.8C190.8,1502.4,198.3,1488.6,198.3,1478z M252.2,1440.9
		c11.8-14.8,7.5-20.1-12.9-17c-5.4,0-8.6-6.4-8.6-14.8s-5.4-15.9-11.8-15.9s-9.7,7.4-6.5,14.8c4.3,10.6,1.1,13.8-9.7,9.5
		c-15.1-5.3-21.5,19.1-7.5,31.8C207,1462.1,238.2,1457.8,252.2,1440.9z"/>
	<path class="st0" d="M2715.6,1533.1l-51.7-50.9l57.1-56.2l56-55.1l53.9,53l54.9,54.1l-53.9,53c-29.1,28.6-56,53-59.2,53
		C2769.5,1584,2743.6,1560.7,2715.6,1533.1z M2783.5,1545.8c0-8.5,4.3-13.8,9.7-10.6c14,9.5,36.6-23.3,38.8-55.1
		c2.2-30.7-23.7-68.9-38.8-59.4c-5.4,3.2-9.7-2.1-9.7-10.6c0-9.5-5.4-17-11.8-17c-6.5,0-8.6,7.4-5.4,17c4.3,12.7,2.2,15.9-9.7,10.6
		c-9.7-3.2-16.2,0-16.2,10.6c0,21.2,31.2,31.8,54.9,17c17.2-10.6,18.3-8.5,9.7,18c-5.4,20.1-4.3,35,3.2,43.5
		c9.7,10.6,9.7,11.7-3.2,4.2c-25.9-13.8-47.4-14.8-56-1.1c-12.9,20.1-9.7,31.8,6.5,25.4c10.8-4.2,14-1.1,9.7,9.5
		c-3.2,7.4,0,14.8,6.5,14.8C2778.1,1562.8,2783.5,1555.4,2783.5,1545.8z M2751.2,1478c0-20.1-24.8-45.6-35.5-36
		c-3.2,3.2-3.2,12.7,0,21.2c4.3,10.6,0,12.7-11.8,8.5c-9.7-3.2-17.2-1.1-17.2,5.3c0,6.4,7.5,11.7,16.2,11.7c8.6,0,15.1,3.2,15.1,8.5
		c-3.2,20.1,2.2,24.4,17.2,12.7C2743.6,1502.4,2751.2,1488.6,2751.2,1478z"/>
	<path class="st0" d="M2655.3,1247.9c-6.5-21.2-9.7-40.3-7.5-42.4c2.2-2.1,35.5-12.7,74.3-23.3l71.1-19.1l6.5,27.6
		c3.2,14.8,8.6,36,11.8,46.6c4.3,11.7,0,18-10.8,18c-9.7,0-17.2-8.5-17.2-18c0-29.7-16.2-46.6-35.5-39.2
		c-12.9,4.2-15.1,11.7-7.5,30.7c8.6,23.3,5.4,37.1-11.8,37.1c-4.3,0-10.8-11.7-14-26.5c-4.3-14.8-14-26.5-23.7-26.5
		c-12.9,0-15.1,7.4-8.6,37.1C2691.9,1300.9,2669.3,1298.8,2655.3,1247.9z"/>
	<path class="st0" d="M239.3,1247.9c-65.7-17-88.3-42.4-28-30.7c72.2,13.8,116.3,28.6,116.3,38.2
		C327.6,1269.1,314.7,1268.1,239.3,1247.9z"/>
	<path class="st0" d="M253.3,1203.4c-32.3-9.5-60.3-23.3-63.6-30.7c-5.4-17,1.1-15.9,48.5,3.2c52.8,22.3,56,13.8,9.7-23.3
		c-38.8-29.7-53.9-63.6-22.6-51.9c9.7,3.2,43.1,13.8,75.4,23.3c32.3,8.5,59.2,21.2,59.2,27.6s-10.8,8.5-23.7,4.2
		c-81.9-22.3-80.8-22.3-37.7,13.8C363.1,1225.7,352.4,1234.1,253.3,1203.4z"/>
	<path class="st0" d="M2623,1147.2c-16.2-42.4,16.2-79.5,76.5-90.1c44.2-6.4,73.2,15.9,73.2,56.2c0,18-8.6,28.6-28,36
		c-38.8,14.8-44.2,13.8-50.6-10.6c-5.4-22.3,15.1-44.5,22.6-23.3c6.5,20.1,23.7,14.8,23.7-7.4c0-25.4-24.8-35-59.2-22.3
		c-35.5,12.7-46.3,41.3-23.7,58.3c24.8,17,22.6,26.5-3.2,26.5C2641.3,1170.5,2628.4,1161,2623,1147.2z"/>
	<path class="st0" d="M325.4,1104.8c-9.7-7.4-19.4-27.6-21.5-45.6c-4.3-42.4-36.6-44.5-33.4-2.1c2.2,31.8-8.6,37.1-29.1,12.7
		s3.2-68.9,36.6-68.9c31.2,0,46.3,17,51.7,58.3c4.3,38.2,25.9,37.1,22.6-1.1c-2.2-27.6,6.5-32.9,26.9-12.7c17.2,17,16.2,35-4.3,55.1
		S348.1,1121.8,325.4,1104.8z"/>
	<path class="st0" d="M2573.4,1023.2l-16.2-30.7l67.9-31.8c59.2-27.6,67.9-29.7,80.8-14.8c23.7,29.7,16.2,70-18.3,90.1
		C2638.1,1064.5,2592.8,1059.2,2573.4,1023.2z M2675.8,1013.6c14-11.7,20.5-24.4,16.2-36c-6.5-17-9.7-17-46.3,0
		c-22.6,9.5-42,18-44.2,20.1c-2.2,1.1-1.1,9.5,2.2,19.1C2612.2,1038,2646.7,1037,2675.8,1013.6z"/>
	<path class="st0" d="M385.8,1013.6c5.4-15.9-4.3-24.4-47.4-44.5c-29.1-13.8-53.9-30.7-53.9-39.2c0-9.5,17.2-5.3,58.2,14.8
		c53.9,25.4,59.2,26.5,76.5,10.6c16.2-15.9,12.9-20.1-42-46.6c-33.4-15.9-60.3-35-60.3-42.4c0-18-1.1-18,65.7,18
		c70,38.2,70,38.2,70,9.5c0-15.9-16.2-32.9-51.7-54.1c-29.1-18-49.5-36-45.2-41.3c3.2-5.3,11.8-6.4,18.3-2.1
		c7.5,3.2,31.2,18,54.9,32.9c23.7,13.8,44.2,21.2,48.5,14.8c3.2-5.3,12.9-11.7,21.5-13.8c8.6-3.2-2.2-15.9-29.1-33.9
		c-58.2-37.1-71.1-60.4-49.5-90.1c21.5-30.7,35.5-29.7,89.4,9.5c50.6,35,49.5,35,58.2,4.2c4.3-15.9-4.3-29.7-35.5-53
		c-23.7-17-42-38.2-43.1-44.5c0-21.2,15.1-15.9,44.2,13.8c37.7,40.3,64.6,51.9,75.4,35c6.5-10.6,11.8-11.7,20.5-3.2
		c8.6,8.5,2.2,22.3-25.9,50.9c-20.5,22.3-38.8,44.5-40.9,49.8c-2.2,6.4-22.6-4.2-46.3-21.2c-23.7-18-51.7-32.9-61.4-32.9
		c-34.5,0-20.5,29.7,29.1,63.6l47.4,32.9l-38.8,60.4c-22.6,32.9-50.6,82.7-64.6,111.3C404.1,1030.6,372.8,1053.9,385.8,1013.6z"/>
	<path class="st0" d="M2530.4,933.1c-21.5-32.9-8.6-62.5,37.7-85.9c44.2-22.3,72.2-20.1,91.6,9.5c21.5,32.9,8.6,62.5-37.7,85.9
		C2577.7,964.9,2549.7,962.7,2530.4,933.1z M2615.4,915c31.2-24.4,36.6-46.6,11.8-56.2c-40.9-14.8-103.4,47.7-68.9,68.9
		C2579.9,940.5,2583.1,939.4,2615.4,915z"/>
	<path class="st0" d="M2467.9,833.4c-28-29.7-23.7-38.2,42-80.6c57.1-37.1,61.4-38.2,75.4-20.1c34.5,44.5,25.9,88-17.2,88
		c-10.8,0-24.8,7.4-32.3,15.9C2517.4,857.8,2489.4,856.7,2467.9,833.4z M2519.6,809c0-7.4-8.6-15.9-18.3-18
		c-19.4-3.2-26.9,19.1-11.8,33.9C2500.2,835.5,2519.6,826,2519.6,809z M2578.8,786.8c0-7.4-4.3-20.1-9.7-28.6
		c-8.6-12.7-12.9-13.8-26.9-2.1c-12.9,11.7-15.1,18-5.4,28.6C2551.9,802.7,2578.8,803.7,2578.8,786.8z"/>
	<path class="st0" d="M2421.6,762.4c-4.3-10.6,4.3-28.6,23.7-48.8c34.5-35,24.8-39.2-24.8-10.6c-26.9,17-36.6,18-45.2,7.4
		c-8.6-10.6,1.1-24.4,40.9-57.2c50.6-42.4,76.5-54.1,76.5-36c0,4.2-17.2,19.1-37.7,32.9c-48.5,32.9-42,40.3,8.6,11.7
		c58.2-33.9,71.1-15.9,22.6,32.9c-49.5,49.8-42,54.1,11.8,8.5c21.5-19.1,42-29.7,46.3-25.4c7.5,7.4-59.2,70-98,91.2
		C2432.3,776.2,2425.9,775.1,2421.6,762.4z"/>
	<path class="st0" d="M2314.9,652.1c-9.7-17,71.1-152.7,84-139.9c7.5,7.4,7.5,15.9-1.1,25.4c-17.2,19.1,19.4,56.2,37.7,38.2
		c8.6-8.5,14-7.4,19.4,1.1c9.7,14.8,12.9,12.7-66.8,51.9C2351.5,646.8,2318.2,657.4,2314.9,652.1z"/>
	<path class="st0" d="M619.5,586.4c-45.2-50.9-45.2-54.1-28-74.2c29.1-30.7,63.6-25.4,101.3,17c18.3,21.2,33.4,44.5,33.4,51.9
		c0,12.7-43.1,59.4-56,59.4C668,640.5,644.3,616.1,619.5,586.4z M693.8,577.9c0-26.5-46.3-66.8-67.9-58.3
		c-24.8,8.5-23.7,13.8,16.2,54.1C676.6,608.7,693.8,610.8,693.8,577.9z"/>
	<path class="st0" d="M2240.6,585.3c-28-14.8-21.5-65.7,14-102.8c33.4-35,65.7-42.4,87.2-18c14,18,10.8,66.8-5.4,60.4
		c-5.4-2.1-9.7-12.7-7.5-24.4c5.4-28.6-32.3-24.4-62.5,6.4c-29.1,31.8-22.6,64.7,10.8,54.1c15.1-4.2,21.5-2.1,21.5,8.5
		C2298.8,588.5,2264.3,598.1,2240.6,585.3z"/>
	<path class="st0" d="M706.8,509l-45.2-58.3l34.5-26.5c32.3-24.4,51.7-27.6,51.7-7.4c0,4.2-11.8,13.8-25.9,22.3
		c-22.6,11.7-24.8,17-14,32.9c11.8,19.1,12.9,19.1,35.5-2.1c17.2-15.9,25.9-18,31.2-8.5c5.4,7.4-1.1,19.1-14,29.7
		c-16.2,11.7-20.5,21.2-12.9,32.9c8.6,12.7,14,11.7,35.5-9.5c19.4-17,29.1-20.1,34.5-11.7c6.5,10.6-40.9,61.5-59.2,63.6
		C755.2,566.3,732.6,540.8,706.8,509z"/>
	<path class="st0" d="M2142.6,502.6c-3.2-5.3,6.5-28.6,21.5-49.8c15.1-22.3,26.9-48.8,26.9-58.3c0-33.9-30.2-20.1-61.4,28.6
		c-29.1,46.6-46.3,59.4-46.3,36c0-6.4,15.1-31.8,32.3-58.3c34.5-47.7,67.9-60.4,94.8-33.9c19.4,19.1,16.2,33.9-20.5,92.2
		C2152.3,517.5,2152.3,518.5,2142.6,502.6z"/>
	<path class="st0" d="M860.8,481.4c-4.3-6.4-2.2-17,4.3-24.4c7.5-9.5,1.1-27.6-21.5-63.6C808,337.3,806.9,333,826.3,333
		c6.5,0,26.9,24.4,43.1,54.1c24.8,41.3,34.5,50.9,45.2,41.3c10.8-8.5,16.2-8.5,21.5,0c4.3,6.4,5.4,12.7,4.3,14.8
		C888.8,480.4,866.2,491,860.8,481.4z"/>
	<path class="st0" d="M920,374.4c-18.3-35-30.2-67.8-28-72.1c9.7-14.8,71.1-36,79.7-27.6c4.3,4.2,2.2,10.6-4.3,12.7
		c-30.2,10.6-48.5,31.8-42,48.8c5.4,13.8,11.8,14.8,26.9,7.4c10.8-6.4,24.8-10.6,31.2-10.6c20.5,0,12.9,19.1-9.7,26.5
		c-26.9,8.5-30.2,41.3-2.2,33.9c9.7-2.1,24.8-6.4,33.4-8.5c32.3-8.5,20.5,19.1-15.1,36l-37.7,18L920,374.4z"/>
	<path class="st0" d="M2011.2,426.3c-14-6.4-24.8-15.9-24.8-20.1c0-17,58.2-126.2,66.8-126.2c23.7,0,62.5,36,62.5,58.3
		c0,28.6-43.1,94.4-64.6,97.5C2042.4,436.9,2024.1,432.7,2011.2,426.3z M2078,374.4c14-25.4,15.1-36,4.3-47.7
		c-18.3-22.3-25.9-19.1-45.2,22.3c-23.7,48.8-22.6,58.3,3.2,58.3C2053.2,407.2,2068.3,394.5,2078,374.4z"/>
	<path class="st0" d="M1051.4,378.6c-20.5-7.4-45.2-61.5-45.2-96.5c0-42.4,24.8-61.5,59.2-46.6c15.1,7.4,26.9,17,26.9,22.3
		c0,15.9-19.4,24.4-26.9,11.7c-3.2-5.3-14-10.6-22.6-10.6c-22.6,0-18.3,46.6,6.5,75.3c20.5,24.4,22.6,24.4,36.6,7.4
		c18.3-24.4,28-24.4,28,2.1c0,17-31.2,45.6-45.2,41.3C1066.5,385,1059,381.8,1051.4,378.6z"/>
	<path class="st0" d="M1881.9,370.1l-35.5-14.8l23.7-61.5c12.9-33.9,25.9-64.7,30.2-70c4.3-4.2,25.9,0,48.5,8.5
		c28,11.7,36.6,21.2,29.1,28.6c-7.5,7.4-18.3,6.4-33.4-2.1c-12.9-6.4-28-8.5-33.4-5.3c-20.5,12.7-10.8,37.1,16.2,43.5
		c15.1,4.2,25.9,11.7,23.7,19.1c-3.2,6.4-11.8,9.5-19.4,7.4c-8.6-2.1-23.7-6.4-33.4-8.5c-12.9-4.2-19.4,0-19.4,11.7
		c0,8.5,11.8,19.1,26.9,23.3c15.1,3.2,26.9,12.7,26.9,21.2C1932.5,389.2,1926.1,389.2,1881.9,370.1z"/>
	<path class="st0" d="M1140.8,341.5c-2.2-7.4-9.7-33.9-16.2-59.4c-6.5-25.4-15.1-53-18.3-61.5c-3.2-8.5,1.1-14.8,11.8-14.8
		s17.2,9.5,17.2,24.4c0,13.8,3.2,27.6,6.5,30.7c9.7,10.6,48.5-4.2,44.2-17c-18.3-46.6-19.4-59.4-4.3-59.4c8.6,0,19.4,20.1,26.9,50.9
		c6.5,27.6,15.1,60.4,19.4,74.2c4.3,13.8,2.2,23.3-5.4,23.3c-6.5,0-14-11.7-18.3-27.6c-10.8-40.3-43.1-28.6-38.8,14.8
		C1167.8,353.2,1150.5,368,1140.8,341.5z"/>
	<path class="st0" d="M1811.9,346.8c-8.6-14.8,35.5-141,49.5-141c9.7,0,7.5,19.1-8.6,67.8C1829.1,344.7,1819.4,361.6,1811.9,346.8z"
		/>
	<path class="st0" d="M1711.7,307.6c-14-21.2-15.1-33.9-5.4-70c14-51.9,48.5-73.2,85.1-53c31.2,15.9,29.1,79.5-3.2,79.5
		c-11.8,0-22.6-6.4-24.8-12.7c-3.2-7.4,2.2-13.8,11.8-13.8c21.5,0,22.6-20.1,1.1-27.6c-25.9-10.6-48.5,15.9-48.5,56.2
		c0,36,1.1,37.1,32.3,31.8c23.7-5.3,32.3-3.2,32.3,7.4c0,14.8-22.6,27.6-49.5,27.6C1735.4,333,1720.3,321.4,1711.7,307.6z"/>
	<path class="st0" d="M1250.7,315c-3.2-5.3-8.6-31.8-12.9-60.4c-3.2-28.6-9.7-58.3-12.9-65.7c-3.2-8.5,1.1-14.8,11.8-14.8
		c12.9,0,17.2,10.6,17.2,42.4c0,57.2,17.2,54.1,25.9-5.3c10.8-71,34.5-61.5,48.5,19.1c14,81.6,14,81.6,2.2,81.6
		c-5.4,0-14-20.1-18.3-44.5c-7.5-47.7-16.2-41.3-30.2,26.5C1275.5,321.4,1260.4,330.9,1250.7,315z"/>
	<path class="st0" d="M1372.4,290.6c-23.7-23.3-29.1-82.7-10.8-117.7c14-24.4,57.1-26.5,79.7-3.2c26.9,26.5,22.6,105-6.5,125.1
		C1403.7,316.1,1398.3,316.1,1372.4,290.6z M1430.6,263.1c10.8-26.5,7.5-51.9-8.6-73.2c-12.9-17-17.2-18-32.3-6.4
		c-19.4,15.9-22.6,46.6-6.5,76.3C1397.2,284.3,1422,286.4,1430.6,263.1z"/>
	<path class="st0" d="M1594.3,294.9c-24.8-24.4-22.6-94.4,4.3-120.9c40.9-40.3,86.2-13.8,86.2,50.9
		C1684.8,295.9,1634.2,335.1,1594.3,294.9z M1656.8,263.1c20.5-51.9-7.5-96.5-42-67.8c-16.2,13.8-22.6,64.7-8.6,77.4
		C1619.1,286.4,1650.3,280,1656.8,263.1z"/>
	<path class="st0" d="M1480.1,227v-74.2h43.1c23.7,0,43.1,5.3,43.1,10.6c0,6.4-14,10.6-32.3,10.6c-32.3,0-32.3,0-32.3,63.6
		c0,35-4.3,63.6-10.8,63.6C1484.5,301.2,1480.1,269.4,1480.1,227z"/>
</g>
</svg>
