<?xml version="1.0" encoding="utf-8"?>
<!-- Generator: Adobe Illustrator 27.4.1, SVG Export Plug-In . SVG Version: 6.00 Build 0)  -->
<svg version="1.1" id="Layer_1" xmlns="http://www.w3.org/2000/svg" xmlns:xlink="http://www.w3.org/1999/xlink" x="0px" y="0px"
	 viewBox="0 0 3209.2 656.9" style="enable-background:new 0 0 3209.2 656.9;" xml:space="preserve">
<style type="text/css">
	.st0{fill:#0088C9;}
	.st1{fill:#027CAA;}
	.st2{font-family:'TimesNewRomanPSMT';}
	.st3{font-size:186.4216px;}
	.st4{letter-spacing:-1.5;}
	.st5{letter-spacing:-3;}
	.st6{fill:none;}
</style>
<g transform="translate(0.000000,296.000000) scale(0.100000,-0.100000)">
	<path class="st0" d="M4604.6,2862.4c-332.8-47.6-607.7-120.2-887.4-235.8c-217-90.7-395.5-183.7-583.6-303.8
		c-161.6-104.3-185.7-124.7-405.1-322c-499.2-448.9-817.5-984-974.2-1646.1c-45.8-199.5-55.5-297-53.1-643.9
		c0-417.2,19.3-553.2,127.8-895.6C2181.2-2313.9,3210.9-3180,4464.8-3399.9c301.4-52.1,889.8-52.1,1188.8,2.3
		c479.9,86.2,757.2,190.5,1222.6,455.7c368.9,210.9,834.3,659.8,1061,1022.6c132.6,213.1,299,571.4,356.9,768.6
		c166.4,575.9,164,1203.9-7.2,1768.5c-195.3,632.6-629.4,1222.1-1210.5,1632.5c-96.5,68-185.7,124.7-195.3,124.7
		s-36.2,13.6-55.5,31.7c-21.7,18.1-108.5,68-195.3,111.1C6025,2823.8,5258.1,2955.3,4604.6,2862.4z M5581.3,2726.3
		c120.6-18.1,299-54.4,397.9-79.4c255.6-65.8,769.2-312.9,1015.2-485.2c405.1-287.9,778.9-716.5,983.9-1126.8
		c207.4-414.9,289.4-736.9,308.7-1199.4c19.3-551-77.2-981.7-330.4-1462.4c-178.4-340.1-385.8-598.6-701.7-882
		c-132.6-120.2-236.3-217.7-224.3-217.7c9.6,0,38.6,18.1,65.1,40.8c26.5,20.4,41,27.2,31.3,11.3c-7.2-15.9-50.6-49.9-94-79.4
		c-50.6-34-65.1-38.5-43.4-11.3c50.6,61.2,12.1,45.3-142.3-52.1c-803-512.4-1876.1-646.2-2818.9-349.2
		c-1097.2,344.6-1907.4,1206.2-2151,2283.2c-74.8,328.8-74.8,882,0,1210.7C2154.7,1556.4,3194,2508.7,4496.1,2724.1
		C4754.1,2767.2,5311.2,2769.4,5581.3,2726.3z M6109.4,2656.1c62.7-20.4,108.5-40.8,103.7-45.3c-4.8-4.5-67.5,11.3-139.9,34
		c-72.3,24.9-118.2,45.3-103.7,45.3C5984,2692.3,6046.7,2676.5,6109.4,2656.1z M7401.9,1882.9l180.9-176.8l-185.7,170
		c-173.6,156.4-200.1,181.4-180.9,181.4C7218.6,2057.5,7303,1978.1,7401.9,1882.9z M1776.1-384.4c-4.8-61.2-7.2-11.3-7.2,106.6
		s2.4,167.8,7.2,108.8C1780.9-230.2,1780.9-325.4,1776.1-384.4z M7570.7-2279.9c0-2.3-94-93-209.8-197.3l-212.2-192.7l205,199.5
		C7544.1-2286.7,7570.7-2261.7,7570.7-2279.9z M2747.9-2465.8c84.4-81.6,149.5-147.4,142.3-147.4c-4.8,0-82,65.8-166.4,147.4
		s-149.5,147.4-142.3,147.4C2586.3-2318.4,2663.5-2384.2,2747.9-2465.8z M3726.9-3107.4c-12.1-9.1-303.8,127-303.8,142.8
		c0,6.8,69.9-22.7,156.7-61.2C3664.2-3066.6,3731.7-3102.9,3726.9-3107.4z M5130.3-3377.2c-36.2-4.5-101.3-4.5-144.7,0
		s-14.5,9.1,65.1,9.1S5166.5-3372.7,5130.3-3377.2z"/>
	<path class="st0" d="M5930.9,2535.9c0-29.5,24.1-47.6,82-56.7c45.8-9.1,108.5-34,142.3-58.9c62.7-47.6,137.4-61.2,137.4-24.9
		c0,11.3-43.4,56.7-96.5,102c-72.3,61.2-118.2,81.6-180.9,81.6C5947.8,2579,5930.9,2569.9,5930.9,2535.9z M6126.2,2497.3
		c41-18.1,67.5-40.8,60.3-47.6s-26.5-2.3-43.4,9.1c-16.9,13.6-62.7,34-103.7,47.6c-43.4,13.6-55.5,24.9-28.9,24.9
		C6034.6,2533.6,6087.6,2517.7,6126.2,2497.3z"/>
	<path class="st0" d="M4826.5,2520c-65.1-43.1-69.9-99.8-7.2-99.8c26.5,0,55.5-9.1,62.7-22.7c9.6-13.6-12.1-22.7-45.8-22.7
		c-74.8,0-79.6-24.9-19.3-74.8c28.9-24.9,86.8-38.5,168.8-38.5c98.9,0,130.2,9.1,159.2,49.9c26.5,34,28.9,58.9,12.1,90.7
		c-28.9,49.9-113.3,54.4-135,6.8c-19.3-52.1,12.1-70.3,69.9-36.3c38.6,22.7,45.8,22.7,38.6,0c-14.5-40.8-130.2-72.6-205-56.7
		c-57.9,15.9-57.9,18.1-19.3,58.9c38.6,40.8,36.2,43.1-28.9,77.1c-65.1,31.7-60.3,31.7,108.5,27.2c185.7-6.8,233.9,11.3,147.1,56.7
		c-41,18.1-65.1,18.1-108.5-4.5c-45.8-22.7-65.1-22.7-86.8-2.3C4901.2,2563.1,4891.6,2563.1,4826.5,2520z"/>
	<path class="st0" d="M4532.3,2488.3c-41-38.5-48.2-63.5-33.8-120.2c24.1-115.6,55.5-156.4,113.3-147.4
		c43.4,4.5,53.1,22.7,53.1,86.2c0,63.5-9.6,79.4-48.2,79.4c-26.5,0-48.2-15.9-48.2-34s19.3-31.7,43.4-31.7c21.7,2.3,41-6.8,41-18.1
		c0-11.3-24.1-18.1-53.1-13.6c-43.4,4.5-55.5,22.7-55.5,74.8c0,56.7,9.6,68,67.5,74.8c77.2,9.1,84.4,38.5,16.9,72.6
		C4590.2,2529.1,4570.9,2524.6,4532.3,2488.3z"/>
	<path class="st0" d="M5354.6,2513.2c-19.3-11.3-26.5-36.3-19.3-54.4c7.2-20.4,2.4-38.5-12.1-43.1c-36.2-11.3-2.4-63.5,43.4-63.5
		c19.3,0,33.8,11.3,33.8,24.9c0,11.3,12.1,15.9,24.1,9.1c14.5-6.8,24.1-29.5,24.1-49.9c0-27.2-16.9-31.7-84.4-20.4
		c-45.8,9.1-84.4,6.8-84.4-4.5c0-36.3,57.9-72.6,113.3-72.6c43.4,0,60.3,15.9,72.3,68c14.5,74.8,65.1,88.4,142.3,34
		c43.4-31.7,43.4-31.7-19.3-34c-38.6,0-67.5-6.8-67.5-13.6c0-34,53.1-99.8,84.4-99.8c41,0,50.6,13.6,69.9,104.3
		c14.5,63.5,9.6,72.6-55.5,99.8c-41,15.9-96.5,22.7-120.6,15.9c-28.9-6.8-65.1,6.8-91.6,36.3c-41,45.3-41,45.3,4.8,27.2
		c26.5-9.1,82-20.4,120.6-24.9c41-2.3,96.5-13.6,127.8-20.4c28.9-9.1,53.1-6.8,53.1,6.8c0,43.1-67.5,72.6-137.4,58.9
		c-43.4-9.1-79.6-2.3-89.2,11.3C5465.5,2538.2,5400.4,2540.4,5354.6,2513.2z"/>
	<path class="st0" d="M4257.4,2429.3c-7.2-20.4-14.5-56.7-14.5-81.6c0-34,14.5-43.1,65.1-36.3c91.6,9.1,96.5-40.8,4.8-83.9
		c-48.2-24.9-103.7-34-151.9-24.9c-89.2,15.9-123-2.3-84.4-47.6c33.8-36.3,166.4-38.5,248.4-2.3c130.2,54.4,115.7,247.1-14.5,208.6
		c-24.1-6.8-43.4-2.3-43.4,11.3c0,13.6,26.5,24.9,60.3,24.9c67.5,0,82,34,21.7,54.4C4291.2,2472.4,4274.3,2467.9,4257.4,2429.3z"/>
	<path class="st0" d="M5836.9,2379.4c-21.7-36.3-7.2-49.9,106.1-93c217-83.9,248.4-170,43.4-117.9c-110.9,27.2-188.1,68-166.4,86.2
		c4.8,4.5,31.3-2.3,60.3-18.1c50.6-31.7,98.9-11.3,60.3,24.9c-43.4,40.8-139.9,36.3-149.5-6.8c-12.1-61.2,60.3-124.7,161.6-145.1
		c159.2-29.5,236.3,0,209.8,79.4c-14.5,43.1-86.8,83.9-241.1,140.6c-101.3,36.3-57.9,54.4,50.6,22.7c135-43.1,137.4-43.1,180.9-72.6
		c60.3-40.8,82-4.5,31.3,49.9c-28.9,29.5-60.3,40.8-96.5,31.7c-31.3-6.8-65.1,2.3-82,22.7
		C5962.3,2433.9,5865.8,2429.3,5836.9,2379.4z"/>
	<path class="st0" d="M4025.9,2354.5c-36.2-68-4.8-117.9,62.7-102c36.2,9.1,57.9,4.5,57.9-13.6c0-13.6,12.1-18.1,24.1-11.3
		c41,22.7-26.5,83.9-77.2,72.6c-24.1-6.8-43.4-2.3-43.4,9.1c0,11.3,21.7,20.4,45.8,20.4c62.7,0,84.4,36.3,36.2,54.4
		C4071.7,2406.7,4052.4,2399.8,4025.9,2354.5z"/>
	<path class="st0" d="M3690.7,2247.9c-79.6-31.7-154.3-142.8-123-188.2c12.1-22.7,31.3-24.9,62.7-6.8c31.3,15.9,53.1,13.6,77.2-11.3
		c19.3-15.9,26.5-38.5,19.3-47.6c-9.6-6.8-26.5,0-38.6,18.1c-19.3,27.2-28.9,27.2-53.1,4.5c-26.5-24.9-19.3-38.5,28.9-72.6
		c72.3-52.1,130.2-20.4,108.5,61.2c-14.5,61.2-4.8,63.5,67.5,18.1c28.9-18.1,65.1-24.9,82-15.9c41,22.7,65.1,133.8,33.8,149.6
		c-14.5,9.1-26.5,0-26.5-18.1c0-56.7-67.5-74.8-195.3-52.1c-65.1,11.3-118.2,29.5-118.2,40.8c0,31.7,137.4,88.4,209.8,86.2
		c62.7-2.3,62.7-2.3,12.1-15.9c-57.9-15.9-74.8-54.4-33.8-68c36.2-11.3,101.3,61.2,86.8,95.2
		C3871.6,2270.6,3775.1,2282,3690.7,2247.9z"/>
	<path class="st0" d="M4942.2,2182.2c0-20.4-21.7-34-60.3-34c-79.6,0-79.6-63.5,0-81.6c33.8-6.8,84.4-9.1,115.7-2.3
		c151.9,36.3,219.4,56.7,192.9,58.9c-16.9,2.3-31.3,22.7-31.3,47.6c0,29.5-16.9,45.3-48.2,45.3s-48.2-13.6-45.8-38.5
		c0-24.9,7.2-29.5,14.5-11.3c4.8,13.6,21.7,20.4,33.8,13.6c36.2-20.4-53.1-74.8-123-74.8c-53.1,0-55.5,2.3-16.9,22.7
		c50.6,27.2,55.5,88.4,4.8,88.4C4959.1,2216.2,4942.2,2200.3,4942.2,2182.2z"/>
	<path class="st0" d="M6326.4,2191.3c-9.6-15.9,9.6-45.3,41-70.3l57.9-43.1l-79.6,13.6c-77.2,15.9-79.6,13.6-62.7-49.9
		c24.1-95.2,48.2-111.1,135-79.4c55.5,18.1,84.4,20.4,108.5,2.3c48.2-40.8,36.2-70.3-16.9-38.5c-57.9,34-89.2,9.1-48.2-38.5
		c38.6-45.3,110.9-43.1,130.2,2.3c24.1,58.9-53.1,122.4-147.1,122.4c-43.4,0-79.6,11.3-79.6,22.7c0,13.6,16.9,22.7,36.2,22.7
		c43.4,0,48.2,47.6,7.2,86.2c-21.7,20.4-19.3,27.2,14.5,27.2c67.5,0,207.4-88.4,207.4-131.5c-2.4-34-4.8-34-26.5,2.3
		c-26.5,40.8-94,54.4-94,15.9c0-31.7,94-72.6,135-58.9c53.1,20.4,38.6,79.4-36.2,151.9c-55.5,49.9-94,65.8-168.8,65.8
		C6386.7,2216.2,6336,2204.9,6326.4,2191.3z"/>
	<path class="st0" d="M3278.4,1975.9c-36.2-86.2-28.9-115.6,14.5-58.9c38.6,52.1,139.9,68,166.4,24.9c9.6-11.3-2.4-43.1-24.1-65.8
		c-50.6-52.1-28.9-90.7,50.6-90.7c86.8,0,94,52.1,19.3,156.4c-50.6,72.6-79.6,93-135,93C3319.4,2034.8,3295.3,2021.2,3278.4,1975.9z
		"/>
	<path class="st0" d="M4701.1,2012.1c-624.6-81.6-1299.7-471.6-1649.4-947.7c-115.7-156.4-57.9-129.2,77.2,40.8
		c701.7,861.6,1972.5,1140.5,3002.2,655.3c108.5-52.1,224.3-111.1,258-133.8c50.6-31.7,130.2-40.8,221.8-24.9
		c24.1,2.3,212.2,229,212.2,251.7c0,11.3-16.9,36.3-38.6,54.4c-33.8,34-33.8,36.3,0,36.3c21.7,0,38.6-9.1,38.6-18.1
		c0-11.3,36.2-38.5,82-61.2c89.2-45.3,125.4-115.6,84.4-163.2c-19.3-20.4-38.6-22.7-72.3-4.5c-60.3,29.5-89.2,11.3-84.4-52.1
		c4.8-83.9,86.8-77.1,178.4,15.9c62.7,61.2,77.2,90.7,62.7,129.2c-19.3,63.5-53.1,86.2-123,86.2c-36.2,0-55.5,15.9-60.3,52.1
		c-9.6,63.5-115.7,81.6-164,27.2c-28.9-34-28.9-40.8,7.2-58.9c57.9-31.7,53.1-56.7-36.2-158.7c-86.8-102-135-108.8-229.1-34
		c-60.3,49.9-65.1,61.2-36.2,104.3c24.1,38.5,24.1,47.6-7.2,58.9c-41,15.9-108.5-27.2-108.5-70.3c0-15.9,24.1-56.7,53.1-93
		l53.1-63.5l-106.1,63.5c-347.2,199.5-737.9,308.4-1169.5,319.7C4988.1,2028,4787.9,2023.5,4701.1,2012.1z"/>
	<path class="st0" d="M4582.9,1910.1c-506.4-106.6-926-328.8-1258.8-664.3c-897-900.1-851.2-2292.2,101.3-3147
		c1070.7-956.8,2794.8-764.1,3612.3,401.3c424.4,603.1,506.4,1378.5,221.8,2049.6c-270.1,634.8-880.2,1145-1581.9,1326.4
		C5426.9,1941.9,4819.3,1960,4582.9,1910.1z M5318.4,1898.8c547.4-65.8,1008-274.3,1386.6-632.6C7004,982.8,7204.1,654,7319.9,255
		c72.3-247.1,65.1-863.8-9.6-1108.7c-499.2-1627.9-2635.7-2163-3899.2-977.2c-294.2,274.3-506.4,621.2-619.7,1008.9
		c-79.6,278.9-79.6,809.4,0,1088.3C3099.9,1334.2,4182.6,2032.5,5318.4,1898.8z"/>
	<path class="st0" d="M4467.2,1785.4c-817.5-201.8-1456.5-841.2-1634.9-1639.3c-45.8-199.5-45.8-648.4,0-848
		c147.1-650.7,583.6-1185.8,1205.7-1480.5c323.1-151.9,549.8-206.3,940.4-219.9c253.2-9.1,356.9-2.3,545,34
		C6565.1-2166.5,7329.5-1280,7329.5-275.6c0,358.2-132.6,795.8-342.4,1124.6c-103.7,165.5-422,482.9-607.7,607.6
		c-205,138.3-453.3,249.4-699.3,317.4c-243.6,65.8-279.7,68-279.7,27.2c0-47.6,84.4-129.2,135-129.2c103.7,0,149.5-27.2,144.7-81.6
		c-2.4-43.1-12.1-49.9-50.6-38.5c-26.5,9.1-69.9,15.9-98.9,18.1c-26.5,0-50.6,13.6-50.6,29.5c0,18.1,19.3,27.2,45.8,20.4
		c24.1-6.8,43.4-4.5,43.4,6.8c0,20.4-123,45.3-149.5,31.7c-31.3-18.1,67.5-156.4,144.7-201.8c48.2-29.5,69.9-58.9,62.7-81.6
		c-7.2-22.7,14.5-56.7,53.1-86.2l65.1-47.6h-69.9c-132.6,0-139.9-38.5-9.6-52.1c229.1-24.9,595.6-256.2,790.9-498.8
		c397.9-496.5,470.2-1115.5,195.3-1668.7c-69.9-142.8-74.8-188.2-16.9-145.1c45.8,34,183.3,70.3,320.7,81.6
		c106.1,11.3,115.7,9.1,72.3-20.4c-24.1-18.1-79.6-31.7-120.6-31.7c-120.6,0-330.4-65.8-308.7-97.5c9.6-15.9,0-15.9-24.1,4.5
		c-21.7,15.9-41,58.9-41,90.7c0,93-113.3,285.7-207.4,353.7c-103.7,74.8-137.4,56.7-50.6-29.5c72.3-70.3,137.4-206.3,137.4-281.1
		c-2.4-45.3-7.2-40.8-36.2,22.7c-19.3,40.8-50.6,79.4-72.3,86.2c-19.3,6.8-36.2,29.5-36.2,47.6c0,47.6-110.9,142.8-171.2,142.8
		c-41,0-48.2-11.3-41-52.1c9.6-45.3,2.4-54.4-57.9-54.4c-79.6,0-96.5-11.3-79.6-56.7c19.3-43.1,115.7-86.2,200.1-88.4
		c62.7,0,62.7-2.3,12.1-24.9c-45.8-20.4-103.7-122.4-103.7-181.4c0-11.3,28.9,0,62.7,24.9c36.2,27.2,94,47.6,130.2,47.6
		c77.2,0,192.9-93,192.9-151.9c0-54.4-325.5-346.9-383.4-346.9c-12.1,0-26.5,61.2-36.2,136c-9.6,74.8-19.3,136-21.7,136
		c-2.4,0-38.6-9.1-79.6-20.4c-72.3-20.4-79.6-15.9-120.6,68c-41,88.4-41,90.7,16.9,147.4l55.5,56.7L5701.8-992
		c-125.4,106.6-149.5,117.9-173.6,86.2c-16.9-20.4-33.8-45.3-38.6-58.9s-53.1-9.1-127.8,15.9c-118.2,36.3-120.6,38.5-110.9,115.6
		l9.6,79.4h-207.4h-205l12.1-68c14.5-61.2,7.2-70.3-98.9-117.9c-108.5-49.9-113.3-49.9-147.1-9.1c-16.9,22.7-36.2,54.4-41,68
		c-4.8,13.6-74.8-31.7-154.3-99.8l-144.7-124.7l57.9-45.3l57.9-45.3l-55.5-97.5c-53.1-93-60.3-97.5-144.7-86.2l-86.8,13.6
		l-19.3-142.8c-9.6-77.1-16.9-149.6-14.5-158.7c4.8-11.3-4.8-13.6-19.3-4.5c-14.5,6.8-19.3,22.7-14.5,31.7
		c7.2,9.1-62.7,74.8-151.9,145.1c-197.7,151.9-224.3,215.4-118.2,299.3c86.8,70.3,178.4,72.6,253.2,6.8l55.5-47.6v54.4
		c0,70.3-62.7,156.4-115.7,158.7c-21.7,2.3,7.2,11.3,65.1,22.7c113.3,20.4,171.2,54.4,171.2,102c0,34-84.4,63.5-120.6,43.1
		c-16.9-9.1-21.7,4.5-9.6,43.1c12.1,52.1,7.2,58.9-43.4,58.9c-57.9,0-164-83.9-164-127c0-13.6-26.5-47.6-57.9-74.8
		c-31.3-29.5-65.1-77.1-74.8-108.8c-7.2-31.7-19.3-52.1-26.5-45.3c-28.9,27.2,67.5,269.8,137.4,344.6c94,99.8,53.1,104.3-62.7,9.1
		c-101.3-83.9-149.5-163.2-192.9-324.2c-26.5-93-26.5-120.2-2.4-145.1s31.3-9.1,33.8,77.1c4.8,95.2,79.6,303.8,110.9,303.8
		c7.2,0-2.4-40.8-21.7-90.7c-19.3-49.9-33.8-154.2-33.8-231.3c-2.4-192.7,2.4-222.2,28.9-222.2c14.5,0,19.3-4.5,14.5-9.1
		c-24.1-22.7-501.6,52.1-566.7,86.2l-69.9,38.5l72.3-13.6c41-9.1,137.4-24.9,217-36.3c79.6-11.3,180.9-27.2,226.7-34
		c74.8-11.3,79.6-9.1,53.1,22.7c-16.9,18.1-24.1,45.3-14.5,58.9c9.6,13.6,7.2,20.4-4.8,18.1c-9.6-4.5-45.8,11.3-79.6,34
		c-31.3,20.4-48.2,38.5-36.2,38.5c69.9,2.3-115.7,68-229.1,81.6c-130.2,13.6-282.1,68-258,93c7.2,4.5,33.8,0,57.9-11.3
		s101.3-27.2,173.6-34c69.9-9.1,164-34,209.8-58.9s82-43.1,82-38.5c0,4.5-36.2,81.6-82,174.6c-214.6,442.1-212.2,963.6,9.6,1383.1
		c212.2,405.8,641.4,745.9,983.9,784.5c139.9,15.9,127.8,49.9-19.3,52.1l-84.4,2.3l67.5,34c41,20.4,65.1,49.9,60.3,72.6
		c-4.8,24.9,36.2,77.1,96.5,127c55.5,47.6,94,95.2,86.8,106.6c-19.3,29.5-57.9,24.9-50.6-4.5c2.4-13.6-12.1-31.7-31.3-36.3
		c-31.3-9.1-31.3-6.8,0,13.6c43.4,29.5,33.8,31.7-65.1,4.5c-67.5-18.1-74.8-15.9-84.4,31.7c-12.1,54.4,28.9,79.4,142.3,79.4
		c28.9,0,74.8,27.2,101.3,58.9C4768.6,1844.4,4739.7,1853.4,4467.2,1785.4z M4650.5,1753.7c-19.3-15.9-106.1-47.6-197.7-70.3
		c-646.3-158.7-1239.5-677.9-1468.5-1283.3C2863.6,73.6,2817.8-298.2,2866-577.1c9.6-61.2,12.1-108.8,2.4-108.8
		c-50.6,0-65.1,532.8-21.7,761.8c151.9,809.4,803,1478.3,1639.8,1682.3C4674.6,1805.8,4708.3,1803.5,4650.5,1753.7z M5774.2,1712.9
		c947.7-290.2,1589.1-1190.3,1521.6-2124.5c-24.1-335.6-53.1-303.8-43.4,49.9c7.2,285.7,2.4,346.9-53.1,546.4
		C7004,896.6,6471.1,1431.7,5725.9,1663c-151.9,45.3-279.7,97.5-287,115.6C5422.1,1814.9,5472.7,1805.8,5774.2,1712.9z M5902,1558.7
		c4.8-13.6,26.5-22.7,48.2-22.7c74.8,0,103.7-34,82-88.4l-19.3-49.9l-57.9,47.6l-60.3,47.6l60.3-15.9c74.8-18.1,36.2,24.9-41,47.6
		c-41,11.3-55.5,4.5-55.5-22.7c0-27.2-9.6-31.7-43.4-13.6c-24.1,13.6-65.1,20.4-91.6,15.9c-24.1-4.5-31.3-2.3-14.5,2.3
		c16.9,6.8,24.1,20.4,14.5,31.7c-7.2,13.6-7.2,36.3,0,54.4c9.6,24.9,28.9,27.2,91.6,9.1C5858.6,1590.4,5899.6,1570,5902,1558.7z
		 M4392.4,1570c0-11.3-31.3-40.8-74.8-63.5c-57.9-34-72.3-36.3-60.3-9.1c7.2,18.1-4.8,38.5-31.3,49.9c-41,15.9-41,18.1,4.8,36.3
		C4293.6,1606.3,4387.6,1599.5,4392.4,1570z M4156.1,1502c-43.4-29.5-43.4-31.7,14.5-20.4l60.3,13.6l-60.3-47.6
		c-69.9-54.4-101.3-61.2-82-15.9c7.2,18.1,0,38.5-16.9,49.9c-21.7,11.3-16.9,20.4,16.9,34C4170.6,1545.1,4209.2,1538.3,4156.1,1502z
		 M4554,1515.6c26.5-15.9,9.6-31.7-62.7-68c-53.1-24.9-103.7-40.8-110.9-34c-7.2,6.8-74.8-4.5-151.9-22.7s-144.7-31.7-147.1-27.2
		c-16.9,15.9,233.9,104.3,299,106.6c36.2,0,89.2,11.3,115.7,22.7c36.2,15.9,28.9,18.1-36.2,9.1c-65.1-9.1-72.3-6.8-36.2,9.1
		C4486.5,1538.3,4513,1540.5,4554,1515.6z M5605.4,1515.6c-38.6-15.9-33.8-20.4,33.8-31.7c45.8-9.1,101.3-15.9,127.8-15.9
		c57.9,0,224.3-65.8,207.4-81.6c-21.7-18.1-354.5,52.1-393.1,81.6c-43.4,34-24.1,68,31.3,65.8
		C5646.4,1533.7,5646.4,1529.2,5605.4,1515.6z M3975.3,1429.4c-31.3-34-28.9-34,19.3-11.3c69.9,36.3,82,34,62.7-6.8
		c-7.2-20.4-43.4-49.9-82-70.3c-60.3-27.2-69.9-29.5-69.9,0c0,18.1-14.5,36.3-28.9,43.1c-19.3,4.5,0,24.9,41,45.3
		C4009,1477.1,4013.8,1477.1,3975.3,1429.4z M6114.2,1420.4c9.6-15.9,21.7-18.1,31.3-2.3s36.2,13.6,74.8-6.8
		c48.2-27.2,53.1-31.7,14.5-34c-28.9,0-38.6-11.3-28.9-34c7.2-18.1,4.8-34-7.2-34c-31.3,0-147.1,90.7-147.1,115.6
		C6051.5,1454.4,6092.5,1449.9,6114.2,1420.4z M4433.4,1356.9c26.5-15.9,19.3-27.2-28.9-58.9c-36.2-20.4-77.2-34-94-27.2
		c-16.9,4.5-48.2-2.3-67.5-18.1c-57.9-45.3-147.1-65.8-132.6-29.5c7.2,15.9-9.6,43.1-36.2,58.9c-41,22.7-62.7,22.7-120.6-6.8
		c-41-20.4-86.8-54.4-103.7-79.4c-14.5-24.9-38.6-45.3-50.6-45.3c-12.1,0-48.2-22.7-79.6-49.9c-31.3-27.2-55.5-38.5-55.5-27.2
		c2.4,36.3,57.9,88.4,127.8,115.6c36.2,15.9,65.1,38.5,65.1,52.1c0,34,168.8,97.5,287,106.6c60.3,4.5,113.3,13.6,120.6,18.1
		C4283.9,1384.1,4397.3,1377.3,4433.4,1356.9z M5817.6,1352.4c-14.5-13.6-21.7-40.8-14.5-56.7c14.5-38.5,2.4-38.5-77.2-4.5
		c-96.5,40.8-69.9,79.4,60.3,83.9C5829.6,1377.3,5836.9,1370.5,5817.6,1352.4z M6116.6,1327.4c168.8-93,465.4-328.8,465.4-369.6
		c0-9.1-16.9-4.5-33.8,11.3c-24.1,18.1-50.6,18.1-77.2,4.5s-31.3-24.9-12.1-36.3c14.5-9.1,26.5-4.5,26.5,11.3
		c0,15.9,19.3,11.3,48.2-13.6c33.8-29.5,48.2-31.7,48.2-11.3c0,20.4,21.7,11.3,60.3-22.7c33.8-29.5,60.3-63.5,60.3-74.8
		c0-13.6-24.1-2.3-53.1,22.7c-53.1,45.3-110.9,45.3-142.3,2.3c-7.2-11.3-36.2,4.5-62.7,36.3s-55.5,49.9-65.1,40.8
		c-9.6-6.8-9.6,2.3-2.4,22.7c9.6,22.7,24.1,38.5,31.3,36.3c48.2-4.5,77.2,6.8,65.1,27.2c-14.5,22.7-86.8,4.5-110.9-29.5
		c-9.6-13.6-43.4,4.5-79.6,36.3c-77.2,72.6-84.4,120.2-12.1,81.6c36.2-18.1,45.8-18.1,36.2,0c-28.9,43.1,14.5,27.2,74.8-24.9
		c31.3-27.2,55.5-36.3,55.5-22.7c0,15.9-41,52.1-89.2,83.9c-50.6,31.7-127.8,83.9-173.6,113.4c-62.7,43.1-89.2,49.9-125.4,31.7
		c-26.5-11.3-45.8-36.3-45.8-54.4c0-43.1-9.6-43.1-96.5,0c-84.4,40.8-96.5,90.7-16.9,72.6c53.1-13.6,53.1-13.6,4.8,22.7
		c-45.8,34-45.8,34,24.1,22.7c41-4.5,94-15.9,120.6-24.9c48.2-18.1,48.2-15.9,2.4,18.1C5974.3,1393.2,6005.7,1386.4,6116.6,1327.4z
		 M3859.5,1288.9c-31.3-54.4-123-106.6-123-70.3c0,11.3-19.3,22.7-41,22.7c-36.2,2.3-33.8,9.1,14.5,47.6
		c38.6,29.5,65.1,36.3,74.8,20.4c12.1-15.9,26.5-13.6,48.2,11.3C3874,1368.2,3890.9,1347.8,3859.5,1288.9z M6314.3,1304.7
		c26.5-22.7,31.3-22.7,16.9,0c-24.1,40.8,12.1,31.7,82-18.1c48.2-36.3,53.1-45.3,19.3-45.3c-24.1,0-43.4-9.1-43.4-22.7
		c0-36.3-43.4-27.2-96.5,22.7C6217.9,1311.5,6239.6,1370.5,6314.3,1304.7z M4064.5,1236.7c9.6-13.6-9.6-47.6-48.2-79.4
		c-60.3-47.6-67.5-49.9-106.1-15.9c-36.2,34-33.8,40.8,16.9,79.4C3992.1,1270.7,4040.4,1275.3,4064.5,1236.7z M6198.6,1220.9
		c53.1-38.5,53.1-43.1,14.5-81.6c-38.6-36.3-45.8-36.3-101.3-2.3c-31.3,20.4-62.7,27.2-69.9,15.9c-16.9-24.9,94-95.2,135-86.2
		c16.9,4.5,24.1,4.5,14.5,0c-21.7-11.3,267.7-267.5,301.4-267.5c14.5,0,26.5-18.1,31.3-38.5c7.2-49.9,98.9-161,110.9-138.3
		c7.2,11.3,7.2,4.5,4.8-11.3c-12.1-38.5,74.8-167.8,98.9-145.1c12.1,9.1,12.1,4.5,4.8-9.1c-21.7-36.3,41-174.6,67.5-151.9
		c9.6,11.3,12.1,6.8,2.4-9.1c-9.6-15.9,2.4-93,24.1-170c24.1-86.2,43.4-244.9,45.8-403.6c4.8-356,7.2-367.3,38.6-349.2
		c21.7,11.3,24.1-2.3,12.1-45.3c-9.6-40.8-7.2-56.7,9.6-47.6c12.1,6.8,24.1,40.8,24.1,74.8c2.4,52.1,4.8,54.4,26.5,22.7
		c36.2-58.9,0-154.2-69.9-179.1c-77.2-27.2-94-11.3-60.3,70.3c16.9,45.3,19.3,90.7,4.8,131.5l-21.7,61.2l9.6-61.2
		c4.8-36.3,0-63.5-7.2-63.5c-9.6,0-33.8-52.1-55.5-115.6c-38.6-106.6-38.6-113.4,0-97.5c21.7,9.1,118.2,40.8,209.8,68
		c94,29.5,188.1,63.5,212.2,77.1c26.5,15.9,41,15.9,41,0c0-11.3-9.6-22.7-24.1-22.7c-12.1,0-16.9-13.6-9.6-31.7
		c7.2-18.1,0-56.7-16.9-86.2c-16.9-29.5-33.8-58.9-36.2-68c-2.4-11.3-4.8-20.4-9.6-22.7c-2.4-4.5-7.2-27.2-9.6-52.1
		c-2.4-24.9-19.3-65.8-36.2-90.7c-26.5-43.1-28.9-40.8-19.3,15.9c4.8,36.3-2.4,65.8-19.3,72.6c-45.8,15.9-335.2-22.7-393.1-52.1
		c-67.5-34-67.5-2.3-4.8,61.2c28.9,27.2,43.4,49.9,36.2,49.9c-7.2,0-7.2,13.6,2.4,27.2c12.1,15.9,21.7,43.1,24.1,63.5
		c0,18.1,21.7,95.2,48.2,170c53.1,167.8,62.7,596.3,12.1,782.2c-16.9,68-79.6,219.9-137.4,335.6c-166.4,326.5-508.8,637.1-827.1,755
		c-135,49.9-101.3,54.4,57.9,9.1c127.8-34,161.6-29.5,139.9,24.9c-12.1,31.7-7.2,34,36.2,11.3c31.3-15.9,53.1-18.1,53.1-4.5
		c0,11.3-14.5,27.2-28.9,31.7c-19.3,9.1-16.9,13.6,7.2,13.6C6123.8,1263.9,6167.2,1245.8,6198.6,1220.9z M4312.9,1182.3
		c-453.3-145.1-856-582.7-988.7-1070.2c-62.7-231.3-62.7-573.6,2.4-809.4c26.5-97.5,43.4-181.4,36.2-188.2
		c-7.2-6.8,7.2-24.9,31.3-43.1c21.7-18.1-2.4-11.3-55.5,11.3c-53.1,24.9-173.6,65.8-270.1,93c-96.5,27.2-180.9,58.9-188.1,70.3
		c-19.3,29.5-36.2,34,236.3-54.4c176-56.7,233.9-65.8,233.9-43.1c0,18.1-12.1,24.9-28.9,15.9c-14.5-9.1-21.7-6.8-12.1,4.5
		c7.2,11.3-7.2,102-33.8,201.8c-36.2,140.6-45.8,242.6-41,446.7c4.8,147.4,14.5,267.5,21.7,267.5c7.2,0,26.5,52.1,43.4,115.6
		c19.3,63.5,67.5,183.7,113.3,265.3c43.4,81.6,72.3,158.7,67.5,167.8c-7.2,11.3-2.4,15.9,7.2,13.6c21.7-6.8,274.9,263,265.3,278.9
		c-2.4,4.5,0,6.8,4.8,4.5c21.7-13.6,147.1,90.7,132.6,108.8c-9.6,13.6-31.3,9.1-55.5-11.3c-41-34-147.1-27.2-147.1,11.3
		c0,20.4,96.5,88.4,127.8,88.4c9.6,0,12.1-13.6,2.4-27.2c-14.5-22.7-9.6-22.7,16.9,0c43.4,38.5,72.3,34,53.1-11.3
		c-12.1-27.2-7.2-31.7,16.9-18.1c21.7,11.3,26.5,9.1,14.5-6.8c-9.6-15.9-9.6-27.2-2.4-27.2c24.1,0,180.9,106.6,171.2,115.6
		c-4.8,4.5,14.5,11.3,45.8,11.3c28.9,2.3,84.4,18.1,123,36.3c38.6,18.1,84.4,27.2,103.7,20.4
		C4382.8,1214.1,4363.5,1200.4,4312.9,1182.3z M3681.1,1182.3c7.2-20.4-7.2-54.4-41-83.9c-33.8-31.7-57.9-40.8-65.1-24.9
		c-4.8,15.9-33.8,22.7-62.7,15.9c-45.8-9.1-43.4-2.3,26.5,58.9C3625.6,1227.7,3659.4,1234.5,3681.1,1182.3z M6594,1125.6
		c38.6-40.8,41-47.6,9.6-36.3c-21.7,6.8-50.6,2.3-62.7-9.1c-14.5-13.6-43.4,0-79.6,36.3c-48.2,47.6-53.1,63.5-24.1,79.4
		C6478.3,1218.6,6528.9,1195.9,6594,1125.6z M3543.6,1039.5c0-31.7-118.2-154.2-120.6-122.4c0,13.6-21.7,20.4-53.1,13.6l-55.5-13.6
		l57.9,61.2c36.2,36.3,65.1,49.9,74.8,36.3c9.6-15.9,26.5-13.6,48.2,11.3C3529.2,1064.4,3543.6,1068.9,3543.6,1039.5z
		 M3664.2,1053.1c0-2.3-60.3-65.8-132.6-140.6c-137.4-138.3-188.1-145.1-60.3-9.1c41,43.1,89.2,95.2,108.5,117.9
		C3611.1,1053.1,3664.2,1075.7,3664.2,1053.1z M6661.6,1019.1c7.2,20.4,28.9,13.6,74.8-24.9c74.8-65.8,82-104.3,12.1-68
		c-38.6,18.1-55.5,18.1-69.9-2.3c-12.1-18.1-28.9-11.3-57.9,24.9c-48.2,68-53.1,142.8-4.8,81.6
		C6639.9,1000.9,6651.9,996.4,6661.6,1019.1z M3712.4,944.2c0-11.3-21.7-40.8-48.2-65.8c-45.8-43.1-53.1-45.3-89.2-9.1
		c-38.6,34-36.2,40.8,12.1,79.4C3640.1,987.3,3712.4,985.1,3712.4,944.2z M3391.7,819.5c-2.4-45.3-7.2-72.6-12.1-56.7
		c-4.8,13.6-21.7,18.1-36.2,9.1c-33.8-20.4-137.4-24.9-137.4-6.8c0,9.1,28.9,38.5,65.1,70.3c33.8,29.5,55.5,40.8,45.8,27.2
		c-9.6-15.9-7.2-29.5,4.8-29.5c14.5,0,28.9,15.9,38.6,34C3382.1,923.8,3394.1,905.7,3391.7,819.5z M6799,855.8
		c0,22.7,7.2,22.7,38.6,0c19.3-18.1,45.8-45.3,57.9-65.8c14.5-29.5,4.8-36.3-50.6-38.5c-41-2.3-72.3,11.3-82,34
		c-12.1,27.2-19.3,29.5-33.8,4.5c-12.1-18.1-19.3-4.5-16.9,38.5c2.4,63.5,4.8,65.8,45.8,34C6787,835.4,6799,833.1,6799,855.8z
		 M3505,805.9c-12.1-20.4-4.8-20.4,21.7,2.3c36.2,24.9,41,24.9,41-4.5c0-43.1-94-151.9-96.5-108.8c0,15.9-14.5,24.9-36.2,15.9
		c-45.8-15.9-45.8,9.1,2.4,72.6C3476.1,835.4,3536.4,855.8,3505,805.9z M6598.9,794.6c33.8-38.5,33.8-38.5,21.7,4.5
		c-12.1,36.3-2.4,31.7,45.8-18.1c33.8-34,60.3-52.1,60.3-36.3s19.3,11.3,48.2-13.6c26.5-22.7,48.2-56.7,48.2-77.1
		c-2.4-29.5-9.6-27.2-43.4,9.1c-48.2,52.1-125.4,72.6-125.4,31.7c0-40.8-89.2,40.8-103.7,95.2C6536.2,844.5,6553,844.5,6598.9,794.6
		z M3242.2,615.5c-28.9-43.1-48.2-52.1-69.9-34c-21.7,15.9-38.6,15.9-62.7-4.5c-16.9-13.6-9.6,6.8,14.5,47.6
		c41,68,101.3,106.6,69.9,45.3c-7.2-15.9,4.8-4.5,28.9,24.9c36.2,47.6,43.4,49.9,50.6,15.9C3278.4,690.3,3263.9,647.2,3242.2,615.5z
		 M3345.9,681.2c-21.7-22.7-62.7-90.7-94-154.2c-33.8-65.8-60.3-97.5-65.1-77.1c-4.8,20.4,19.3,77.1,53.1,122.4
		c36.2,47.6,62.7,99.8,62.7,115.6c0,15.9,14.5,31.7,31.3,38.5C3379.6,742.5,3384.5,724.3,3345.9,681.2z M6919.6,676.7
		c2.4,20.4,16.9,13.6,48.2-22.7c55.5-61.2,65.1-111.1,14.5-72.6c-26.5,20.4-36.2,20.4-45.8-2.3c-19.3-40.8-89.2,43.1-89.2,104.3
		c2.4,47.6,2.4,47.6,36.2,4.5C6909.9,656.3,6919.6,651.8,6919.6,676.7z M3447.2,647.2c0-11.3-16.9-52.1-38.6-90.7
		c-26.5-49.9-43.4-61.2-57.9-40.8c-9.6,15.9-31.3,20.4-45.8,13.6c-41-24.9-31.3,20.4,19.3,81.6C3370,665.4,3447.2,688,3447.2,647.2z
		 M6736.3,640.4c-12.1,40.8-7.2,38.5,36.2-9.1c60.3-63.5,62.7-83.9,9.6-102c-48.2-18.1-103.7,38.5-103.7,108.8c0,45.3,0,45.3,36.2,0
		C6750.8,595.1,6750.8,595.1,6736.3,640.4z M6919.6,481.7c0-20.4-9.6-29.5-24.1-22.7c-16.9,9.1-16.9-6.8,0-45.3
		c31.3-79.4,31.3-79.4-26.5-72.6c-57.9,9.1-94,54.4-94,117.9c2.4,43.1,2.4,43.1,33.8,4.5c33.8-40.8,33.8-40.8,50.6,4.5
		c7.2,24.9,2.4,65.8-9.6,90.7c-41,72.6-31.3,81.6,21.7,18.1C6897.9,545.2,6919.6,502.1,6919.6,481.7z M3136.1,409.2
		c-14.5-24.9-26.5-29.5-26.5-11.3c0,22.7-12.1,22.7-48.2,4.5c-55.5-27.2-57.9-22.7-19.3,56.7c16.9,36.3,33.8,47.6,45.8,31.7
		c9.6-15.9,24.1-6.8,36.2,27.2l21.7,54.4l7.2-61.2C3157.8,477.2,3150.6,431.8,3136.1,409.2z M7008.8,499.9
		c19.3-22.7,28.9-27.2,19.3-11.3c-7.2,13.6-9.6,27.2-2.4,27.2c19.3,0,69.9-97.5,77.2-147.4c2.4-24.9,21.7-83.9,43.4-129.2
		c21.7-47.6,28.9-86.2,16.9-86.2c-12.1,0-28.9,18.1-36.2,38.5c-14.5,31.7-21.7,34-36.2,9.1c-24.1-36.3-41-13.6-60.3,88.4
		c-16.9,74.8-14.5,77.1,21.7,34c38.6-45.3,38.6-45.3,31.3,0c-14.5,79.4-41,104.3-77.2,74.8c-21.7-20.4-26.5-47.6-12.1-97.5
		c28.9-93,26.5-97.5-16.9-38.5c-24.1,34-31.3,74.8-21.7,124.7c12.1,56.7,9.6,65.8-12.1,38.5c-24.1-29.5-26.5-27.2-14.5,6.8
		c7.2,22.7,14.5,56.7,14.5,74.8C6943.7,549.7,6967.8,547.5,7008.8,499.9z M3321.8,386.5c-9.6-52.1-115.7-56.7-115.7-6.8
		c0,22.7,19.3,54.4,41,70.3c33.8,27.2,38.6,27.2,24.1-2.3c-9.6-18.1-4.8-15.9,12.1,6.8c26.5,34,33.8,34,38.6,4.5
		C3326.6,440.9,3326.6,406.9,3321.8,386.5z M3066.2,323c14.5,31.7,16.9,18.1,9.6-52.1c-4.8-52.1-2.4-90.7,7.2-83.9
		c12.1,4.5,9.6-43.1-4.8-108.8c-33.8-181.4-36.2-603.1-4.8-734.6c16.9-65.8,21.7-120.2,12.1-120.2c-26.5,0-74.8,206.3-77.2,340.1
		v124.7l-16.9-102c-9.6-74.8-21.7-93-36.2-70.3c-19.3,27.2-26.5,24.9-41-11.3c-12.1-29.5-19.3-15.9-19.3,52.1
		c-2.4,52.1,9.6,102,21.7,108.8c14.5,6.8,24.1-9.1,24.1-38.5c2.4-81.6,72.3,115.6,72.3,201.8c0,40.8,12.1,117.9,28.9,172.3
		c33.8,122.4,9.6,238.1-41,197.3c-38.6-29.5-24.1-77.1,14.5-56.7c24.1,15.9,28.9-43.1,7.2-117.9c-9.6-29.5-24.1-47.6-33.8-40.8
		c-33.8,20.4-69.9-47.6-55.5-104.3l16.9-54.4l16.9,56.7c14.5,47.6,16.9,40.8,19.3-34c0-72.6-12.1-99.8-60.3-131.5l-60.3-43.1
		l16.9,88.4c12.1,47.6,16.9,117.9,14.5,158.7c-4.8,93,33.8,195,69.9,174.6c19.3-11.3,19.3-2.3,0,31.7
		c-21.7,36.3-16.9,70.3,14.5,145.1c31.3,74.8,43.4,86.2,53.1,52.1C3044.5,277.7,3044.5,277.7,3066.2,323z M3254.3,225.5
		c0-72.6-24.1-106.6-69.9-106.6c-19.3,0-36.2-27.2-41-61.2c-7.2-74.8,31.3-86.2,45.8-11.3c7.2,31.7,12.1,20.4,14.5-31.7
		c2.4-56.7-12.1-93-41-113.4c-33.8-24.9-41-47.6-28.9-99.8c12.1-45.3,19.3-52.1,21.7-22.7c2.4,24.9,12.1,58.9,24.1,77.1
		c12.1,18.1,16.9-11.3,7.2-79.4c-7.2-61.2-24.1-120.2-41-133.8c-16.9-13.6-21.7-47.6-9.6-90.7c16.9-68,16.9-68,19.3-6.8
		c4.8,97.5,38.6,90.7,43.4-11.3c4.8-49.9,16.9-102,31.3-115.6c12.1-11.3,24.1-31.7,24.1-45.3c0-11.3-21.7,0-50.6,27.2
		c-26.5,27.2-57.9,45.3-69.9,38.5c-24.1-13.6,24.1-170,53.1-170c12.1,0,9.6,20.4-4.8,47.6c-14.5,24.9-21.7,56.7-16.9,72.6
		c4.8,15.9,36.2-20.4,65.1-79.4c65.1-124.7,55.5-147.4-41-104.3c-55.5,24.9-69.9,49.9-86.8,154.2c-9.6,68-14.5,154.2-7.2,188.2
		c9.6,43.1,4.8,58.9-12.1,47.6c-19.3-11.3-21.7,18.1-12.1,95.2c7.2,61.2,16.9,156.4,24.1,213.1c26.5,253.9,33.8,297,72.3,351.4
		C3215.7,323,3254.3,309.4,3254.3,225.5z M6895.5,243.6c12.1,0,16.9,15.9,9.6,34c-26.5,61.2,12.1,36.3,50.6-34
		c48.2-86.2,50.6-174.6,4.8-138.3c-19.3,13.6-41,18.1-48.2,11.3c-21.7-20.4-65.1,95.2-62.7,156.4c2.4,38.5,4.8,40.8,14.5,11.3
		C6868.9,261.8,6883.4,243.6,6895.5,243.6z M7064.3,66.8c0-63.5-7.2-74.8-24.1-49.9c-31.3,45.3-31.3,165.5,0,147.4
		C7054.6,157.5,7064.3,112.1,7064.3,66.8z M7136.6,109.9c16.9,22.7,26.5,15.9,43.4-24.9c45.8-117.9,55.5-185.9,26.5-167.8
		c-21.7,11.3-24.1,4.5-9.6-27.2c31.3-68,38.6-439.9,7.2-385.4c-19.3,31.7-28.9,36.3-45.8,11.3c-33.8-49.9-53.1,36.3-26.5,108.8
		l24.1,63.5l4.8-56.7l4.8-56.7l16.9,56.7c14.5,40.8,7.2,70.3-24.1,102c-21.7,24.9-45.8,77.1-50.6,113.4
		c-4.8,38.5-9.6-43.1-12.1-181.4c0-272.1-24.1-442.1-60.3-442.1c-14.5,0-16.9,15.9-9.6,36.3c24.1,61.2,65.1,464.8,48.2,489.7
		c-7.2,11.3-7.2,111.1,4.8,217.7c9.6,108.8,21.7,176.8,28.9,154.2C7114.9,87.2,7122.1,84.9,7136.6,109.9z M6967.8,28.3
		c16.9,40.8,21.7,40.8,45.8-18.1c33.8-81.6,33.8-151.9,0-151.9c-19.3,0-19.3-9.1,2.4-34c14.5-18.1,28.9-77.1,28.9-129.2
		c-2.4-54.4-2.4-142.8-2.4-197.3c0-86.2-4.8-97.5-36.2-72.6c-19.3,15.9-48.2,22.7-62.7,13.6s-24.1,11.3-24.1,49.9
		c0,34-4.8,83.9-9.6,108.8c-4.8,24.9-2.4,34,2.4,18.1c12.1-29.5,103.7-31.7,103.7-2.3c0,9.1-21.7,27.2-48.2,40.8
		c-60.3,29.5-62.7,127-9.6,185.9c38.6,36.3,38.6,40.8,0,54.4c-26.5,9.1-38.6,40.8-36.2,108.8c2.4,63.5,7.2,74.8,16.9,36.3
		C6948.5-12.6,6950.9-14.8,6967.8,28.3z M3005.9-661c14.5-97.5,12.1-102-50.6-79.4c-38.6,13.6-50.6,108.8-24.1,179.1
		C2955.2-504.6,2991.4-552.2,3005.9-661z M7155.9-583.9c-12.1-56.7,16.9-79.4,36.2-27.2c4.8,13.6,7.2-2.3,2.4-40.8
		c-9.6-61.2-43.4-99.8-86.8-102c-26.5,0-24.1,40.8,7.2,142.8C7141.4-518.2,7172.8-495.5,7155.9-583.9z M4025.9-810.6
		c0-38.5-115.7-115.6-139.9-93c-9.6,9.1,14.5,43.1,50.6,72.6C4016.3-767.6,4025.9-765.3,4025.9-810.6z M6191.3-837.9
		c43.4-40.8,53.1-63.5,33.8-70.3c-33.8-9.1-149.5,79.4-149.5,113.4C6075.6-758.5,6126.2-776.6,6191.3-837.9z M3162.6-880.9
		c113.3-34,212.2-79.4,260.4-122.4c84.4-74.8,84.4-111.1,0-68c-48.2,24.9-272.5,65.8-402.7,74.8c-28.9,2.3-60.3,13.6-69.9,22.7
		c-12.1,9.1,0,11.3,26.5,2.3c38.6-13.6,33.8-2.3-16.9,43.1c-77.2,68-91.6,142.8-24.1,117.9C2957.7-819.7,3058.9-851.5,3162.6-880.9z
		 M5200.3-865.1c-14.5-63.5-9.6-68,135-122.4l149.5-52.1l36.2,49.9l38.6,52.1l106.1-86.2l108.5-88.4l-50.6-52.1l-50.6-54.4
		l57.9-117.9c53.1-111.1,62.7-117.9,127.8-104.3c79.6,13.6,84.4,6.8,106.1-145.1l14.5-95.2l-86.8,13.6
		c-79.6,11.3-86.8,9.1-72.3-31.7c16.9-52.1-31.3-81.6-94-61.2c-26.5,9.1-36.2,47.6-36.2,131.5c0,303.8-303.8,580.4-639,580.4
		c-224.3,0-470.2-140.6-569.1-324.2c-28.9-49.9-57.9-154.2-65.1-229c-7.2-77.1-21.7-145.1-36.2-154.2c-36.2-22.7-82,2.3-96.5,52.1
		c-9.6,31.7-33.8,43.1-101.3,43.1c-72.3,0-84.4,6.8-77.2,40.8c7.2,20.4,19.3,77.1,28.9,124.7c12.1,74.8,21.7,83.9,67.5,70.3
		c28.9-6.8,60.3-15.9,72.3-18.1c9.6,0,53.1,56.7,94,129.2l77.2,133.8l-55.5,38.5l-55.5,38.5l108.5,83.9l108.5,83.9l38.6-56.7
		l38.6-54.4l144.7,61.2c132.6,56.7,144.7,65.8,137.4,124.7l-9.6,61.2H5058h156.7L5200.3-865.1z M6442.1-917.2
		c55.5-104.3,79.6-337.8,38.6-410.4c-19.3-36.3-14.5-40.8,57.9-29.5c43.4,9.1,151.9,24.9,241.1,36.3c89.2,13.6,180.9,29.5,205,38.5
		c28.9,9.1,36.2,6.8,19.3-9.1c-38.6-38.5-180.9-72.6-349.7-86.2c-86.8-9.1-178.4-20.4-205-24.9c-38.6-9.1-41-6.8-12.1,11.3
		c28.9,20.4,28.9,24.9,2.4,24.9s-24.1,11.3,9.6,45.3c24.1,24.9,33.8,45.3,21.7,45.3c-12.1,0-24.1,63.5-24.1,142.8
		c-2.4,77.1-21.7,179.1-41,226.7C6355.3-792.5,6374.6-799.3,6442.1-917.2z M4146.5-924c-31.3-36.3-192.9-47.6-192.9-13.6
		c0,24.9,55.5,40.8,154.3,45.3C4165.8-890,4173-894.5,4146.5-924z M6119-903.6c28.9-9.1,53.1-22.7,53.1-34
		c0-34-161.6-22.7-192.9,13.6c-24.1,29.5-21.7,34,26.5,34C6037-890,6087.6-896.8,6119-903.6z M3905.3-969.4
		c0-18.1-31.3-47.6-72.3-68c-89.2-43.1-94-9.1-9.6,54.4C3900.5-926.3,3905.3-926.3,3905.3-969.4z M6268.5-958
		c26.5-13.6,60.3-45.3,74.8-72.6l26.5-47.6l-77.2,43.1C6176.9-973.9,6157.6-901.3,6268.5-958z M3068.6-1139.4
		c24.1-49.9,55.5-90.7,69.9-90.7c14.5,0,9.6,18.1-12.1,40.8c-24.1,22.7-41,49.9-41,56.7c0,18.1,106.1,4.5,144.7-18.1
		c12.1-6.8,24.1-4.5,24.1,9.1c0,13.6,16.9,18.1,36.2,11.3c21.7-9.1,33.8-36.3,31.3-63.5c-4.8-24.9,4.8-47.6,16.9-47.6
		c14.5,0,21.7,20.4,16.9,45.3c-4.8,43.1-2.4,40.8,31.3-4.5c21.7-29.5,50.6-52.1,65.1-52.1c14.5,0,7.2,22.7-19.3,47.6
		c-45.8,49.9-45.8,49.9,2.4,24.9c26.5-11.3,74.8-49.9,106.1-81.6l57.9-58.9h-72.3c-41,0-86.8,15.9-103.7,34
		c-24.1,27.2-38.6,29.5-65.1,9.1s-41-18.1-67.5,15.9c-43.4,54.4-45.8,86.2-4.8,63.5c14.5-9.1,21.7-9.1,12.1,0
		c-7.2,9.1-19.3,15.9-24.1,11.3c-2.4-2.3-33.8,6.8-67.5,24.9l-60.3,29.5l50.6-54.4c91.6-99.8,89.2-108.8-16.9-81.6
		c-74.8,15.9-106.1,38.5-127.8,88.4c-16.9,34-36.2,56.7-45.8,47.6c-9.6-6.8-16.9-2.3-16.9,11.3c0,11.3-7.2,40.8-14.5,58.9
		C2943.2-983,3027.6-1053.3,3068.6-1139.4z M3997-1075.9c45.8-43.1,33.8-68-16.9-40.8c-69.9,34-108.5,29.5-207.4-34
		c-48.2-31.7-84.4-45.3-79.6-29.5c16.9,45.3,164,131.5,221.8,131.5C3943.9-1048.7,3980.1-1060.1,3997-1075.9z M6331.2-1096.3
		c45.8-24.9,82-61.2,82-81.6c0-24.9-21.7-18.1-77.2,27.2c-74.8,58.9-115.7,63.5-221.8,22.7c-38.6-15.9-41-13.6-16.9,29.5
		C6133.5-1035.1,6225.1-1035.1,6331.2-1096.3z M5323.2-1146.2c188.1-81.6,342.4-315.2,342.4-519.2c0-106.6-41-70.3-55.5,47.6
		c-36.2,287.9-265.3,485.2-559.4,485.2c-171.2,0-306.2-56.7-417.2-174.6c-74.8-79.4-149.5-265.3-149.5-369.6
		c0-29.5-12.1-52.1-26.5-52.1c-33.8,0-9.6,201.8,36.2,306.1C4623.9-1130.3,5000.1-1005.6,5323.2-1146.2z M6835.2-1162.1
		c-24.1-24.9-50.6-38.5-60.3-34c-24.1,13.6-53.1-54.4-33.8-81.6c7.2-11.3,4.8-20.4-7.2-18.1c-9.6,2.3-36.2,0-55.5-9.1
		c-19.3-6.8-62.7-15.9-96.5-20.4c-53.1-9.1-62.7-2.3-60.3,45.3c0,31.7,16.9,63.5,36.2,68c31.3,11.3,31.3,6.8,0-29.5
		c-21.7-27.2-2.4-20.4,50.6,18.1c50.6,34,106.1,56.7,135,52.1c28.9-6.8,57.9,4.5,65.1,22.7c7.2,18.1,26.5,31.7,41,31.7
		C6866.5-1116.7,6861.7-1134.9,6835.2-1162.1z M6931.6-1139.4c-21.7-31.7,19.3-29.5,55.5,4.5c41,38.5,86.8-9.1,67.5-68
		c-9.6-27.2-50.6-52.1-110.9-68c-89.2-20.4-130.2-4.5-72.3,29.5c14.5,6.8,24.1,24.9,24.1,38.5c0,15.9-14.5,13.6-36.2-4.5
		c-19.3-15.9-36.2-43.1-36.2-58.9c0-18.1-9.6-31.7-24.1-31.7c-41,0-26.5,29.5,53.1,106.6C6929.2-1116.7,6960.6-1096.3,6931.6-1139.4
		z M5250.9-1198.4c180.9-70.3,315.9-251.7,318.3-424c0-81.6-4.8-86.2-62.7-79.4c-53.1,4.5-69.9,24.9-94,104.3
		c-41,131.5-94,199.5-183.3,244.9c-139.9,68-364.1,34-455.8-70.3c-16.9-20.4-50.6-88.4-72.3-154.2c-31.3-93-53.1-120.2-98.9-127
		l-57.9-9.1l60.3-18.1l60.3-18.1l-60.3,4.5c-48.2,4.5-62.7,18.1-67.5,77.1c-19.3,181.4,110.9,383.2,296.6,462.5
		C4951.9-1153,5130.3-1150.7,5250.9-1198.4z M3483.3-1411.5c221.8-18.1,335.2-54.4,397.9-124.7c31.3-36.3,14.5-38.5-229.1-29.5
		c-303.8,9.1-419.6,47.6-501.6,174.6l-48.2,74.8l79.6-38.5C3227.7-1377.5,3355.5-1400.1,3483.3-1411.5z M5224.4-1388.8
		c79.6-45.3,132.6-122.4,161.6-233.5c26.5-104.3-55.5-68-96.5,40.8c-43.4,120.2-110.9,170-236.3,170c-120.6,0-200.1-47.6-246-149.6
		c-48.2-108.8-43.4-122.4,45.8-124.7c43.4-2.3,57.9-6.8,33.8-13.6c-24.1-6.8-69.9-4.5-103.7,2.3c-72.3,18.1-77.2,83.9-14.5,192.7
		C4853-1354.8,5070-1300.4,5224.4-1388.8z M6948.5-1416c-77.2-115.6-224.3-156.4-520.9-149.6l-243.6,6.8l113.3,63.5
		c89.2,49.9,159.2,68,325.5,83.9c115.7,11.3,238.7,29.5,272.5,43.1C6991.9-1332.1,6999.2-1338.9,6948.5-1416z M5156.9-1468.2
		c65.1-31.7,144.7-158.7,115.7-183.7c-7.2-9.1-82-15.9-166.4-20.4c-84.4-2.3-101.3,0-36.2,4.5c113.3,9.1,142.3,38.5,84.4,93
		c-50.6,47.6-159.2,31.7-202.6-29.5c-43.4-63.5-130.2-77.1-130.2-20.4c0,58.9,45.8,120.2,115.7,154.2
		C5021.8-1427.4,5072.5-1425.1,5156.9-1468.2z M3367.6-1572.5c36.2-15.9,192.9-27.2,344.8-29.5c260.4-2.3,277.3-4.5,277.3-47.6
		c-2.4-49.9,86.8-106.6,180.9-117.9l60.3-6.8l-65.1,34c-82,43.1-86.8,63.5-9.6,34c31.3-11.3,65.1-13.6,77.2-4.5
		c9.6,9.1,9.6,2.3,0-11.3c-9.6-18.1-4.8-29.5,12.1-29.5s9.6-15.9-16.9-34c-45.8-31.7-45.8-31.7,0-34c86.8,0,24.1-22.7-120.6-43.1
		c-98.9-13.6-115.7-20.4-57.9-20.4c120.6-4.5,752.4,147.4,675.2,161c-33.8,4.5-24.1,6.8,21.7,2.3c45.8-4.5,185.7,2.3,313.5,13.6
		c137.4,11.3,265.3,11.3,315.9,0c77.2-20.4,74.8-20.4-36.2-13.6c-65.1,4.5-101.3,2.3-77.2-2.3c21.7-4.5,41-20.4,41-34
		c0-13.6,24.1-18.1,60.3-9.1c33.8,9.1,178.4-13.6,342.4-52.1c347.2-81.6,540.2-102,682.4-72.6l108.5,22.7l-144.7-6.8
		c-79.6-4.5-205,0-277.3,9.1l-132.6,15.9l120.6,6.8c67.5,2.3,132.6,4.5,147.1,2.3c31.3-2.3,65.1,79.4,57.9,140.6
		c-2.4,38.5,38.6,49.9,106.1,24.9c38.6-13.6,28.9-54.4-12.1-54.4c-14.5,0-16.9,11.3-9.6,22.7c7.2,13.6,4.8,22.7-9.6,22.7
		c-12.1,0-31.3-9.1-38.6-22.7c-7.2-11.3-2.4-22.7,14.5-22.7s12.1-18.1-14.5-45.3c-24.1-24.9-36.2-52.1-28.9-61.2
		c9.6-6.8,16.9-2.3,16.9,11.3c0,38.5,217,149.6,243.6,124.7c36.2-34-45.8-115.6-130.2-127c-41-4.5-16.9-6.8,55.5-2.3
		c91.6,4.5,118.2,0,84.4-13.6c-26.5-11.3-38.6-20.4-26.5-20.4c26.5-2.3-120.6-113.4-272.5-204.1c-101.3-61.2-130.2-68-226.7-56.7
		c-67.5,9.1-115.7,29.5-125.4,49.9c-7.2,20.4-7.2,29.5,2.4,20.4c19.3-18.1,79.6,49.9,82,93c0,13.6-12.1,27.2-26.5,27.2
		s-19.3-15.9-12.1-36.3c7.2-18.1,4.8-27.2-9.6-20.4c-14.5,6.8-24.1,29.5-24.1,47.6s-12.1,27.2-24.1,20.4
		c-14.5-6.8-24.1-49.9-24.1-95.2c0-72.6-4.8-79.4-53.1-65.8c-31.3,9.1-106.1,24.9-166.4,40.8c-108.5,24.9-110.9,24.9-67.5,65.8
		c48.2,45.3,62.7,133.8,19.3,133.8c-14.5,0-19.3-18.1-12.1-38.5c16.9-52.1-19.3-108.8-57.9-86.2c-19.3,11.3-21.7,22.7-2.4,40.8
		c48.2,45.3,31.3,106.6-31.3,106.6c-41,0-55.5-11.3-53.1-38.5c4.8-20.4,19.3-43.1,33.8-47.6c16.9-4.5,21.7-18.1,14.5-31.7
		c-9.6-13.6,0-31.7,16.9-45.3c21.7-11.3-12.1-13.6-86.8-2.3c-188.1,27.2-612.5,20.4-766.8-11.3c-205-45.3-149.5-58.9,65.1-18.1
		c262.8,52.1,491.9,45.3,798.2-22.7c147.1-34,320.7-72.6,390.6-86.2c139.9-29.5,207.4-68,77.2-45.3c-45.8,9.1-207.4,45.3-359.3,81.6
		c-168.8,40.8-366.5,72.6-506.4,77.1c-207.4,11.3-265.3,2.3-614.9-79.4c-352.1-81.6-373.8-90.7-253.2-90.7
		c82-2.3,156.7-15.9,188.1-38.5c31.3-20.4,62.7-29.5,69.9-22.7c7.2,6.8-4.8,18.1-26.5,27.2c-53.1,18.1-48.2,54.4,7.2,54.4
		c48.2,0,115.7-61.2,91.6-83.9c-9.6-6.8-2.4-29.5,14.5-47.6c24.1-29.5,14.5-34-84.4-20.4c-137.4,18.1-460.6,131.5-434.1,154.2
		c9.6,9.1,43.4,20.4,77.2,27.2c33.8,4.5,9.6,6.8-53.1,0c-103.7-6.8-127.8,2.3-301.4,113.4c-103.7,65.8-185.7,129.2-180.9,140.6
		c4.8,11.3-12.1,27.2-36.2,36.3c-41,15.9-41,18.1,0,18.1c21.7,2.3,41,13.6,41,27.2c0,13.6,16.9,20.4,36.2,11.3
		c48.2-15.9,45.8-6.8-12.1,43.1c-48.2,40.8-50.6,40.8-33.8-2.3c12.1-34,9.6-38.5-14.5-15.9c-41,36.3-4.8,79.4,53.1,61.2
		c33.8-9.1,43.4-6.8,31.3,13.6c-9.6,13.6,19.3,9.1,62.7-13.6c74.8-34,79.6-34,48.2-2.3c-28.9,34-26.5,38.5,7.2,38.5
		c21.7,0,38.6-9.1,38.6-18.1c0-11.3,16.9-20.4,36.2-20.4s36.2,9.1,36.2,18.1c0,11.3,16.9,11.3,41,4.5c28.9-11.3,33.8-6.8,19.3,15.9
		c-14.5,20.4-67.5,24.9-214.6,15.9c-197.7-11.3-400.3,20.4-455.8,72.6C3261.5-1540.7,3280.8-1540.7,3367.6-1572.5z M6835.2-1567.9
		c-7.2-11.3-48.2-31.7-91.6-45.3c-144.7-45.3-658.3-45.3-629.4,0c12.1,18.1,89.2,22.7,248.4,15.9c147.1-6.8,272.5-2.3,340,15.9
		C6844.8-1545.3,6852.1-1543,6835.2-1567.9z M5130.3-1608.7c4.8-20.4-19.3-29.5-79.6-29.5c-79.6,0-86.8,4.5-60.3,34
		C5026.6-1563.4,5113.4-1567.9,5130.3-1608.7z M3408.6-1654.1c9.6-9.1,41-18.1,69.9-18.1c41,0,53.1-13.6,55.5-61.2
		c2.4-81.6-12.1-79.4-110.9,15.9c-45.8,43.1-69.9,79.4-57.9,79.4C3379.6-1638.2,3398.9-1645,3408.6-1654.1z M6702.6-1717.6
		c-89.2-86.2-144.7-102-132.6-38.5c4.8,20.4,9.6,52.1,9.6,68c2.4,13.6,19.3,27.2,43.4,27.2c33.8,0,33.8-4.5-4.8-45.3
		c-62.7-65.8-7.2-54.4,60.3,11.3c31.3,31.7,67.5,56.7,82,56.7C6772.5-1638.2,6748.4-1674.5,6702.6-1717.6z M6225.1-1719.8
		c-4.8-22.7-9.6-54.4-9.6-68c-2.4-13.6-55.5-22.7-132.6-22.7c-69.9,2.3-127.8-4.5-127.8-13.6c0-11.3-24.1-18.1-53.1-15.9
		c-53.1,0-53.1,2.3-7.2,20.4c26.5,11.3,38.6,20.4,24.1,20.4c-12.1,2.3-7.2,13.6,12.1,27.2c26.5,18.1,21.7,20.4-24.1,6.8
		c-33.8-9.1-62.7-24.9-67.5-34c-4.8-11.3-26.5-20.4-48.2-20.4c-28.9,0-21.7,13.6,26.5,40.8c36.2,22.7,60.3,47.6,53.1,54.4
		c-7.2,6.8,12.1,13.6,45.8,13.6s60.3-6.8,57.9-15.9c-7.2-63.5,9.6-70.3,74.8-20.4c36.2,29.5,65.1,56.7,60.3,63.5
		c-2.4,6.8,24.1,11.3,57.9,9.1C6217.9-1676.8,6229.9-1688.1,6225.1-1719.8z M5653.6-1762.9c130.2-38.5,79.6-40.8-72.3-2.3
		c-65.1,18.1-98.9,31.7-72.3,31.7S5600.5-1744.8,5653.6-1762.9z M4978.4-2069c-36.2-36.3-36.2-49.9-12.1-79.4
		c16.9-18.1,43.4-34,57.9-31.7c16.9,0,14.5,4.5-2.4,13.6c-41,13.6-41,86.2,0,117.9c24.1,18.1,41,15.9,60.3-2.3
		c38.6-36.3,36.2-102,0-115.6c-19.3-6.8-14.5-13.6,12.1-13.6c21.7-2.3,41,11.3,41,27.2c0,13.6,12.1,9.1,26.5-13.6
		c36.2-58.9-16.9-120.2-69.9-79.4c-31.3,24.9-33.8,22.7-26.5-2.3c21.7-58.9,69.9-52.1,135,18.1c36.2,38.5,84.4,70.3,106.1,70.3
		c53.1,0,103.7-58.9,84.4-102c-16.9-40.8-144.7-47.6-127.8-4.5c4.8,13.6,28.9,24.9,50.6,24.9c21.7-2.3,38.6,4.5,38.6,15.9
		s-24.1,20.4-55.5,20.4c-38.6,0-62.7-20.4-82-65.8c-24.1-63.5-33.8-68-147.1-65.8c-77.2,0-135,11.3-151.9,31.7
		c-38.6,43.1-9.6,68,36.2,34c41-31.7,86.8-15.9,84.4,27.2c0,20.4-4.8,20.4-12.1,0c-19.3-45.3-82-6.8-82,49.9
		c0,29.5-26.5,72.6-60.3,97.5c-67.5,49.9-48.2,68,69.9,70.3C5019.4-2023.7,5021.8-2023.7,4978.4-2069z M5316-2057.7
		c135-29.5,219.4-86.2,192.9-127c-7.2-9.1-45.8,0-86.8,18.1c-43.4,20.4-101.3,29.5-142.3,20.4c-57.9-9.1-79.6,0-120.6,54.4
		C5099-2012.3,5108.6-2010.1,5316-2057.7z M4848.2-2091.7c74.8-38.5,53.1-56.7-67.5-58.9c-62.7-2.3-118.2-15.9-123-29.5
		c-14.5-40.8-53.1-27.2-53.1,20.4C4604.6-2082.6,4746.9-2041.8,4848.2-2091.7z M4891.6-2189.2c19.3-24.9,12.1-29.5-43.4-20.4
		c-38.6,4.5-77.2-2.3-86.8-18.1c-12.1-20.4-2.4-22.7,33.8-11.3s50.6,4.5,50.6-20.4c0-45.3-94-47.6-110.9-2.3
		C4698.7-2175.6,4826.5-2116.6,4891.6-2189.2z M5651.2-2209.6l-45.8-49.9l60.3,38.5c60.3,40.8,344.8,56.7,301.4,18.1
		c-33.8-27.2-325.5-115.6-388.2-115.6c-43.4,0-48.2,9.1-38.6,63.5c14.5,68,43.4,95.2,110.9,95.2
		C5697-2159.7,5697-2159.7,5651.2-2209.6z M4727.6-2309.3c14.5-18.1,9.6-31.7-16.9-40.8c-57.9-20.4-101.3-13.6-45.8,9.1
		c26.5,11.3,33.8,20.4,19.3,20.4c-16.9,2.3-31.3,27.2-31.3,54.4c0,74.8,33.8,99.8,43.4,34
		C4701.1-2259.5,4715.6-2295.7,4727.6-2309.3z M5453.5-2298c-21.7-31.7-19.3-43.1,14.5-49.9c31.3-9.1,26.5-11.3-12.1-13.6
		c-62.7-2.3-96.5,36.3-57.9,72.6c14.5,13.6,26.5,45.3,26.5,72.6c2.4,43.1,2.4,43.1,28.9,2.3
		C5472.7-2245.9,5472.7-2268.5,5453.5-2298z M4918.1-2381.9c-38.6-13.6-144.7,15.9-144.7,38.5c0,11.3,19.3,24.9,43.4,31.7
		C4862.7-2302.5,4961.5-2368.3,4918.1-2381.9z M5325.6-2354.7c-28.9-34-142.3-43.1-142.3-13.6c0,38.5,53.1,65.8,110.9,54.4
		C5340.1-2320.7,5347.4-2329.7,5325.6-2354.7z"/>
	<path class="st0" d="M7124.6-799.3c-26.5-11.3-110.9-36.3-185.7-58.9c-77.2-20.4-159.2-52.1-180.9-70.3c-41-31.7-41-31.7,4.8-15.9
		c26.5,9.1,132.6,43.1,236.3,77.1c103.7,34,195.3,68,202.6,77.1C7223.4-772.1,7182.4-776.6,7124.6-799.3z"/>
	<path class="st0" d="M7100.4-28.4c-9.6-13.6,0-43.1,21.7-65.8s31.3-47.6,21.7-54.4c-7.2-9.1-2.4-15.9,12.1-15.9
		c31.3,0,21.7,106.6-12.1,138.3C7124.6-8,7112.5-10.3,7100.4-28.4z"/>
	<path class="st0" d="M3748.6-1758.4l72.3-49.9l-108.5-13.6l-108.5-13.6l127.8-2.3c123-4.5,125.4-2.3,101.3,47.6l-26.5,49.9
		l48.2-52.1c50.6-56.7,86.8-20.4,41,45.3c-19.3,29.5-33.8,31.7-69.9,13.6c-31.3-15.9-53.1-15.9-72.3,2.3
		c-14.5,13.6-38.6,24.9-50.6,24.9C3688.3-1706.2,3707.6-1731.2,3748.6-1758.4z"/>
	<path class="st0" d="M4973.6-1785.6c-4.8-18.1-2.4-45.3,7.2-61.2c12.1-15.9,21.7-36.3,21.7-45.3c0-11.3,7.2-18.1,19.3-18.1
		c9.6,0,26.5,0,38.6,0s21.7,31.7,19.3,72.6c-4.8,49.9-16.9,72.6-48.2,77.1C5007.3-1758.4,4980.8-1769.7,4973.6-1785.6z"/>
	<path class="st0" d="M4122.4-1796.9c0-18.1-33.8-24.9-96.5-18.1c-53.1,4.5-96.5,0-96.5-9.1c0-11.3,55.5-18.1,120.6-18.1
		c113.3,0,151.9,24.9,96.5,56.7C4134.4-1778.8,4122.4-1783.3,4122.4-1796.9z"/>
	<path class="st0" d="M4816.8-1787.9c-9.6-6.8-9.6-29.5-2.4-49.9c9.6-34,7.2-34-24.1,0c-36.2,43.1-69.9,31.7-48.2-18.1
		c14.5-36.3,94-43.1,115.7-9.1C4874.7-1837.7,4838.5-1767.5,4816.8-1787.9z"/>
	<path class="st0" d="M5135.1-1819.6c0-24.9,12.1-45.3,24.1-45.3c14.5,0,24.1,13.6,24.1,29.5c0,20.4,4.8,20.4,21.7-2.3
		c14.5-22.7,24.1-20.4,33.8,15.9c9.6,38.5,2.4,47.6-45.8,47.6C5152-1774.3,5135.1-1787.9,5135.1-1819.6z"/>
	<path class="st0" d="M5335.3-1790.1c-36.2-6.8-55.5-27.2-55.5-54.4c0-65.8,101.3-47.6,110.9,20.4c4.8,27.2,7.2,47.6,2.4,47.6
		C5390.8-1778.8,5364.2-1785.6,5335.3-1790.1z"/>
	<path class="st0" d="M4595-1837.7c-19.3-29.5,19.3-70.3,57.9-65.8c36.2,4.5,48.2,20.4,48.2,61.2
		C4701.1-1815.1,4611.9-1810.5,4595-1837.7z"/>
	<path class="st0" d="M3724.5-1887.6c67.5-11.3,154.3-31.7,192.9-43.1c60.3-18.1,62.7-20.4,19.3-22.7c-38.6-2.3-55.5-15.9-55.5-49.9
		c0-72.6,101.3-47.6,113.3,27.2c9.6,74.8-21.7,88.4-233.9,99.8l-156.7,9.1L3724.5-1887.6z"/>
	<path class="st0" d="M4445.5-1899c9.6-29.5,4.8-29.5-33.8-11.3c-62.7,31.7-72.3,29.5-72.3-22.7c0-24.9,12.1-45.3,24.1-45.3
		c14.5,0,24.1,9.1,24.1,20.4s21.7,15.9,48.2,9.1c36.2-9.1,48.2,0,48.2,36.3c0,24.9-12.1,47.6-26.5,47.6S4435.8-1880.8,4445.5-1899z"
		/>
	<path class="st0" d="M5713.9-1933c0-49.9,36.2-61.2,55.5-15.9c7.2,13.6,14.5,6.8,14.5-18.1c2.4-38.5,7.2-38.5,26.5-11.3
		c41,58.9,26.5,90.7-36.2,90.7C5730.8-1887.6,5713.9-1899,5713.9-1933z"/>
	<path class="st0" d="M4189.9-1921.6c-9.6-9.1,0-40.8,19.3-68c41-58.9,14.5-88.4-53.1-63.5c-28.9,9.1-36.2,6.8-24.1-11.3
		c21.7-36.3,74.8-34,106.1,2.3C4264.6-2030.5,4218.8-1894.4,4189.9-1921.6z"/>
	<path class="st0" d="M4059.7-1967c-19.3-47.6,7.2-77.1,60.3-63.5c31.3,6.8,41,24.9,33.8,54.4
		C4139.2-1926.2,4079-1919.4,4059.7-1967z"/>
	<path class="st0" d="M6070.8-1948.8c-24.1-4.5-43.4-24.9-43.4-43.1c0-45.3,69.9-65.8,103.7-31.7c24.1,22.7,19.3,27.2-12.1,15.9
		c-24.1-9.1-43.4-4.5-43.4,6.8c0,13.6,16.9,22.7,36.2,22.7c19.3,0,36.2,11.3,36.2,22.7C6147.9-1933,6140.7-1930.7,6070.8-1948.8z"/>
	<path class="st0" d="M4327.3-2080.3c-53.1-15.9-74.8-29.5-48.2-29.5c26.5,0,86.8,13.6,132.6,29.5
		C4520.2-2041.8,4452.7-2039.5,4327.3-2080.3z"/>
	<path class="st0" d="M3712.4,481.7c0-27.2,31.3-34,139.9-34c123,0,197.7-24.9,197.7-68c0-22.7-205,4.5-221.8,31.7
		c-12.1,15.9-19.3,15.9-19.3-6.8c0-18.1-16.9-24.9-48.2-18.1c-36.2,9.1-48.2,0-48.2-31.7c0-38.5,19.3-43.1,142.3-43.1
		c79.6,0,159.2,6.8,180.9,13.6c41,15.9,53.1,99.8,14.5,99.8c-12.1,0-24.1,20.4-24.1,45.3c0,40.8-16.9,45.3-156.7,45.3
		C3746.2,515.7,3712.4,508.9,3712.4,481.7z"/>
	<path class="st0" d="M4332.2,499.9c-9.6-6.8-16.9-27.2-16.9-45.3c0-22.7,94-29.5,470.2-29.5c453.3,0,470.2,2.3,470.2,45.3
		s-16.9,45.3-453.3,45.3C4551.6,515.7,4339.4,508.9,4332.2,499.9z"/>
	<path class="st0" d="M5817.6,470.4c-236.3-52.1-395.5-274.3-393.1-553.2c2.4-210.9,130.2-433.1,265.3-460.3
		c38.6-6.8,74.8-24.9,82-43.1c19.3-47.6,448.5-45.3,448.5,2.3c0,18.1-12.1,34-26.5,34c-12.1,0-16.9-9.1-9.6-22.7
		c9.6-13.6-55.5-22.7-178.4-22.7c-106.1,0-200.1,11.3-207.4,22.7c-9.6,13.6,50.6,22.7,166.4,22.7c98.9,0,195.3,6.8,217,13.6
		c50.6,18.1,50.6,97.5,0,115.6c-19.3,6.8-31.3,24.9-24.1,40.8c7.2,20.4-53.1,52.1-183.3,95.2c-173.6,56.7-241.1,99.8-205,133.8
		c4.8,6.8,101.3-22.7,212.2-63.5c159.2-61.2,205-88.4,217-131.5c16.9-56.7,16.9-56.7,19.3,6.8c2.4,34-7.2,61.2-21.7,61.2
		c-12.1,0-24.1,11.3-24.1,22.7c0,13.6,16.9,22.7,36.2,22.7c53.1,0,43.4,56.7-16.9,97.5l-55.5,36.3h55.5
		c67.5,2.3,72.3,81.6,4.8,115.6c-26.5,13.6-48.2,38.5-48.2,56.7c0,15.9-19.3,36.3-41,40.8c-24.1,6.8-2.4,11.3,48.2,13.6l89.2,2.3
		V255c0,108.8-4.8,124.7-48.2,124.7c-36.2,0-48.2,15.9-48.2,56.7c0,54.4-7.2,56.7-125.4,54.4
		C5952.6,488.5,5858.6,481.7,5817.6,470.4z M6070.8,341.1c4.8-38.5-4.8-52.1-36.2-52.1c-24.1-2.3-69.9-15.9-101.3-31.7l-55.5-29.5
		l55.5-13.6c31.3-9.1,94-15.9,137.4-15.9c72.3,0,77.2,4.5,77.2,79.4c0,54.4,12.1,79.4,36.2,79.4c26.5,0,36.2-27.2,36.2-102V153
		h-118.2c-62.7,0-149.5,11.3-192.9,24.9c-60.3,20.4-86.8,18.1-127.8-6.8c-48.2-31.7-53.1-54.4-60.3-297
		c-4.8-158.7,2.4-267.5,16.9-276.6c38.6-22.7,26.5-58.9-16.9-52.1c-45.8,6.8-127.8,88.4-168.8,165.5
		c-45.8,81.6-55.5,204.1-31.3,328.8c48.2,233.5,205,367.3,422,358.2C6046.7,391,6063.5,384.2,6070.8,341.1z M6012.9,55.5
		c106.1-40.8,195.3-86.2,202.6-102c4.8-15.9,0-27.2-12.1-27.2c-53.1,0-426.8,149.6-436.5,176.8
		C5752.5,143.9,5805.5,134.8,6012.9,55.5z M6003.3-87.4c192.9-72.6,270.1-122.4,188.1-122.4c-69.9,0-429.2,145.1-429.2,172.3
		C5762.1,3.3,5754.9,5.6,6003.3-87.4z M6000.8-370.8c125.4-45.3,195.3-81.6,195.3-104.3c0-18.1-14.5-29.5-28.9-22.7
		c-16.9,4.5-115.7,38.5-217,74.8c-103.7,36.3-188.1,77.1-188.1,93C5762.1-289.2,5781.4-291.4,6000.8-370.8z"/>
	<path class="st0" d="M4380.4,384.2c-48.2-4.5-65.1-18.1-60.3-45.3c7.2-34,53.1-36.3,422-29.5c424.4,6.8,561.9-13.6,561.9-81.6
		c0-34-41-38.5-53.1-6.8c-4.8,11.3-173.6,22.7-405.1,22.7c-557,2.3-530.5,4.5-530.5-34c0-29.5,72.3-34,506.4-34h506.4V230
		c0,40.8-16.9,58.9-53.1,65.8c-53.1,9.1-53.1,9.1-4.8,13.6c28.9,0,57.9,20.4,62.7,43.1c9.6,36.3-21.7,38.5-436.5,38.5
		C4650.5,391,4416.6,388.8,4380.4,384.2z"/>
	<path class="st0" d="M3784.8,273.1c0-15.9-16.9-29.5-36.2-29.5c-19.3,0-36.2-18.1-36.2-38.5c0-34,21.7-40.8,125.4-38.5
		c84.4,2.3,96.5,0,38.6-6.8c-50.6-4.5-91.6-18.1-91.6-31.7c0-11.3-16.9-20.4-36.2-20.4c-19.3,0-36.2-15.9-36.2-34
		c0-24.9,28.9-34,127.8-34c171.2,0,233.9,20.4,233.9,70.3c0,24.9-16.9,43.1-36.2,43.1s-36.2,11.3-36.2,22.7
		c0,13.6,16.9,22.7,36.2,22.7s36.2,20.4,36.2,45.3c0,29.5-14.5,45.3-41,43.1c-26.5,0-31.3-6.8-12.1-13.6
		c14.5-4.5,28.9-18.1,28.9-29.5c0-24.9-226.7,2.3-246,31.7C3792,293.5,3784.8,291.3,3784.8,273.1z M4050,109.9
		c0-18.1-217-6.8-238.7,11.3c-4.8,4.5,45.8,9.1,113.3,9.1C3994.6,130.3,4050,121.2,4050,109.9z"/>
	<path class="st0" d="M4387.6,109.9c-33.8-9.1-62.7-34-67.5-54.4c-7.2-36.3,31.3-38.5,446.1-38.5c501.6,0,561.9,9.1,561.9,70.3
		c0,40.8-24.1,43.1-438.9,40.8C4645.6,125.7,4421.4,118.9,4387.6,109.9z M5033.9,91.7c-101.3-4.5-274.9-4.5-385.8,0
		c-110.9,2.3-26.5,6.8,185.7,6.8S5135.1,94,5033.9,91.7z"/>
	<path class="st0" d="M3760.7-5.8c0-11.3-14.5-22.7-28.9-22.7c-24.1,0-31.3-65.8-31.3-249.4s7.2-249.4,31.3-249.4
		c14.5,0,28.9-9.1,28.9-22.7c0-13.6,65.1-22.7,144.7-22.7H4050v235.8c0,167.8-9.6,240.3-28.9,247.1c-24.1,9.1-24.1,13.6,0,13.6
		c14.5,2.3,28.9,22.7,28.9,47.6c0,40.8-16.9,45.3-144.7,45.3C3825.8,16.9,3760.7,7.8,3760.7-5.8z M4025.9-23.9
		c0-9.1-41-13.6-89.2-9.1c-156.7,13.6-168.8,22.7-36.2,24.9C3968-8,4025.9-14.8,4025.9-23.9z M3924.6-257.4
		c4.8-106.6-2.4-156.4-26.5-176.8c-67.5-52.1-106.1-6.8-110.9,136c-4.8,145.1,24.1,208.6,91.6,197.3
		C3907.7-107.8,3919.8-141.8,3924.6-257.4z M4025.9-334.5v-215.4l-125.4,4.5l-127.8,4.5l115.7,6.8l113.3,9.1v204.1
		c0,111.1,4.8,201.8,12.1,201.8C4021.1-119.1,4025.9-216.6,4025.9-334.5z"/>
	<path class="st0" d="M4435.8-30.7c0-11.3-24.1-20.4-53.1-15.9c-36.2,4.5-57.9-6.8-62.7-31.7c-7.2-36.3,12.1-40.8,161.6-40.8
		c98.9,0,171.2-9.1,171.2-22.7c0-11.3-48.2-22.7-108.5-22.7c-79.6,0-108.5-9.1-108.5-34s28.9-34,108.5-34h108.5v-147.4v-147.4h139.9
		h137.4l-7.2,170l-9.6,170h195.3c113.3,0,195.3-9.1,195.3-22.7c0-13.6-67.5-22.7-156.7-22.7h-156.7v-158.7v-158.7H4853
		c-96.5,0-130.2-6.8-110.9-24.9c12.1-11.3,77.2-20.4,142.3-15.9l118.2,6.8l7.2,154.2l7.2,151.9h151.9c168.8,0,183.3,6.8,166.4,70.3
		c-12.1,38.5-36.2,43.1-214.6,43.1c-118.2,0-202.6,9.1-202.6,22.7s72.3,22.7,168.8,22.7c132.6,0,168.8,6.8,168.8,34
		s-67.5,34-402.7,40.8l-405.1,6.8l431.6,4.5c419.6,4.5,429.2,4.5,417.2-40.8c-7.2-24.9-2.4-45.3,9.6-45.3
		c12.1,0,21.7,24.9,21.7,56.7v56.7H4882C4582.9-5.8,4435.8-14.8,4435.8-30.7z M4848.2-121.4c21.7-34-2.4-297-28.9-326.5
		c-43.4-43.1-89.2,45.3-98.9,195c-7.2,142.8-7.2,147.4,50.6,151.9C4804.8-98.7,4838.5-107.8,4848.2-121.4z"/>
	<path class="st0" d="M4074.1-402.5c0-74.8,9.6-102,36.2-102c19.3,0,36.2-15.9,36.2-34c0-27.2,31.3-34,139.9-34h137.4l-7.2,102
		c-7.2,68-21.7,102-43.4,102c-19.3,0-33.8,15.9-33.8,34c0,27.2-31.3,34-132.6,34h-132.6V-402.5z M4387.6-470.6
		c0-79.4,0-79.4-108.5-79.4c-60.3,0-108.5,11.3-108.5,22.7c0,13.6,38.6,22.7,84.4,22.7c74.8,0,84.4,6.8,84.4,56.7
		c0,31.7,12.1,56.7,24.1,56.7C4378-391.2,4387.6-427.5,4387.6-470.6z"/>
	<path class="st0" d="M5038.7-425.2c0-74.8,9.6-102,36.2-102c19.3,0,36.2-15.9,36.2-34c0-27.2,31.3-34,132.6-34h132.6v102
		c0,86.2-7.2,102-48.2,102c-31.3,0-43.4,11.3-33.8,34c12.1,27.2-9.6,34-120.6,34h-135V-425.2z M5352.2-493.2
		c0-79.4,0-79.4-108.5-79.4c-60.3,0-108.5,11.3-108.5,22.7c0,13.6,38.6,22.7,84.4,22.7c79.6,0,84.4,4.5,69.9,56.7
		c-12.1,43.1-4.8,56.7,24.1,56.7S5352.2-436.5,5352.2-493.2z"/>
	<path class="st0" d="M6268.5-447.9c0-74.8,9.6-102,36.2-102c19.3,0,36.2-15.9,36.2-34c0-24.9,28.9-34,120.6-34H6582v102
		c0,74.8-9.6,102-36.2,102c-19.3,0-36.2-9.1-36.2-22.7c0-11.3,12.1-22.7,24.1-22.7c14.5,0,24.1-29.5,24.1-68c0-63.5-4.8-68-96.5-68
		c-53.1,0-96.5,11.3-96.5,22.7c0,13.6,26.5,22.7,60.3,22.7c55.5,0,60.3,9.1,60.3,102v102H6377h-108.5V-447.9z"/>
	<path class="st0" d="M3085.5,1808.1c0-77.1,53.1-111.1,108.5-68c53.1,40.8,89.2,6.8,57.9-52.1c-45.8-81.6-118.2-111.1-118.2-49.9
		c0,58.9-96.5,36.3-168.8-38.5c-38.6-38.5-79.6-63.5-89.2-54.4c-9.6,9.1,0,27.2,24.1,38.5c55.5,29.5,53.1,65.8-4.8,65.8
		c-41,0-74.8-40.8-74.8-90.7c0-27.2,164-181.4,190.5-181.4c41,0,101.3,72.6,94,111.1c-4.8,20.4-28.9,36.3-55.5,36.3
		c-36.2,0-45.8-13.6-41-52.1c2.4-34-4.8-49.9-24.1-45.3c-55.5,18.1-45.8,65.8,31.3,136c67.5,63.5,82,68,89.2,36.3
		c12.1-61.2,113.3-49.9,171.2,18.1c62.7,74.8,62.7,104.3,0,158.7c-41,34-55.5,36.3-98.9,11.3c-26.5-15.9-53.1-22.7-60.3-15.9
		c-7.2,4.5,9.6,24.9,38.6,40.8c67.5,38.5,65.1,63.5-9.6,63.5C3095.1,1876.1,3085.5,1864.8,3085.5,1808.1z"/>
	<path class="st0" d="M7158.3,1656.2c-2.4-11.3-2.4-24.9,0-34c0-11.3-14.5-18.1-33.8-18.1c-19.3,0-36.2-20.4-36.2-45.3
		c0-31.7,14.5-45.3,43.4-40.8c24.1,4.5,41-6.8,41-27.2c0-52.1-69.9-40.8-96.5,18.1s-50.6,63.5-69.9,15.9
		c-33.8-88.4,77.2-156.4,151.9-93c57.9,49.9,67.5,45.3,108.5-24.9c28.9-56.7,28.9-68-4.8-97.5c-33.8-29.5-36.2-27.2-21.7,4.5
		c14.5,38.5-36.2,97.5-62.7,70.3c-28.9-24.9-19.3-115.6,14.5-127c45.8-15.9,161.6,56.7,161.6,99.8c0,22.7-31.3,68-67.5,104.3
		c-38.6,34-74.8,88.4-84.4,120.2c-14.5,54.4-12.1,54.4,19.3,11.3c19.3-24.9,62.7-72.6,96.5-108.8c33.8-34,60.3-72.6,60.3-83.9
		c0-13.6,14.5-22.7,33.8-22.7c57.9,0,14.5,113.4-48.2,127c-38.6,9.1-57.9,29.5-57.9,63.5C7305.4,1626.7,7165.5,1706.1,7158.3,1656.2
		z"/>
	<path class="st0" d="M3389.3,1604c-166.4-29.5-246-183.7-103.7-199.5c72.3-9.1,115.7,47.6,67.5,93c-21.7,20.4-31.3,13.6-41-24.9
		c-16.9-54.4-57.9-68-57.9-18.1c0,47.6,65.1,88.4,161.6,102c48.2,6.8,91.6,27.2,98.9,43.1C3524.3,1629,3526.7,1629,3389.3,1604z"/>
	<path class="st0" d="M6685.7,1400c356.9-315.2,564.3-632.6,706.5-1077c60.3-185.9,67.5-238.1,67.5-589.5
		c0-333.3-7.2-410.4-55.5-578.2c-118.2-414.9-342.4-770.9-670.4-1067.9c-639-580.4-1511.9-782.2-2365.6-551
		c-839.2,229-1480.6,875.2-1683.2,1698.2c-67.5,269.8-62.7,750.5,12.1,1015.8c57.9,208.6,164,473.9,243.6,600.8
		c43.4,68,45.8,81.6,12.1,140.6c-19.3,34-91.6,95.2-161.6,133.8c-118.2,63.5-132.6,65.8-180.9,34c-67.5-40.8-72.3-9.1-9.6,45.3
		c26.5,22.7,53.1,63.5,60.3,93c14.5,56.7,91.6,93,135,68c16.9-9.1,19.3-43.1,12.1-83.9c-16.9-63.5-12.1-65.8,50.6-58.9
		c103.7,11.3,98.9,70.3-12.1,151.9c-79.6,61.2-103.7,68-156.7,47.6c-50.6-18.1-62.7-36.3-62.7-102c0-43.1-7.2-77.1-16.9-77.1
		c-12.1,2.3-38.6,2.3-60.3,0c-57.9-2.3-55.5-97.5,2.4-147.4c41-36.3,45.8-34,77.2,11.3l33.8,47.6l113.3-63.5
		c130.2-74.8,144.7-127,65.1-222.2c-50.6-58.9-118.2-79.4-118.2-34c0,11.3-9.6,15.9-24.1,9.1c-38.6-22.7-28.9-95.2,14.5-111.1
		c21.7-9.1,65.1,2.3,96.5,20.4c72.3,43.1,72.3,40.8,0-95.2c-33.8-61.2-89.2-201.8-123-312.9c-89.2-276.6-110.9-768.6-50.6-1056.6
		c190.5-879.7,877.7-1573.5,1794.1-1807c209.8-52.1,277.3-58.9,631.8-58.9c328,2.3,429.2,9.1,583.6,49.9
		c718.6,185.9,1292.5,621.2,1608.4,1219.8c188.1,360.5,253.2,637.1,250.8,1052c-2.4,358.2-67.5,634.8-217,938.7
		c-50.6,99.8-91.6,188.2-91.6,195s-14.5,27.2-28.9,45.3c-16.9,18.1-79.6,97.5-139.9,174.6c-115.7,145.1-479.9,482.9-523.3,482.9
		C6490.4,1581.4,6572.3,1499.7,6685.7,1400z"/>
	<path class="st0" d="M7440.4,1245.8c-4.8-9.1-2.4-31.7,12.1-49.9c36.2-56.7,24.1-77.1-24.1-36.3c-55.5,47.6-108.5,27.2-91.6-31.7
		c9.6-31.7-2.4-38.5-60.3-36.3c-106.1,4.5-132.6-47.6-79.6-158.7c24.1-47.6,48.2-93,50.6-95.2c2.4-4.5,38.6-2.3,79.6,6.8
		c50.6,9.1,74.8,29.5,74.8,56.7c0,40.8,2.4,40.8,72.3,4.5c67.5-36.3,72.3-36.3,123,9.1c41,40.8,45.8,56.7,24.1,97.5
		c-16.9,24.9-19.3,47.6-7.2,47.6c12.1,0,36.2-27.2,53.1-61.2l28.9-63.5l21.7,54.4c26.5,63.5-4.8,93-91.6,93
		c-67.5,0-89.2-31.7-55.5-88.4c43.4-79.4-26.5-83.9-101.3-4.5c-79.6,83.9-84.4,115.6-21.7,115.6s82,34,50.6,90.7
		c-19.3,34-19.3,45.3,2.4,45.3c14.5,0,31.3-20.4,38.6-45.3c7.2-24.9,21.7-45.3,31.3-45.3c26.5,0,50.6,68,33.8,93
		C7590,1268.5,7457.3,1270.7,7440.4,1245.8z M7315.1,987.3c48.2-88.4,48.2-99.8,2.4-117.9c-19.3-6.8-33.8,0-28.9,15.9
		c2.4,15.9-7.2,24.9-24.1,22.7c-41-6.8-57.9,54.4-19.3,70.3c19.3,6.8,28.9,27.2,21.7,47.6c-7.2,18.1-24.1,27.2-36.2,20.4
		c-12.1-6.8-14.5-22.7-7.2-36.3c9.6-15.9,4.8-18.1-12.1-9.1c-21.7,13.6-21.7,24.9,0,49.9C7245.1,1089.3,7269.2,1078,7315.1,987.3z"
		/>
	<path class="st0" d="M2393.4,1003.2c-72.3-47.6-110.9-170-82-247.1c31.3-72.6,57.9-74.8,108.5-6.8c38.6,49.9,38.6,49.9,24.1-24.9
		c-14.5-72.6-12.1-74.8,55.5-58.9c36.2,9.1,74.8,20.4,86.8,24.9c24.1,13.6,21.7,93-7.2,108.8c-36.2,20.4-28.9,93,12.1,124.7
		c43.4,34,48.2-2.3,7.2-40.8c-36.2-34-9.6-58.9,41-43.1c48.2,18.1,45.8,104.3-4.8,122.4c-60.3,22.7-130.2-72.6-110.9-154.2
		c7.2-40.8,2.4-65.8-14.5-65.8c-14.5,0-26.5,15.9-26.5,34c0,40.8-86.8,45.3-103.7,6.8c-4.8-15.9-19.3-22.7-28.9-13.6
		c-24.1,20.4,77.2,215.4,120.6,231.3c48.2,15.9,45.8-9.1-4.8-43.1c-24.1-15.9-31.3-38.5-19.3-56.7c14.5-22.7,26.5-20.4,53.1,11.3
		C2576.7,1014.5,2504.3,1075.7,2393.4,1003.2z"/>
	<path class="st0" d="M7725,819.5c-14.5-6.8-21.7-38.5-16.9-72.6l12.1-61.2l-48.2,54.4l-48.2,54.4l-26.5-47.6
		c-41-72.6-31.3-156.4,28.9-217.7c57.9-61.2,185.7-104.3,185.7-61.2c0,13.6-12.1,24.9-24.1,24.9c-45.8,0-144.7,108.8-144.7,158.7
		c0,38.5,9.6,43.1,60.3,31.7c53.1-11.3,60.3-6.8,60.3,49.9c0,52.1,4.8,58.9,24.1,31.7c12.1-18.1,24.1-65.8,24.1-104.3
		c0-93,48.2-151.9,123-140.6c43.4,4.5,57.9,20.4,57.9,61.2c0,29.5-14.5,58.9-33.8,65.8c-24.1,6.8-28.9-2.3-19.3-38.5
		c7.2-24.9,2.4-52.1-7.2-58.9c-33.8-20.4-72.3,65.8-55.5,122.4c9.6,34-4.8,68-41,104.3C7778,835.4,7770.8,837.7,7725,819.5z"/>
	<path class="st0" d="M2038.9,576.9c-77.2-95.2-103.7-206.3-60.3-256.2c28.9-31.7,33.8-31.7,62.7,4.5c16.9,22.7,31.3,61.2,31.3,86.2
		c0,27.2,21.7,81.6,48.2,122.4s48.2,83.9,48.2,95.2C2169.1,676.7,2096.8,647.2,2038.9,576.9z"/>
	<path class="st0" d="M2207.7,563.3c-28.9-29.5-38.6-61.2-26.5-93c9.6-31.7,2.4-63.5-24.1-90.7c-48.2-49.9-26.5-158.7,33.8-158.7
		c26.5,0,50.6,31.7,67.5,97.5c31.3,106.6,113.3,217.7,139.9,192.7c26.5-24.9-43.4-274.3-79.6-285.7c-26.5-6.8-26.5-2.3-2.4,36.3
		c33.8,49.9,19.3,86.2-24.1,61.2c-14.5-6.8-26.5-38.5-26.5-70.3c0-43.1,12.1-54.4,57.9-54.4c84.4,0,123,58.9,123,199.5
		c0,95.2-9.6,129.2-43.4,149.6c-55.5,31.7-96.5-15.9-156.7-172.3c-21.7-61.2-50.6-108.8-60.3-108.8c-12.1,0-14.5,18.1-4.8,40.8
		c9.6,20.4,24.1,63.5,28.9,95.2s21.7,79.4,36.2,106.6C2284.9,581.5,2260.8,617.8,2207.7,563.3z"/>
	<path class="st0" d="M7884.1,452.2c0-13.6,12.1-31.7,24.1-38.5c33.8-20.4,31.3-108.8-4.8-142.8c-43.4-40.8-65.1-34-94,34
		l-24.1,61.2l-50.6-47.6c-31.3-29.5-43.4-63.5-33.8-86.2c12.1-31.7,33.8-36.3,130.2-22.7c62.7,9.1,127.8,27.2,144.7,38.5
		c48.2,38.5,33.8,120.2-31.3,176.8C7910.7,454.5,7884.1,465.8,7884.1,452.2z"/>
	<path class="st0" d="M2065.4-159.9l-113.3-108.8l127.8-117.9l127.8-117.9l118.2,113.4L2444-277.8l-118.2,113.4
		c-65.1,63.5-125.4,113.4-132.6,113.4C2186-51.1,2128.1-101,2065.4-159.9z M2217.4-132.7c0-18.1,9.6-29.5,21.7-22.7
		c26.5,15.9,103.7-63.5,82-83.9c-7.2-9.1,2.4-15.9,24.1-15.9c24.1,0,41-11.3,41-24.9c0-13.6-16.9-20.4-33.8-13.6
		c-24.1,9.1-31.3,2.3-21.7-20.4c7.2-15.9,0-31.7-14.5-31.7c-43.4,0-72.3,97.5-41,136c21.7,27.2,19.3,29.5-9.6,9.1
		c-41-27.2-72.3-27.2-113.3-2.3c-43.4,24.9-38.6,68,2.4,54.4c24.1-9.1,31.3-2.3,21.7,20.4c-7.2,15.9,0,31.7,14.5,31.7
		C2205.3-96.4,2217.4-112.3,2217.4-132.7z M2145-277.8c0-22.7-16.9-52.1-36.2-68c-41-31.7-41-29.5-41,68s0,99.8,41,68
		C2128.1-225.7,2145-255.2,2145-277.8z M2265.6-357.2c26.5-31.7,16.9-43.1-28.9-36.3c-12.1,0-19.3-13.6-19.3-31.7
		c0-18.1-12.1-34-26.5-34c-14.5,0-21.7,15.9-14.5,31.7c9.6,22.7,2.4,29.5-21.7,20.4c-33.8-11.3-48.2,40.8-16.9,68
		C2164.3-311.8,2234.2-320.9,2265.6-357.2z"/>
	<path class="st0" d="M7780.5-159.9l-115.7-108.8l127.8-120.2l125.4-117.9l120.6,113.4l123,115.6l-120.6,113.4
		c-65.1,61.2-125.4,113.4-132.6,113.4C7901-51.1,7843.1-101,7780.5-159.9z M7932.4-132.7c0-18.1,9.6-29.5,21.7-22.7
		c31.3,20.4,82-49.9,86.8-117.9c4.8-65.8-53.1-147.4-86.8-127c-12.1,6.8-21.7-4.5-21.7-22.7c0-20.4-12.1-36.3-26.5-36.3
		s-19.3,15.9-12.1,36.3c9.6,27.2,4.8,34-21.7,22.7c-21.7-6.8-36.2,0-36.2,22.7c0,45.3,69.9,68,123,36.3c38.6-22.7,41-18.1,21.7,38.5
		c-12.1,43.1-9.6,74.8,7.2,93c21.7,22.7,21.7,24.9-7.2,9.1c-57.9-29.5-106.1-31.7-125.4-2.3c-28.9,43.1-21.7,68,14.5,54.4
		c24.1-9.1,31.3-2.3,21.7,20.4c-7.2,15.9,0,31.7,14.5,31.7S7932.4-112.3,7932.4-132.7z M7860-277.8c0-43.1-55.5-97.5-79.6-77.1
		c-7.2,6.8-7.2,27.2,0,45.3c9.6,22.7,0,27.2-26.5,18.1c-21.7-6.8-38.6-2.3-38.6,11.3c0,13.6,16.9,24.9,36.2,24.9
		c19.3,0,33.8,6.8,33.8,18.1c-7.2,43.1,4.8,52.1,38.6,27.2C7843.1-225.7,7860-255.2,7860-277.8z"/>
	<path class="st0" d="M7645.4-769.8c-14.5-45.3-21.7-86.2-16.9-90.7c4.8-4.5,79.6-27.2,166.4-49.9l159.2-40.8l14.5,58.9
		c7.2,31.7,19.3,77.1,26.5,99.8c9.6,24.9,0,38.5-24.1,38.5c-21.7,0-38.6-18.1-38.6-38.5c0-63.5-36.2-99.8-79.6-83.9
		c-28.9,9.1-33.8,24.9-16.9,65.8c19.3,49.9,12.1,79.4-26.5,79.4c-9.6,0-24.1-24.9-31.3-56.7c-9.6-31.7-31.3-56.7-53.1-56.7
		c-28.9,0-33.8,15.9-19.3,79.4C7727.4-656.5,7676.8-661,7645.4-769.8z"/>
	<path class="st0" d="M2236.6-769.8c-147.1-36.3-197.7-90.7-62.7-65.8c161.6,29.5,260.4,61.2,260.4,81.6
		C2434.4-724.5,2405.4-726.8,2236.6-769.8z"/>
	<path class="st0" d="M2268-865.1c-72.3-20.4-135-49.9-142.3-65.8c-12.1-36.3,2.4-34,108.5,6.8c118.2,47.6,125.4,29.5,21.7-49.9
		c-86.8-63.5-120.6-136-50.6-111.1c21.7,6.8,96.5,29.5,168.8,49.9c72.3,18.1,132.6,45.3,132.6,58.9s-24.1,18.1-53.1,9.1
		c-183.3-47.6-180.9-47.6-84.4,29.5C2514-817.5,2489.8-799.3,2268-865.1z"/>
	<path class="st0" d="M7573.1-985.2c-36.2-90.7,36.2-170,171.2-192.7c98.9-13.6,164,34,164,120.2c0,38.5-19.3,61.2-62.7,77.1
		c-86.8,31.7-98.9,29.5-113.3-22.7c-12.1-47.6,33.8-95.2,50.6-49.9c14.5,43.1,53.1,31.7,53.1-15.9c0-54.4-55.5-74.8-132.6-47.6
		c-79.6,27.2-103.7,88.4-53.1,124.7c55.5,36.3,50.6,56.7-7.2,56.7C7614.1-935.4,7585.1-955.8,7573.1-985.2z"/>
	<path class="st0" d="M2429.6-1075.9c-21.7-15.9-43.4-58.9-48.2-97.5c-9.6-90.7-82-95.2-74.8-4.5c4.8,68-19.3,79.4-65.1,27.2
		c-45.8-52.1,7.2-147.4,82-147.4c69.9,0,103.7,36.3,115.7,124.7c9.6,81.6,57.9,79.4,50.6-2.3c-4.8-58.9,14.5-70.3,60.3-27.2
		c38.6,36.3,36.2,74.8-9.6,117.9C2494.7-1041.9,2480.2-1039.6,2429.6-1075.9z"/>
	<path class="st0" d="M7462.1-1250.5l-36.2-65.8l151.9-68c132.6-58.9,151.9-63.5,180.9-31.7c53.1,63.5,36.2,149.6-41,192.7
		C7606.8-1162.1,7505.6-1173.4,7462.1-1250.5z M7691.2-1270.9c31.3-24.9,45.8-52.1,36.2-77.1c-14.5-36.3-21.7-36.3-103.7,0
		c-50.6,20.4-94,38.5-98.9,43.1c-4.8,2.3-2.4,20.4,4.8,40.8C7549-1218.8,7626.1-1221,7691.2-1270.9z"/>
	<path class="st0" d="M2564.6-1270.9c12.1-34-9.6-52.1-106.1-95.2c-65.1-29.5-120.6-65.8-120.6-83.9c0-20.4,38.6-11.3,130.2,31.7
		c120.6,54.4,132.6,56.7,171.2,22.7c36.2-34,28.9-43.1-94-99.8c-74.8-34-135-74.8-135-90.7c0-38.5-2.4-38.5,147.1,38.5
		c156.7,81.6,156.7,81.6,156.7,20.4c0-34-36.2-70.3-115.7-115.6c-65.1-38.5-110.9-77.1-101.3-88.4c7.2-11.3,26.5-13.6,41-4.5
		c16.9,6.8,69.9,38.5,123,70.3c53.1,29.5,98.9,45.3,108.5,31.7c7.2-11.3,28.9-24.9,48.2-29.5c19.3-6.8-4.8-34-65.1-72.6
		c-130.2-79.4-159.2-129.2-110.9-192.7c48.2-65.8,79.6-63.5,200.1,20.4c113.3,74.8,110.9,74.8,130.2,9.1c9.6-34-9.6-63.5-79.6-113.4
		c-53.1-36.3-94-81.6-96.5-95.2c0-45.3,33.8-34,98.9,29.5c84.4,86.2,144.7,111.1,168.8,74.8c14.5-22.7,26.5-24.9,45.8-6.8
		s4.8,47.6-57.9,108.8c-45.8,47.6-86.8,95.2-91.6,106.6c-4.8,13.6-50.6-9.1-103.7-45.3c-53.1-38.5-115.7-70.3-137.4-70.3
		c-77.2,0-45.8,63.5,65.1,136l106.1,70.3l-86.8,129.2c-50.6,70.3-113.3,176.8-144.7,238.1
		C2605.6-1234.6,2535.7-1184.8,2564.6-1270.9z"/>
	<path class="st0" d="M7365.7-1443.2c-48.2-70.3-19.3-133.8,84.4-183.7c98.9-47.6,161.6-43.1,205,20.4
		c48.2,70.3,19.3,133.8-84.4,183.7C7471.8-1375.2,7409.1-1379.7,7365.7-1443.2z M7556.2-1481.8c69.9-52.1,82-99.8,26.5-120.2
		c-91.6-31.7-231.5,102-154.3,147.4C7476.6-1427.4,7483.8-1429.6,7556.2-1481.8z"/>
	<path class="st0" d="M7225.8-1656.4c-62.7-63.5-53.1-81.6,94-172.3c127.8-79.4,137.4-81.6,168.8-43.1
		c77.2,95.2,57.9,188.2-38.6,188.2c-24.1,0-55.5,15.9-72.3,34C7336.8-1604.2,7274.1-1606.5,7225.8-1656.4z M7341.6-1708.5
		c0-15.9-19.3-34-41-38.5c-43.4-6.8-60.3,40.8-26.5,72.6C7298.2-1651.8,7341.6-1672.2,7341.6-1708.5z M7474.2-1756.1
		c0-15.9-9.6-43.1-21.7-61.2c-19.3-27.2-28.9-29.5-60.3-4.5c-28.9,24.9-33.8,38.5-12.1,61.2
		C7413.9-1722.1,7474.2-1719.8,7474.2-1756.1z"/>
	<path class="st0" d="M7122.1-1808.3c-9.6-22.7,9.6-61.2,53.1-104.3c77.2-74.8,55.5-83.9-55.5-22.7c-60.3,36.3-82,38.5-101.3,15.9
		c-19.3-22.7,2.4-52.1,91.6-122.4c113.3-90.7,171.2-115.6,171.2-77.1c0,9.1-38.6,40.8-84.4,70.3c-108.5,70.3-94,86.2,19.3,24.9
		c130.2-72.6,159.2-34,50.6,70.3c-110.9,106.6-94,115.6,26.5,18.1c48.2-40.8,94-63.5,103.7-54.4c16.9,15.9-132.6,149.6-219.4,195
		C7146.3-1778.8,7131.8-1781.1,7122.1-1808.3z"/>
	<path class="st0" d="M6883.4-2044.1c-21.7-36.3,159.2-326.5,188.1-299.3c16.9,15.9,16.9,34-2.4,54.4
		c-38.6,40.8,43.4,120.2,84.4,81.6c19.3-18.1,31.3-15.9,43.4,2.3c21.7,31.7,28.9,27.2-149.5,111.1
		C6965.4-2055.4,6890.6-2032.7,6883.4-2044.1z"/>
	<path class="st0" d="M3087.9-2184.6c-101.3-108.8-101.3-115.6-62.7-158.7c65.1-65.8,142.3-54.4,226.7,36.3
		c41,45.3,74.8,95.2,74.8,111.1c0,27.2-96.5,127-125.4,127C3196.4-2069,3143.3-2121.1,3087.9-2184.6z M3254.3-2202.8
		c0-56.7-103.7-142.8-151.9-124.7c-55.5,18.1-53.1,29.5,36.2,115.6C3215.7-2137,3254.3-2132.5,3254.3-2202.8z"/>
	<path class="st0" d="M6717-2186.9c-62.7-31.7-48.2-140.6,31.3-219.9c74.8-74.8,147.1-90.7,195.3-38.5
		c31.3,38.5,24.1,142.8-12.1,129.2c-12.1-4.5-21.7-27.2-16.9-52.1c12.1-61.2-72.3-52.1-139.9,13.6c-65.1,68-50.6,138.3,24.1,115.6
		c33.8-9.1,48.2-4.5,48.2,18.1C6847.2-2180.1,6770.1-2159.7,6717-2186.9z"/>
	<path class="st0" d="M3283.2-2350.1l-101.3-124.7l77.2-56.7c72.3-52.1,115.7-58.9,115.7-15.9c0,9.1-26.5,29.5-57.9,47.6
		c-50.6,24.9-55.5,36.3-31.3,70.3c26.5,40.8,28.9,40.8,79.6-4.5c38.6-34,57.9-38.5,69.9-18.1c12.1,15.9-2.4,40.8-31.3,63.5
		c-36.2,24.9-45.8,45.3-28.9,70.3c19.3,27.2,31.3,24.9,79.6-20.4c43.4-36.3,65.1-43.1,77.2-24.9c14.5,22.7-91.6,131.5-132.6,136
		C3391.7-2227.7,3341.1-2282.1,3283.2-2350.1z"/>
	<path class="st0" d="M6497.6-2363.8c-7.2-11.3,14.5-61.2,48.2-106.6c33.8-47.6,60.3-104.3,60.3-124.7c0-72.6-67.5-43.1-137.4,61.2
		c-65.1,99.8-103.7,127-103.7,77.1c0-13.6,33.8-68,72.3-124.7c77.2-102,151.9-129.2,212.2-72.6c43.4,40.8,36.2,72.6-45.8,197.3
		C6519.3-2332,6519.3-2329.7,6497.6-2363.8z"/>
	<path class="st0" d="M3628-2409.1c-9.6-13.6-4.8-36.3,9.6-52.1c16.9-20.4,2.4-58.9-48.2-136c-79.6-120.2-82-129.2-38.6-129.2
		c14.5,0,60.3,52.1,96.5,115.6c55.5,88.4,77.2,108.8,101.3,88.4c24.1-18.1,36.2-18.1,48.2,0c9.6,13.6,12.1,27.2,9.6,31.7
		C3690.7-2411.4,3640.1-2388.7,3628-2409.1z"/>
	<path class="st0" d="M3760.7-2638.1c-41-74.8-67.5-145.1-62.7-154.2c21.7-31.7,159.2-77.1,178.4-58.9c9.6,9.1,4.8,22.7-9.6,27.2
		c-67.5,22.7-108.5,68-94,104.3c12.1,29.5,26.5,31.7,60.3,15.9c24.1-13.6,55.5-22.7,69.9-22.7c45.8,0,28.9,40.8-21.7,56.7
		c-60.3,18.1-67.5,88.4-4.8,72.6c21.7-4.5,55.5-13.6,74.8-18.1c72.3-18.1,45.8,40.8-33.8,77.1l-84.4,38.5L3760.7-2638.1z"/>
	<path class="st0" d="M6203.4-2527c-31.3-13.6-55.5-34-55.5-43.1c0-36.3,130.2-269.8,149.5-269.8c53.1,0,139.9,77.1,139.9,124.7
		c0,61.2-96.5,201.8-144.7,208.6C6273.3-2504.3,6232.3-2513.4,6203.4-2527z M6352.9-2638.1c31.3-54.4,33.8-77.1,9.6-102
		c-41-47.6-57.9-40.8-101.3,47.6c-53.1,104.3-50.6,124.7,7.2,124.7C6297.4-2567.8,6331.2-2595,6352.9-2638.1z"/>
	<path class="st0" d="M4054.8-2629c-45.8-15.9-101.3-131.5-101.3-206.3c0-90.7,55.5-131.5,132.6-99.8c33.8,15.9,60.3,36.3,60.3,47.6
		c0,34-43.4,52.1-60.3,24.9c-7.2-11.3-31.3-22.7-50.6-22.7c-50.6,0-41,99.8,14.5,161c45.8,52.1,50.6,52.1,82,15.9
		c41-52.1,62.7-52.1,62.7,4.5c0,36.3-69.9,97.5-101.3,88.4C4088.6-2615.4,4071.7-2622.2,4054.8-2629z"/>
	<path class="st0" d="M5914-2647.2l-79.6-31.7l53.1-131.5c28.9-72.6,57.9-138.3,67.5-149.6c9.6-9.1,57.9,0,108.5,18.1
		c62.7,24.9,82,45.3,65.1,61.2s-41,13.6-74.8-4.5c-28.9-13.6-62.7-18.1-74.8-11.3c-45.8,27.2-24.1,79.4,36.2,93
		c33.8,9.1,57.9,24.9,53.1,40.8c-7.2,13.6-26.5,20.4-43.4,15.9c-19.3-4.5-53.1-13.6-74.8-18.1c-28.9-9.1-43.4,0-43.4,24.9
		c0,18.1,26.5,40.8,60.3,49.9c33.8,6.8,60.3,27.2,60.3,45.3C6027.4-2606.4,6012.9-2606.4,5914-2647.2z"/>
	<path class="st0" d="M4255-2708.4c-4.8-15.9-21.7-72.6-36.2-127c-14.5-54.4-33.8-113.4-41-131.5c-7.2-18.1,2.4-31.7,26.5-31.7
		c24.1,0,38.6,20.4,38.6,52.1c0,29.5,7.2,58.9,14.5,65.8c21.7,22.7,108.5-9.1,98.9-36.3c-41-99.8-43.4-127-9.6-127
		c19.3,0,43.4,43.1,60.3,108.8c14.5,58.9,33.8,129.2,43.4,158.7s4.8,49.9-12.1,49.9c-14.5,0-31.3-24.9-41-58.9
		c-24.1-86.2-96.5-61.2-86.8,31.7C4315.3-2683.4,4276.7-2651.7,4255-2708.4z"/>
	<path class="st0" d="M5757.3-2697c-19.3-31.7,79.6-301.6,110.9-301.6c21.7,0,16.9,40.8-19.3,145.1
		C5795.9-2701.6,5774.2-2665.3,5757.3-2697z"/>
	<path class="st0" d="M5533-2780.9c-31.3-45.3-33.8-72.6-12.1-149.6c31.3-111.1,108.5-156.4,190.5-113.4c69.9,34,65.1,170-7.2,170
		c-26.5,0-50.6-13.6-55.5-27.2c-7.2-15.9,4.8-29.5,26.5-29.5c48.2,0,50.6-43.1,2.4-58.9c-57.9-22.7-108.5,34-108.5,120.2
		c0,77.1,2.4,79.4,72.3,68c53.1-11.3,72.3-6.8,72.3,15.9c0,31.7-50.6,58.9-110.9,58.9C5586.1-2726.5,5552.3-2751.5,5533-2780.9z"/>
	<path class="st0" d="M4500.9-2765.1c-7.2-11.3-19.3-68-28.9-129.2c-7.2-61.2-21.7-124.7-28.9-140.6c-7.2-18.1,2.4-31.7,26.5-31.7
		c28.9,0,38.6,22.7,38.6,90.7c0,122.4,38.6,115.6,57.9-11.3c24.1-151.9,77.2-131.5,108.5,40.8c31.3,174.6,31.3,174.6,4.8,174.6
		c-12.1,0-31.3-43.1-41-95.2c-16.9-102-36.2-88.4-67.5,56.7C4556.4-2751.5,4522.7-2731.1,4500.9-2765.1z"/>
	<path class="st0" d="M4773.4-2817.2c-53.1-49.9-65.1-176.8-24.1-251.7c31.3-52.1,127.8-56.7,178.4-6.8
		c60.3,56.7,50.6,224.5-14.5,267.5C4843.4-2762.8,4831.3-2762.8,4773.4-2817.2z M4903.7-2876.2c24.1-56.7,16.9-111.1-19.3-156.4
		c-28.9-36.3-38.6-38.5-72.3-13.6c-43.4,34-50.6,99.8-14.5,163.2C4828.9-2830.8,4884.4-2826.3,4903.7-2876.2z"/>
	<path class="st0" d="M5270.2-2808.1c-55.5-52.1-50.6-201.8,9.6-258.5c91.6-86.2,192.9-29.5,192.9,108.8
		C5472.7-2805.9,5359.4-2722,5270.2-2808.1z M5410-2876.2c45.8-111.1-16.9-206.3-94-145.1c-36.2,29.5-50.6,138.3-19.3,165.5
		C5325.6-2826.3,5395.6-2839.9,5410-2876.2z"/>
	<path class="st0" d="M5014.6-2953.2V-3112h96.5c53.1,0,96.5,11.3,96.5,22.7c0,13.6-31.3,22.7-72.3,22.7c-72.3,0-72.3,0-72.3,136
		c0,74.8-9.6,136-24.1,136S5014.6-2862.6,5014.6-2953.2z"/>
</g>
<text transform="matrix(0.6755 0 0 1 964.5433 304.9049)"><tspan x="0" y="0" class="st1 st2 st3">INSTITUTE  OF  TECHNOLOGY</tspan><tspan x="0" y="223.7" class="st1 st2 st3 st4">						</tspan><tspan x="268.4" y="223.7" class="st1 st2 st3"> </tspan><tspan x="315.1" y="223.7" class="st1 st2 st3 st5">	</tspan><tspan x="357.9" y="223.7" class="st1 st2 st3 st4">				</tspan><tspan x="536.9" y="223.7" class="st1 st2 st3">OF  CAMBODIA</tspan></text>
<rect x="894.8" y="103.1" class="st6" width="23.1" height="1"/>
</svg>
